adc_test_4ch/.Xil/Vivado-87112-apple/hw_ila_data_3/zip_work/waveform.vcd
$date
        2020-Dec-23 19:02:16
$end
$version
        Vivado v2017.4 (64-bit)
$end
$timescale
        1ps
$end
$scope module dut $end
$var reg 32 " wr_burst_addr [31:0] $end
$var reg 64 B wr_burst_data [63:0] $end
$var reg 64 $" rd_burst_data [63:0] $end
$var reg 10 d" rd_burst_len [9:0] $end
$var reg 32 n" rd_burst_addr [31:0] $end
$var reg 8 0# mem_test_m0/rd_cnt [7:0] $end
$var reg 3 8# mem_test_m0/state [2:0] $end
$var reg 8 ;# mem_test_m0/wr_cnt [7:0] $end
$var reg 10 C# wr_burst_len [9:0] $end
$var reg 1 M# PL_KEY_IBUF_BUFG $end
$var reg 1 N# rd_burst_data_valid $end
$var reg 1 O# rd_burst_finish $end
$var reg 1 P# rd_burst_req $end
$var reg 1 Q# wr_burst_data_req $end
$var reg 1 R# wr_burst_finish $end
$var reg 1 S# wr_burst_req $end
$var reg 1 T# _TRIGGER $end
$var reg 1 U# _WINDOW $end
$var reg 1 V# _GAP $end
$upscope $end
$enddefinitions $end
#0
$dumpvars
b100000000000000000010000000 "
b111111101111111011111110111111101111111011111110111111101111111 B
b101011001010110010101100101011001010110010101100101011001010110 $"
b10000000 d"
b100000000000000000000000000 n"
b10000000 0#
b0 8#
b10000000 ;#
b10000000 C#
1M#
1N#
0O#
1P#
0Q#
0R#
0S#
0T#
1U#
0V#
$end
#1
b101011101010111010101110101011101010111010101110101011101010111 $"
#2
b101100001011000010110000101100001011000010110000101100001011000 $"
#3
b101100101011001010110010101100101011001010110010101100101011001 $"
#4
b101101001011010010110100101101001011010010110100101101001011010 $"
#5
b101101101011011010110110101101101011011010110110101101101011011 $"
#6
b101110001011100010111000101110001011100010111000101110001011100 $"
#7
b101110101011101010111010101110101011101010111010101110101011101 $"
#8
b101111001011110010111100101111001011110010111100101111001011110 $"
#9
b101111101011111010111110101111101011111010111110101111101011111 $"
#10
b110000001100000011000000110000001100000011000000110000001100000 $"
#11
b110000101100001011000010110000101100001011000010110000101100001 $"
#12
b110001001100010011000100110001001100010011000100110001001100010 $"
#13
b110001101100011011000110110001101100011011000110110001101100011 $"
#14
b110010001100100011001000110010001100100011001000110010001100100 $"
#15
b110010101100101011001010110010101100101011001010110010101100101 $"
#16
b110011001100110011001100110011001100110011001100110011001100110 $"
#17
b110011101100111011001110110011101100111011001110110011101100111 $"
#18
b110100001101000011010000110100001101000011010000110100001101000 $"
#19
b110100101101001011010010110100101101001011010010110100101101001 $"
#20
b110101001101010011010100110101001101010011010100110101001101010 $"
#21
b110101101101011011010110110101101101011011010110110101101101011 $"
#22
b110110001101100011011000110110001101100011011000110110001101100 $"
#23
b110110101101101011011010110110101101101011011010110110101101101 $"
#24
b110111001101110011011100110111001101110011011100110111001101110 $"
#25
b110111101101111011011110110111101101111011011110110111101101111 $"
#26
b111000001110000011100000111000001110000011100000111000001110000 $"
#27
b111000101110001011100010111000101110001011100010111000101110001 $"
#28
b111001001110010011100100111001001110010011100100111001001110010 $"
#29
b111001101110011011100110111001101110011011100110111001101110011 $"
#30
b111010001110100011101000111010001110100011101000111010001110100 $"
#31
b111010101110101011101010111010101110101011101010111010101110101 $"
#32
b111011001110110011101100111011001110110011101100111011001110110 $"
#33
b111011101110111011101110111011101110111011101110111011101110111 $"
#34
b111100001111000011110000111100001111000011110000111100001111000 $"
#35
b111100101111001011110010111100101111001011110010111100101111001 $"
#36
b111101001111010011110100111101001111010011110100111101001111010 $"
#37
b111101101111011011110110111101101111011011110110111101101111011 $"
#38
b111110001111100011111000111110001111100011111000111110001111100 $"
#39
b111110101111101011111010111110101111101011111010111110101111101 $"
#40
b111111001111110011111100111111001111110011111100111111001111110 $"
#41
b111111101111111011111110111111101111111011111110111111101111111 $"
#42
b111110001111100011111000111110001111100011111000111110001111100 $"
0N#
1O#
#43
0O#
#70
b0 $"
1N#
#71
b100000001000000010000000100000001000000010000000100000001 $"
#72
b1000000010000000100000001000000010000000100000001000000010 $"
#73
b1100000011000000110000001100000011000000110000001100000011 $"
#74
b10000000100000001000000010000000100000001000000010000000100 $"
#75
b10100000101000001010000010100000101000001010000010100000101 $"
#76
b11000000110000001100000011000000110000001100000011000000110 $"
#77
b11100000111000001110000011100000111000001110000011100000111 $"
#78
b100000001000000010000000100000001000000010000000100000001000 $"
#79
b100100001001000010010000100100001001000010010000100100001001 $"
#80
b101000001010000010100000101000001010000010100000101000001010 $"
#81
b101100001011000010110000101100001011000010110000101100001011 $"
#82
b110000001100000011000000110000001100000011000000110000001100 $"
#83
b110100001101000011010000110100001101000011010000110100001101 $"
#84
b111000001110000011100000111000001110000011100000111000001110 $"
#85
b111100001111000011110000111100001111000011110000111100001111 $"
#86
b1000000010000000100000001000000010000000100000001000000010000 $"
#87
b1000100010001000100010001000100010001000100010001000100010001 $"
#88
b1001000010010000100100001001000010010000100100001001000010010 $"
#89
b1001100010011000100110001001100010011000100110001001100010011 $"
#90
b1010000010100000101000001010000010100000101000001010000010100 $"
#91
b1010100010101000101010001010100010101000101010001010100010101 $"
#92
b1011000010110000101100001011000010110000101100001011000010110 $"
#93
b1011100010111000101110001011100010111000101110001011100010111 $"
#94
b1100000011000000110000001100000011000000110000001100000011000 $"
#95
b1100100011001000110010001100100011001000110010001100100011001 $"
#96
b1101000011010000110100001101000011010000110100001101000011010 $"
#97
b1101100011011000110110001101100011011000110110001101100011011 $"
#98
b1110000011100000111000001110000011100000111000001110000011100 $"
#99
b1110100011101000111010001110100011101000111010001110100011101 $"
#100
b1111000011110000111100001111000011110000111100001111000011110 $"
#101
b1111100011111000111110001111100011111000111110001111100011111 $"
#102
b10000000100000001000000010000000100000001000000010000000100000 $"
#103
b10000100100001001000010010000100100001001000010010000100100001 $"
#104
b10001000100010001000100010001000100010001000100010001000100010 $"
#105
b10001100100011001000110010001100100011001000110010001100100011 $"
#106
b10010000100100001001000010010000100100001001000010010000100100 $"
#107
b10010100100101001001010010010100100101001001010010010100100101 $"
#108
b10011000100110001001100010011000100110001001100010011000100110 $"
#109
b10011100100111001001110010011100100111001001110010011100100111 $"
#110
b10100000101000001010000010100000101000001010000010100000101000 $"
#111
b10100100101001001010010010100100101001001010010010100100101001 $"
#112
b10101000101010001010100010101000101010001010100010101000101010 $"
#113
b10101100101011001010110010101100101011001010110010101100101011 $"
#114
b10110000101100001011000010110000101100001011000010110000101100 $"
#115
b10110100101101001011010010110100101101001011010010110100101101 $"
#116
b10111000101110001011100010111000101110001011100010111000101110 $"
#117
b10111100101111001011110010111100101111001011110010111100101111 $"
#118
b11000000110000001100000011000000110000001100000011000000110000 $"
#119
b11000100110001001100010011000100110001001100010011000100110001 $"
#120
b11001000110010001100100011001000110010001100100011001000110010 $"
#121
b11001100110011001100110011001100110011001100110011001100110011 $"
#122
b11010000110100001101000011010000110100001101000011010000110100 $"
#123
b11010100110101001101010011010100110101001101010011010100110101 $"
#124
b11011000110110001101100011011000110110001101100011011000110110 $"
#125
b11011100110111001101110011011100110111001101110011011100110111 $"
#126
b11100000111000001110000011100000111000001110000011100000111000 $"
#127
b11100100111001001110010011100100111001001110010011100100111001 $"
#128
b11101000111010001110100011101000111010001110100011101000111010 $"
#129
b11101100111011001110110011101100111011001110110011101100111011 $"
#130
b11110000111100001111000011110000111100001111000011110000111100 $"
#131
b11110100111101001111010011110100111101001111010011110100111101 $"
#132
b11111000111110001111100011111000111110001111100011111000111110 $"
#133
b11111100111111001111110011111100111111001111110011111100111111 $"
#134
b100000001000000010000000100000001000000010000000100000001000000 $"
#135
b100000101000001010000010100000101000001010000010100000101000001 $"
#136
b100001001000010010000100100001001000010010000100100001001000010 $"
#137
b100001101000011010000110100001101000011010000110100001101000011 $"
#138
b100010001000100010001000100010001000100010001000100010001000100 $"
#139
b100010101000101010001010100010101000101010001010100010101000101 $"
#140
b100011001000110010001100100011001000110010001100100011001000110 $"
#141
b100011101000111010001110100011101000111010001110100011101000111 $"
#142
b100100001001000010010000100100001001000010010000100100001001000 $"
#143
b100100101001001010010010100100101001001010010010100100101001001 $"
#144
b100101001001010010010100100101001001010010010100100101001001010 $"
#145
b100101101001011010010110100101101001011010010110100101101001011 $"
#146
b100110001001100010011000100110001001100010011000100110001001100 $"
#147
b100110101001101010011010100110101001101010011010100110101001101 $"
#148
b100111001001110010011100100111001001110010011100100111001001110 $"
#149
b100111101001111010011110100111101001111010011110100111101001111 $"
#150
b101000001010000010100000101000001010000010100000101000001010000 $"
#151
b101000101010001010100010101000101010001010100010101000101010001 $"
#152
b101001001010010010100100101001001010010010100100101001001010010 $"
#153
b101001101010011010100110101001101010011010100110101001101010011 $"
#154
b101010001010100010101000101010001010100010101000101010001010100 $"
#155
b101010101010101010101010101010101010101010101010101010101010101 $"
#156
b101011001010110010101100101011001010110010101100101011001010110 $"
#157
b101011101010111010101110101011101010111010101110101011101010111 $"
#158
b101100001011000010110000101100001011000010110000101100001011000 $"
#159
b101100101011001010110010101100101011001010110010101100101011001 $"
#160
b101101001011010010110100101101001011010010110100101101001011010 $"
#161
b101101101011011010110110101101101011011010110110101101101011011 $"
#162
b101110001011100010111000101110001011100010111000101110001011100 $"
#163
b101110101011101010111010101110101011101010111010101110101011101 $"
#164
b101111001011110010111100101111001011110010111100101111001011110 $"
#165
b101111101011111010111110101111101011111010111110101111101011111 $"
#166
b110000001100000011000000110000001100000011000000110000001100000 $"
#167
b110000101100001011000010110000101100001011000010110000101100001 $"
#168
b110001001100010011000100110001001100010011000100110001001100010 $"
#169
b110001101100011011000110110001101100011011000110110001101100011 $"
#170
b110010001100100011001000110010001100100011001000110010001100100 $"
#171
b110010101100101011001010110010101100101011001010110010101100101 $"
#172
b110011001100110011001100110011001100110011001100110011001100110 $"
#173
b110011101100111011001110110011101100111011001110110011101100111 $"
#174
b110100001101000011010000110100001101000011010000110100001101000 $"
#175
b110100101101001011010010110100101101001011010010110100101101001 $"
#176
b110101001101010011010100110101001101010011010100110101001101010 $"
#177
b110101101101011011010110110101101101011011010110110101101101011 $"
#178
b110110001101100011011000110110001101100011011000110110001101100 $"
#179
b110110101101101011011010110110101101101011011010110110101101101 $"
#180
b110111001101110011011100110111001101110011011100110111001101110 $"
#181
b110111101101111011011110110111101101111011011110110111101101111 $"
#182
b111000001110000011100000111000001110000011100000111000001110000 $"
#183
b111000101110001011100010111000101110001011100010111000101110001 $"
#184
b111001001110010011100100111001001110010011100100111001001110010 $"
#185
b111001101110011011100110111001101110011011100110111001101110011 $"
#186
b111010001110100011101000111010001110100011101000111010001110100 $"
#187
b111010101110101011101010111010101110101011101010111010101110101 $"
#188
b111011001110110011101100111011001110110011101100111011001110110 $"
#189
b111011101110111011101110111011101110111011101110111011101110111 $"
#190
b111100001111000011110000111100001111000011110000111100001111000 $"
#191
b111100101111001011110010111100101111001011110010111100101111001 $"
#192
b111101001111010011110100111101001111010011110100111101001111010 $"
#193
b111101101111011011110110111101101111011011110110111101101111011 $"
#194
b111110001111100011111000111110001111100011111000111110001111100 $"
#195
b111110101111101011111010111110101111101011111010111110101111101 $"
#196
b111111001111110011111100111111001111110011111100111111001111110 $"
#197
b111111101111111011111110111111101111111011111110111111101111111 $"
#198
b111110001111100011111000111110001111100011111000111110001111100 $"
0N#
1O#
#199
0O#
#227
b0 $"
1N#
#228
b100000001000000010000000100000001000000010000000100000001 $"
#229
b1000000010000000100000001000000010000000100000001000000010 $"
#230
b1100000011000000110000001100000011000000110000001100000011 $"
#231
b10000000100000001000000010000000100000001000000010000000100 $"
#232
b10100000101000001010000010100000101000001010000010100000101 $"
#233
b11000000110000001100000011000000110000001100000011000000110 $"
#234
b11100000111000001110000011100000111000001110000011100000111 $"
#235
b100000001000000010000000100000001000000010000000100000001000 $"
#236
b100100001001000010010000100100001001000010010000100100001001 $"
#237
b101000001010000010100000101000001010000010100000101000001010 $"
#238
b101100001011000010110000101100001011000010110000101100001011 $"
#239
b110000001100000011000000110000001100000011000000110000001100 $"
#240
b110100001101000011010000110100001101000011010000110100001101 $"
#241
b111000001110000011100000111000001110000011100000111000001110 $"
#242
b111100001111000011110000111100001111000011110000111100001111 $"
#243
b1000000010000000100000001000000010000000100000001000000010000 $"
#244
b1000100010001000100010001000100010001000100010001000100010001 $"
#245
b1001000010010000100100001001000010010000100100001001000010010 $"
#246
b1001100010011000100110001001100010011000100110001001100010011 $"
#247
b1010000010100000101000001010000010100000101000001010000010100 $"
#248
b1010100010101000101010001010100010101000101010001010100010101 $"
#249
b1011000010110000101100001011000010110000101100001011000010110 $"
#250
b1011100010111000101110001011100010111000101110001011100010111 $"
#251
b1100000011000000110000001100000011000000110000001100000011000 $"
#252
b1100100011001000110010001100100011001000110010001100100011001 $"
#253
b1101000011010000110100001101000011010000110100001101000011010 $"
#254
b1101100011011000110110001101100011011000110110001101100011011 $"
#255
b1110000011100000111000001110000011100000111000001110000011100 $"
#256
b1110100011101000111010001110100011101000111010001110100011101 $"
#257
b1111000011110000111100001111000011110000111100001111000011110 $"
#258
b1111100011111000111110001111100011111000111110001111100011111 $"
#259
b10000000100000001000000010000000100000001000000010000000100000 $"
#260
b10000100100001001000010010000100100001001000010010000100100001 $"
#261
b10001000100010001000100010001000100010001000100010001000100010 $"
#262
b10001100100011001000110010001100100011001000110010001100100011 $"
#263
b10010000100100001001000010010000100100001001000010010000100100 $"
#264
b10010100100101001001010010010100100101001001010010010100100101 $"
#265
b10011000100110001001100010011000100110001001100010011000100110 $"
#266
b10011100100111001001110010011100100111001001110010011100100111 $"
#267
b10100000101000001010000010100000101000001010000010100000101000 $"
#268
b10100100101001001010010010100100101001001010010010100100101001 $"
#269
b10101000101010001010100010101000101010001010100010101000101010 $"
#270
b10101100101011001010110010101100101011001010110010101100101011 $"
#271
b10110000101100001011000010110000101100001011000010110000101100 $"
#272
b10110100101101001011010010110100101101001011010010110100101101 $"
#273
b10111000101110001011100010111000101110001011100010111000101110 $"
#274
b10111100101111001011110010111100101111001011110010111100101111 $"
#275
b11000000110000001100000011000000110000001100000011000000110000 $"
#276
b11000100110001001100010011000100110001001100010011000100110001 $"
#277
b11001000110010001100100011001000110010001100100011001000110010 $"
#278
b11001100110011001100110011001100110011001100110011001100110011 $"
#279
b11010000110100001101000011010000110100001101000011010000110100 $"
#280
b11010100110101001101010011010100110101001101010011010100110101 $"
#281
b11011000110110001101100011011000110110001101100011011000110110 $"
#282
b11011100110111001101110011011100110111001101110011011100110111 $"
#283
b11100000111000001110000011100000111000001110000011100000111000 $"
#284
b11100100111001001110010011100100111001001110010011100100111001 $"
#285
b11101000111010001110100011101000111010001110100011101000111010 $"
#286
b11101100111011001110110011101100111011001110110011101100111011 $"
#287
b11110000111100001111000011110000111100001111000011110000111100 $"
#288
b11110100111101001111010011110100111101001111010011110100111101 $"
#289
b11111000111110001111100011111000111110001111100011111000111110 $"
#290
b11111100111111001111110011111100111111001111110011111100111111 $"
#291
b100000001000000010000000100000001000000010000000100000001000000 $"
#292
b100000101000001010000010100000101000001010000010100000101000001 $"
#293
b100001001000010010000100100001001000010010000100100001001000010 $"
#294
b100001101000011010000110100001101000011010000110100001101000011 $"
#295
b100010001000100010001000100010001000100010001000100010001000100 $"
#296
b100010101000101010001010100010101000101010001010100010101000101 $"
#297
b100011001000110010001100100011001000110010001100100011001000110 $"
#298
b100011101000111010001110100011101000111010001110100011101000111 $"
#299
b100100001001000010010000100100001001000010010000100100001001000 $"
#300
b100100101001001010010010100100101001001010010010100100101001001 $"
#301
b100101001001010010010100100101001001010010010100100101001001010 $"
#302
b100101101001011010010110100101101001011010010110100101101001011 $"
#303
b100110001001100010011000100110001001100010011000100110001001100 $"
#304
b100110101001101010011010100110101001101010011010100110101001101 $"
#305
b100111001001110010011100100111001001110010011100100111001001110 $"
#306
b100111101001111010011110100111101001111010011110100111101001111 $"
#307
b101000001010000010100000101000001010000010100000101000001010000 $"
#308
b101000101010001010100010101000101010001010100010101000101010001 $"
#309
b101001001010010010100100101001001010010010100100101001001010010 $"
#310
b101001101010011010100110101001101010011010100110101001101010011 $"
#311
b101010001010100010101000101010001010100010101000101010001010100 $"
#312
b101010101010101010101010101010101010101010101010101010101010101 $"
#313
b101011001010110010101100101011001010110010101100101011001010110 $"
#314
b101011101010111010101110101011101010111010101110101011101010111 $"
#315
b101100001011000010110000101100001011000010110000101100001011000 $"
#316
b101100101011001010110010101100101011001010110010101100101011001 $"
#317
b101101001011010010110100101101001011010010110100101101001011010 $"
#318
b101101101011011010110110101101101011011010110110101101101011011 $"
#319
b101110001011100010111000101110001011100010111000101110001011100 $"
#320
b101110101011101010111010101110101011101010111010101110101011101 $"
#321
b101111001011110010111100101111001011110010111100101111001011110 $"
#322
b101111101011111010111110101111101011111010111110101111101011111 $"
#323
b110000001100000011000000110000001100000011000000110000001100000 $"
#324
b110000101100001011000010110000101100001011000010110000101100001 $"
#325
b110001001100010011000100110001001100010011000100110001001100010 $"
#326
b110001101100011011000110110001101100011011000110110001101100011 $"
#327
b110010001100100011001000110010001100100011001000110010001100100 $"
#328
b110010101100101011001010110010101100101011001010110010101100101 $"
#329
b110011001100110011001100110011001100110011001100110011001100110 $"
#330
b110011101100111011001110110011101100111011001110110011101100111 $"
#331
b110100001101000011010000110100001101000011010000110100001101000 $"
#332
b110100101101001011010010110100101101001011010010110100101101001 $"
#333
b110101001101010011010100110101001101010011010100110101001101010 $"
#334
b110101101101011011010110110101101101011011010110110101101101011 $"
#335
b110110001101100011011000110110001101100011011000110110001101100 $"
#336
b110110101101101011011010110110101101101011011010110110101101101 $"
#337
b110111001101110011011100110111001101110011011100110111001101110 $"
#338
b110111101101111011011110110111101101111011011110110111101101111 $"
#339
b111000001110000011100000111000001110000011100000111000001110000 $"
#340
b111000101110001011100010111000101110001011100010111000101110001 $"
#341
b111001001110010011100100111001001110010011100100111001001110010 $"
#342
b111001101110011011100110111001101110011011100110111001101110011 $"
#343
b111010001110100011101000111010001110100011101000111010001110100 $"
#344
b111010101110101011101010111010101110101011101010111010101110101 $"
#345
b111011001110110011101100111011001110110011101100111011001110110 $"
#346
b111011101110111011101110111011101110111011101110111011101110111 $"
#347
b111100001111000011110000111100001111000011110000111100001111000 $"
#348
b111100101111001011110010111100101111001011110010111100101111001 $"
#349
b111101001111010011110100111101001111010011110100111101001111010 $"
#350
b111101101111011011110110111101101111011011110110111101101111011 $"
#351
b111110001111100011111000111110001111100011111000111110001111100 $"
#352
b111110101111101011111010111110101111101011111010111110101111101 $"
#353
b111111001111110011111100111111001111110011111100111111001111110 $"
#354
b111111101111111011111110111111101111111011111110111111101111111 $"
#355
b111110001111100011111000111110001111100011111000111110001111100 $"
0N#
1O#
#356
0O#
#395
b0 $"
1N#
#396
b100000001000000010000000100000001000000010000000100000001 $"
#397
b1000000010000000100000001000000010000000100000001000000010 $"
#398
b1100000011000000110000001100000011000000110000001100000011 $"
#399
b10000000100000001000000010000000100000001000000010000000100 $"
#400
b10100000101000001010000010100000101000001010000010100000101 $"
#401
b11000000110000001100000011000000110000001100000011000000110 $"
#402
b11100000111000001110000011100000111000001110000011100000111 $"
#403
b100000001000000010000000100000001000000010000000100000001000 $"
#404
b100100001001000010010000100100001001000010010000100100001001 $"
#405
b101000001010000010100000101000001010000010100000101000001010 $"
#406
b101100001011000010110000101100001011000010110000101100001011 $"
#407
b110000001100000011000000110000001100000011000000110000001100 $"
#408
b110100001101000011010000110100001101000011010000110100001101 $"
#409
b111000001110000011100000111000001110000011100000111000001110 $"
#410
b111100001111000011110000111100001111000011110000111100001111 $"
#411
b1000000010000000100000001000000010000000100000001000000010000 $"
#412
b1000100010001000100010001000100010001000100010001000100010001 $"
#413
b1001000010010000100100001001000010010000100100001001000010010 $"
#414
b1001100010011000100110001001100010011000100110001001100010011 $"
#415
b1010000010100000101000001010000010100000101000001010000010100 $"
#416
b1010100010101000101010001010100010101000101010001010100010101 $"
#417
b1011000010110000101100001011000010110000101100001011000010110 $"
#418
b1011100010111000101110001011100010111000101110001011100010111 $"
#419
b1100000011000000110000001100000011000000110000001100000011000 $"
#420
b1100100011001000110010001100100011001000110010001100100011001 $"
#421
b1101000011010000110100001101000011010000110100001101000011010 $"
#422
b1101100011011000110110001101100011011000110110001101100011011 $"
#423
b1110000011100000111000001110000011100000111000001110000011100 $"
#424
b1110100011101000111010001110100011101000111010001110100011101 $"
#425
b1111000011110000111100001111000011110000111100001111000011110 $"
#426
b1111100011111000111110001111100011111000111110001111100011111 $"
#427
b10000000100000001000000010000000100000001000000010000000100000 $"
#428
b10000100100001001000010010000100100001001000010010000100100001 $"
#429
b10001000100010001000100010001000100010001000100010001000100010 $"
#430
b10001100100011001000110010001100100011001000110010001100100011 $"
#431
b10010000100100001001000010010000100100001001000010010000100100 $"
#432
b10010100100101001001010010010100100101001001010010010100100101 $"
#433
b10011000100110001001100010011000100110001001100010011000100110 $"
#434
b10011100100111001001110010011100100111001001110010011100100111 $"
#435
b10100000101000001010000010100000101000001010000010100000101000 $"
#436
b10100100101001001010010010100100101001001010010010100100101001 $"
#437
b10101000101010001010100010101000101010001010100010101000101010 $"
#438
b10101100101011001010110010101100101011001010110010101100101011 $"
#439
b10110000101100001011000010110000101100001011000010110000101100 $"
#440
b10110100101101001011010010110100101101001011010010110100101101 $"
#441
b10111000101110001011100010111000101110001011100010111000101110 $"
#442
b10111100101111001011110010111100101111001011110010111100101111 $"
#443
b11000000110000001100000011000000110000001100000011000000110000 $"
#444
b11000100110001001100010011000100110001001100010011000100110001 $"
#445
b11001000110010001100100011001000110010001100100011001000110010 $"
#446
b11001100110011001100110011001100110011001100110011001100110011 $"
#447
b11010000110100001101000011010000110100001101000011010000110100 $"
#448
b11010100110101001101010011010100110101001101010011010100110101 $"
#449
b11011000110110001101100011011000110110001101100011011000110110 $"
#450
b11011100110111001101110011011100110111001101110011011100110111 $"
#451
b11100000111000001110000011100000111000001110000011100000111000 $"
#452
b11100100111001001110010011100100111001001110010011100100111001 $"
#453
b11101000111010001110100011101000111010001110100011101000111010 $"
#454
b11101100111011001110110011101100111011001110110011101100111011 $"
#455
b11110000111100001111000011110000111100001111000011110000111100 $"
#456
b11110100111101001111010011110100111101001111010011110100111101 $"
#457
b11111000111110001111100011111000111110001111100011111000111110 $"
#458
b11111100111111001111110011111100111111001111110011111100111111 $"
#459
b100000001000000010000000100000001000000010000000100000001000000 $"
#460
b100000101000001010000010100000101000001010000010100000101000001 $"
#461
b100001001000010010000100100001001000010010000100100001001000010 $"
#462
b100001101000011010000110100001101000011010000110100001101000011 $"
#463
b100010001000100010001000100010001000100010001000100010001000100 $"
#464
b100010101000101010001010100010101000101010001010100010101000101 $"
#465
b100011001000110010001100100011001000110010001100100011001000110 $"
#466
b100011101000111010001110100011101000111010001110100011101000111 $"
#467
b100100001001000010010000100100001001000010010000100100001001000 $"
#468
b100100101001001010010010100100101001001010010010100100101001001 $"
#469
b100101001001010010010100100101001001010010010100100101001001010 $"
#470
b100101101001011010010110100101101001011010010110100101101001011 $"
#471
b100110001001100010011000100110001001100010011000100110001001100 $"
#472
b100110101001101010011010100110101001101010011010100110101001101 $"
#473
b100111001001110010011100100111001001110010011100100111001001110 $"
#474
b100111101001111010011110100111101001111010011110100111101001111 $"
#475
b101000001010000010100000101000001010000010100000101000001010000 $"
#476
b101000101010001010100010101000101010001010100010101000101010001 $"
#477
b101001001010010010100100101001001010010010100100101001001010010 $"
#478
b101001101010011010100110101001101010011010100110101001101010011 $"
#479
b101010001010100010101000101010001010100010101000101010001010100 $"
#480
b101010101010101010101010101010101010101010101010101010101010101 $"
#481
b101011001010110010101100101011001010110010101100101011001010110 $"
#482
b101011101010111010101110101011101010111010101110101011101010111 $"
#483
b101100001011000010110000101100001011000010110000101100001011000 $"
#484
b101100101011001010110010101100101011001010110010101100101011001 $"
#485
b101101001011010010110100101101001011010010110100101101001011010 $"
#486
b101101101011011010110110101101101011011010110110101101101011011 $"
#487
b101110001011100010111000101110001011100010111000101110001011100 $"
#488
b101110101011101010111010101110101011101010111010101110101011101 $"
#489
b101111001011110010111100101111001011110010111100101111001011110 $"
#490
b101111101011111010111110101111101011111010111110101111101011111 $"
#491
b110000001100000011000000110000001100000011000000110000001100000 $"
#492
b110000101100001011000010110000101100001011000010110000101100001 $"
#493
b110001001100010011000100110001001100010011000100110001001100010 $"
#494
b110001101100011011000110110001101100011011000110110001101100011 $"
#495
b110010001100100011001000110010001100100011001000110010001100100 $"
#496
b110010101100101011001010110010101100101011001010110010101100101 $"
#497
b110011001100110011001100110011001100110011001100110011001100110 $"
#498
b110011101100111011001110110011101100111011001110110011101100111 $"
#499
b110100001101000011010000110100001101000011010000110100001101000 $"
#500
b110100101101001011010010110100101101001011010010110100101101001 $"
#501
b110101001101010011010100110101001101010011010100110101001101010 $"
#502
b110101101101011011010110110101101101011011010110110101101101011 $"
#503
b110110001101100011011000110110001101100011011000110110001101100 $"
#504
b110110101101101011011010110110101101101011011010110110101101101 $"
#505
b110111001101110011011100110111001101110011011100110111001101110 $"
#506
b110111101101111011011110110111101101111011011110110111101101111 $"
#507
b111000001110000011100000111000001110000011100000111000001110000 $"
#508
b111000101110001011100010111000101110001011100010111000101110001 $"
#509
b111001001110010011100100111001001110010011100100111001001110010 $"
#510
b111001101110011011100110111001101110011011100110111001101110011 $"
#511
b111010001110100011101000111010001110100011101000111010001110100 $"
#512
b111010101110101011101010111010101110101011101010111010101110101 $"
1T#
#513
b111011001110110011101100111011001110110011101100111011001110110 $"
#514
b111011101110111011101110111011101110111011101110111011101110111 $"
#515
b111100001111000011110000111100001111000011110000111100001111000 $"
#516
b111100101111001011110010111100101111001011110010111100101111001 $"
#517
b111101001111010011110100111101001111010011110100111101001111010 $"
#518
b111101101111011011110110111101101111011011110110111101101111011 $"
#519
b111110001111100011111000111110001111100011111000111110001111100 $"
#520
b111110101111101011111010111110101111101011111010111110101111101 $"
#521
b111111001111110011111100111111001111110011111100111111001111110 $"
#522
b111111101111111011111110111111101111111011111110111111101111111 $"
#523
b111110001111100011111000111110001111100011111000111110001111100 $"
0N#
1O#
#524
0O#
#551
b0 $"
1N#
#552
b100000001000000010000000100000001000000010000000100000001 $"
#553
b1000000010000000100000001000000010000000100000001000000010 $"
#554
b1100000011000000110000001100000011000000110000001100000011 $"
#555
b10000000100000001000000010000000100000001000000010000000100 $"
#556
b10100000101000001010000010100000101000001010000010100000101 $"
#557
b11000000110000001100000011000000110000001100000011000000110 $"
#558
b11100000111000001110000011100000111000001110000011100000111 $"
#559
b100000001000000010000000100000001000000010000000100000001000 $"
#560
b100100001001000010010000100100001001000010010000100100001001 $"
#561
b101000001010000010100000101000001010000010100000101000001010 $"
#562
b101100001011000010110000101100001011000010110000101100001011 $"
#563
b110000001100000011000000110000001100000011000000110000001100 $"
#564
b110100001101000011010000110100001101000011010000110100001101 $"
#565
b111000001110000011100000111000001110000011100000111000001110 $"
#566
b111100001111000011110000111100001111000011110000111100001111 $"
#567
b1000000010000000100000001000000010000000100000001000000010000 $"
#568
b1000100010001000100010001000100010001000100010001000100010001 $"
#569
b1001000010010000100100001001000010010000100100001001000010010 $"
#570
b1001100010011000100110001001100010011000100110001001100010011 $"
#571
b1010000010100000101000001010000010100000101000001010000010100 $"
#572
b1010100010101000101010001010100010101000101010001010100010101 $"
#573
b1011000010110000101100001011000010110000101100001011000010110 $"
#574
b1011100010111000101110001011100010111000101110001011100010111 $"
#575
b1100000011000000110000001100000011000000110000001100000011000 $"
#576
b1100100011001000110010001100100011001000110010001100100011001 $"
#577
b1101000011010000110100001101000011010000110100001101000011010 $"
#578
b1101100011011000110110001101100011011000110110001101100011011 $"
#579
b1110000011100000111000001110000011100000111000001110000011100 $"
#580
b1110100011101000111010001110100011101000111010001110100011101 $"
#581
b1111000011110000111100001111000011110000111100001111000011110 $"
#582
b1111100011111000111110001111100011111000111110001111100011111 $"
#583
b10000000100000001000000010000000100000001000000010000000100000 $"
#584
b10000100100001001000010010000100100001001000010010000100100001 $"
#585
b10001000100010001000100010001000100010001000100010001000100010 $"
#586
b10001100100011001000110010001100100011001000110010001100100011 $"
#587
b10010000100100001001000010010000100100001001000010010000100100 $"
#588
b10010100100101001001010010010100100101001001010010010100100101 $"
#589
b10011000100110001001100010011000100110001001100010011000100110 $"
#590
b10011100100111001001110010011100100111001001110010011100100111 $"
#591
b10100000101000001010000010100000101000001010000010100000101000 $"
#592
b10100100101001001010010010100100101001001010010010100100101001 $"
#593
b10101000101010001010100010101000101010001010100010101000101010 $"
#594
b10101100101011001010110010101100101011001010110010101100101011 $"
#595
b10110000101100001011000010110000101100001011000010110000101100 $"
#596
b10110100101101001011010010110100101101001011010010110100101101 $"
#597
b10111000101110001011100010111000101110001011100010111000101110 $"
#598
b10111100101111001011110010111100101111001011110010111100101111 $"
#599
b11000000110000001100000011000000110000001100000011000000110000 $"
#600
b11000100110001001100010011000100110001001100010011000100110001 $"
#601
b11001000110010001100100011001000110010001100100011001000110010 $"
#602
b11001100110011001100110011001100110011001100110011001100110011 $"
#603
b11010000110100001101000011010000110100001101000011010000110100 $"
#604
b11010100110101001101010011010100110101001101010011010100110101 $"
#605
b11011000110110001101100011011000110110001101100011011000110110 $"
#606
b11011100110111001101110011011100110111001101110011011100110111 $"
#607
b11100000111000001110000011100000111000001110000011100000111000 $"
#608
b11100100111001001110010011100100111001001110010011100100111001 $"
#609
b11101000111010001110100011101000111010001110100011101000111010 $"
#610
b11101100111011001110110011101100111011001110110011101100111011 $"
#611
b11110000111100001111000011110000111100001111000011110000111100 $"
#612
b11110100111101001111010011110100111101001111010011110100111101 $"
#613
b11111000111110001111100011111000111110001111100011111000111110 $"
#614
b11111100111111001111110011111100111111001111110011111100111111 $"
