CCD231/.Xil/Vivado-282210-apple/hw_ila_data_1/zip_work/waveform.vcd
$date
        2021-Feb-26 22:35:02
$end
$version
        Vivado v2017.4 (64-bit)
$end
$timescale
        1ps
$end
$scope module dut $end
$var reg 1 " PL_KEY $end
$var reg 1 # EF_FR $end
$var reg 1 $ EF_DCO $end
$var reg 1 % GH_FR $end
$var reg 1 & GH_DCO $end
$var reg 16 ' data_E [15:0] $end
$var reg 16 7 data_F [15:0] $end
$var reg 16 G data_G [15:0] $end
$var reg 16 W data_H [15:0] $end
$var reg 1 g sclk_OBUF $end
$var reg 1 h mosi_OBUF $end
$var reg 1 i SDO_IBUF $end
$var reg 1 j A0_OBUF $end
$var reg 1 k A1_OBUF $end
$var reg 1 l data_status $end
$var reg 1 m _TRIGGER $end
$var reg 1 n _WINDOW $end
$var reg 1 o _GAP $end
$upscope $end
$enddefinitions $end
#0
$dumpvars
0"
1#
1$
1%
1&
b1100000000000000 '
b1000000000000000 7
b1111111111111111 G
b1000000000000000 W
1g
1h
1i
1j
1k
1l
0m
1n
0o
$end
#2
0$
0&
#4
1$
1&
#6
0$
0&
#8
1$
1&
#9
0&
#10
0$
0%
#11
0#
1$
1&
#13
0$
0&
#15
1$
1&
#17
0$
0&
#19
1$
1&
#21
0$
0&
#23
1$
1&
#24
0&
#25
1#
0$
1%
#26
1$
1&
#28
0$
0&
#30
1$
1&
#32
0$
0&
#34
1$
1&
#36
0$
0&
#38
1$
1&
#39
0&
#40
0$
0%
#41
0#
1$
1&
#43
0$
0&
#45
1$
1&
#47
0$
0&
#49
1$
1&
#51
0$
0&
#53
1$
1&
#54
0&
#55
1#
0$
1%
#56
1$
1&
#58
0$
0&
#60
1$
1&
#62
0$
0&
#64
1$
1&
#66
0$
0&
#68
1$
1&
#69
0&
#70
0#
0$
0%
#71
1$
1&
#73
0$
0&
#75
1$
1&
#77
0$
0&
#79
1$
1&
#81
0$
0&
#83
1$
1&
#84
0&
#85
1#
0$
1%
#86
1$
1&
#88
0$
0&
#90
1$
1&
#92
0$
0&
#94
1$
1&
#96
0$
0&
#98
1$
1&
#100
0#
0$
0%
0&
#101
1$
1&
#103
0$
0&
#105
1$
1&
#107
0$
0&
#109
1$
1&
#111
0$
0&
#113
1$
1&
#115
1#
0$
1%
0&
#116
1$
1&
#118
0$
0&
#120
1$
1&
#122
0$
0&
#124
1$
1&
#126
0$
0&
#128
1"
1$
1&
b0 '
b0 7
b0 G
b0 W
0l
1m
#130
0$
0%
0&
#131
0#
1$
1&
#133
0$
0&
#135
1$
1&
#137
0$
0&
#139
1$
1&
#141
0$
0&
#143
1$
1&
#145
1#
0$
1%
0&
#146
1$
1&
#148
0$
0&
#150
1$
1&
#152
0$
0&
#154
1$
1&
#156
0$
0&
#158
1$
1&
#160
0$
0%
0&
#161
0#
1$
1&
#163
0$
0&
#165
1$
1&
#167
0$
0&
#169
1$
1&
#171
0$
0&
#173
1$
1&
#175
1#
0$
1%
0&
#176
1$
1&
#178
0$
0&
#180
1$
1&
#182
0$
0&
#184
1$
1&
#186
0"
0$
0&
#188
1$
1&
#190
0$
0%
0&
#191
0#
1$
1&
#193
0$
0&
#195
1$
1&
#197
0$
0&
#199
1$
1&
#201
0$
0&
#203
1$
1&
#205
1#
0$
1%
0&
#206
1$
1&
#208
0$
0&
#210
1$
1&
#212
0$
0&
#214
1$
1&
#216
0$
0&
#218
1$
1&
#220
0#
0$
0%
0&
#221
1$
1&
#223
0$
0&
#224
b1111111111111100 '
b1111111111111000 7
b1111111111111100 G
b1000000000000111 W
#225
1$
1&
#227
0$
0&
#229
1$
1&
#231
0$
0&
#233
1$
1&
#235
1#
0$
1%
0&
#236
1$
1&
#238
0$
0&
#240
1$
1&
#242
0$
0&
#244
1$
1&
#246
0$
0&
#248
1$
1&
#250
0#
0$
0%
0&
#251
1$
1&
#253
0$
0&
#255
1$
1&
#257
0$
0&
#259
1$
1&
#261
0$
0&
#263
1$
1&
#265
1#
0$
1%
0&
#266
1$
1&
#268
0$
0&
#270
1$
1&
#272
0$
0&
#274
1$
1&
#276
0$
0&
#278
1$
1&
#280
0#
0$
0%
0&
#281
1$
1&
#283
0$
0&
b1000000000000011 W
#285
1$
1&
#287
0$
0&
#289
1$
1&
#291
0$
0&
#293
1$
1&
#294
0$
#295
1#
1%
0&
#296
1$
1&
#298
0$
0&
#300
1$
1&
#302
0$
0&
#304
1$
1&
#306
0$
0&
#308
1$
1&
#309
0$
#310
0#
0%
0&
#311
1$
1&
#313
0$
0&
b1111111111111110 G
b1100000000000011 W
#315
1$
1&
#317
0$
0&
#319
1$
1&
#321
0$
0&
#323
1$
1&
#324
0$
#325
1#
1%
0&
#326
1$
1&
#328
0$
0&
#330
1$
1&
#332
0$
0&
#334
1$
1&
#336
0$
0&
#338
1$
1&
#339
0$
#340
0#
0%
0&
#341
1$
1&
#343
0$
0&
b1100000000000001 W
#345
1$
1&
#347
0$
0&
#349
1$
1&
#351
0$
0&
#353
1$
1&
#354
0$
#355
1#
1%
0&
#356
1$
1&
#358
0$
0&
#360
1$
1&
#362
0$
0&
#364
1$
1&
#366
0$
0&
#368
1$
1&
#369
0$
#370
0#
0%
0&
#371
1$
1&
#373
0$
0&
b1100000000000011 W
#375
1$
1&
#377
0$
0&
#379
1$
1&
#381
0$
0&
#383
1$
1&
#384
0$
#385
1#
1%
0&
#386
1$
1&
#388
0$
0&
#390
1$
1&
#392
0$
0&
#394
1$
1&
#396
0$
0&
#398
1$
1&
#399
0$
#400
0#
0%
0&
#401
1$
1&
#403
0$
0&
#405
1$
1&
#407
0$
0&
#409
1$
1&
#411
0$
0&
#413
1$
1&
#415
1#
0$
1%
0&
#416
1$
1&
#418
0$
0&
#420
1$
1&
#422
0$
0&
#424
1$
1&
#426
0$
0&
#428
1$
1&
#430
0#
0$
0%
0&
#431
1$
1&
#433
0$
0&
#435
1$
1&
#437
0$
0&
#439
1$
1&
#441
0$
0&
#443
1$
1&
#445
1#
0$
1%
0&
#446
1$
1&
#448
0$
0&
#450
1$
1&
#452
0$
0&
#454
1$
1&
#456
0$
0&
#458
1$
1&
#460
0#
0$
0%
0&
#461
1$
1&
#463
0$
0&
#464
b1100000000000111 '
#465
1$
1&
#467
0$
0&
#469
1$
1&
#471
0$
0&
#473
1$
1&
#475
1#
0$
1%
0&
#476
1$
1&
#478
0$
0&
#480
1$
1&
#482
0$
0&
#484
1$
1&
#486
0$
0&
#488
1$
1&
#490
0#
0$
0%
0&
#491
1$
1&
#493
0$
0&
#494
b1111111111111100 '
b1000000000000011 W
#495
1$
1&
#497
0$
0&
#499
1$
1&
#501
0$
0&
#503
1$
1&
#505
1#
0$
1%
0&
#506
1$
1&
#508
0$
0&
#510
1$
1&
#512
0$
0&
#514
1$
1&
#516
0$
0&
#518
1$
1&
#520
0#
0$
0%
0&
#521
1$
1&
#523
0$
0&
#524
b1100000000000011 W
#525
1$
1&
#527
0$
0&
#529
1$
1&
#531
0$
0&
#533
1$
1&
#535
1#
0$
1%
0&
#536
1$
1&
#538
0$
0&
#540
1$
1&
#542
0$
0&
#544
1$
1&
#546
0$
0&
#548
1$
1&
#550
0#
0$
0%
0&
#551
1$
1&
#553
0$
0&
#554
b1111111111111100 G
b1000000000000011 W
#555
1$
1&
#557
0$
0&
#559
1$
1&
#561
0$
0&
#563
1$
1&
#565
1#
0$
1%
0&
#566
1$
1&
#568
0$
0&
#570
1$
1&
#572
0$
0&
#574
1$
1&
#576
0$
0&
#578
1$
1&
#580
0#
0$
0%
0&
#581
1$
1&
#583
0$
0&
#584
b1100000000000111 '
#585
1$
1&
#587
0$
0&
#589
1$
1&
#591
0$
0&
#593
1$
1&
#594
0&
#595
1#
0$
1%
#596
1$
1&
#598
0$
0&
#600
1$
1&
#602
0$
0&
#604
1$
1&
#606
0$
0&
#608
1$
1&
#609
0&
#610
0$
0%
#611
0#
1$
1&
#613
0$
0&
#614
b111 '
b1000000000000111 W
#615
1$
1&
#617
0$
0&
#619
1$
1&
#621
0$
0&
#623
1$
1&
#624
0&
#625
1#
0$
1%
#626
1$
1&
#628
0$
0&
#630
1$
1&
#632
0$
0&
#634
1$
1&
#636
0$
0&
#638
1$
1&
#639
0&
#640
0$
0%
#641
0#
1$
1&
#643
0$
0&
#644
b1111111111111100 '
#645
1$
1&
#647
0$
0&
#649
1$
1&
#651
0$
0&
#653
1$
1&
#654
0&
#655
1#
0$
1%
#656
1$
1&
#658
0$
0&
#660
1$
1&
#662
0$
0&
#664
1$
1&
#666
0$
0&
#668
1$
1&
#669
0&
#670
0$
0%
#671
0#
1$
1&
#673
0$
0&
#674
b111 W
#675
1$
1&
#677
0$
0&
#679
1$
1&
#681
0$
0&
#683
1$
1&
#684
0&
#685
1#
0$
1%
#686
1$
1&
#688
0$
0&
#690
1$
1&
#692
0$
0&
#694
1$
1&
#696
0$
0&
#698
1$
1&
#699
0&
#700
0$
0%
#701
0#
1$
1&
#703
0$
0&
#704
b1000000000000111 W
#705
1$
1&
#707
0$
0&
#709
1$
1&
#711
0$
0&
#713
1$
1&
#714
0&
#715
1#
0$
1%
#716
1$
1&
#718
0$
0&
#720
1$
1&
#722
0$
0&
#724
1$
1&
#726
0$
0&
#728
1$
1&
#729
0&
#730
0$
0%
#731
0#
1$
1&
#733
0$
0&
#734
b111 W
#735
1$
1&
#737
0$
0&
#739
1$
1&
#741
0$
0&
#743
1$
1&
#744
0&
#745
1#
0$
1%
#746
1$
1&
#748
0$
0&
#750
1$
1&
#752
0$
0&
#754
1$
1&
#756
0$
0&
#758
1$
1&
#759
0&
#760
0$
0%
#761
0#
1$
1&
#763
0$
0&
#764
b1100000000000111 '
b1000000000000111 W
#765
1$
1&
#767
0$
0&
#769
1$
1&
#771
0$
0&
#773
1$
1&
#774
0&
#775
1#
0$
1%
#776
1$
1&
#778
0$
0&
#780
1$
1&
#782
0$
0&
#784
1$
1&
#786
0$
0&
#788
1$
1&
#789
0&
#790
0$
0%
#791
0#
1$
1&
#793
0$
0&
#794
b1111111111111100 '
b111 W
#795
1$
1&
#797
0$
0&
#799
1$
1&
#801
0$
0&
#803
1$
1&
#804
0&
#805
0$
1%
#806
1#
1$
1&
#808
0$
0&
#810
1$
1&
#812
0$
0&
#814
1$
1&
#816
0$
0&
#818
1$
1&
#819
0&
#820
0$
0%
#821
0#
1$
1&
#823
0$
0&
#824
b1111111111111000 G
#825
1$
1&
#827
0$
0&
#829
1$
1&
#831
0$
0&
#833
1$
1&
#834
0&
#835
0$
1%
#836
1#
1$
1&
#838
0$
0&
#840
1$
1&
#842
0$
0&
#844
1$
1&
#846
0$
0&
#848
1$
1&
#849
0&
#850
0$
0%
#851
0#
1$
1&
#853
0$
0&
#854
b1111 W
#855
1$
1&
#857
0$
0&
#859
1$
1&
#861
0$
0&
#863
1$
1&
#864
0&
#865
1#
0$
1%
#866
1$
1&
#868
0$
0&
#870
1$
1&
#872
0$
0&
#874
1$
1&
#876
0$
0&
#878
1$
1&
#879
0&
#880
0#
0$
0%
#881
1$
1&
#883
0$
0&
#884
b1100000000000111 '
b1000000000000111 W
#885
1$
1&
#887
0$
0&
#889
1$
1&
#891
0$
0&
#893
1$
1&
#894
0&
#895
1#
0$
1%
#896
1$
1&
#898
0$
0&
#900
1$
1&
#902
0$
0&
#904
1$
1&
#906
0$
0&
#908
1$
1&
#909
0&
#910
0#
0$
0%
#911
1$
1&
#913
0$
0&
#914
b1111111111111100 '
b1111111111111100 G
b111 W
#915
1$
1&
#917
0$
0&
#919
1$
1&
#921
0$
0&
#923
1$
1&
#924
0&
#925
1#
0$
1%
#926
1$
1&
#928
0$
0&
#930
1$
1&
#932
0$
0&
#934
1$
1&
#936
0$
0&
#938
1$
1&
#939
0&
#940
0#
0$
0%
#941
1$
1&
#943
0$
0&
#944
b1000000000000111 W
#945
1$
1&
#947
0$
0&
#949
1$
1&
#951
0$
0&
#953
1$
1&
#954
0&
#955
1#
0$
1%
#956
1$
1&
#958
0$
0&
#960
1$
1&
#962
0$
0&
#964
1$
1&
#966
0$
0&
#968
1$
1&
#969
0&
#970
0#
0$
0%
#971
1$
1&
#973
0$
0&
#974
b111 W
#975
1$
1&
#977
0$
0&
#979
1$
1&
#981
0$
0&
#983
1$
1&
#984
0&
#985
1#
0$
1%
#986
1$
1&
#988
0$
0&
#990
1$
1&
#992
0$
0&
#994
1$
1&
#996
0$
0&
#998
1$
1&
#999
0&
#1000
0#
0$
0%
#1001
1$
1&
#1003
0$
0&
#1004
b1111111111111000 G
b1000000000000111 W
#1005
1$
1&
#1007
0$
0&
#1009
1$
1&
#1011
0$
0&
#1013
1$
1&
#1014
0&
#1015
1#
0$
1%
#1016
1$
1&
#1018
0$
0&
#1020
1$
1&
#1022
0$
0&
#1024
1$
1&
#1026
0$
0&
#1028
1$
1&
#1029
0&
#1030
0#
0$
0%
#1031
1$
1&
#1033
0$
0&
#1034
b111 '
b1111111111111100 G
b111 W
#1035
1$
1&
#1037
0$
0&
#1039
1$
1&
#1041
0$
0&
#1043
1$
1&
#1044
0&
#1045
1#
0$
1%
#1046
1$
1&
#1048
0$
0&
#1050
1$
1&
#1052
0$
0&
#1054
1$
1&
#1056
0$
0&
#1058
1$
1&
#1059
0&
#1060
0$
0%
#1061
0#
1$
1&
#1063
0$
0&
#1064
b1111111111111100 '
b1000000000000111 W
#1065
1$
1&
#1067
0$
0&
#1069
1$
1&
#1071
0$
0&
#1073
1$
1&
#1075
0$
1%
0&
#1076
1#
1$
1&
#1078
0$
0&
#1080
1$
1&
#1082
0$
0&
#1084
1$
1&
#1086
0$
0&
#1088
1$
1&
#1090
0$
0%
0&
#1091
0#
1$
1&
#1093
0$
0&
#1094
b111 W
#1095
1$
1&
#1097
0$
0&
#1099
1$
1&
#1101
0$
0&
#1103
1$
1&
#1105
1#
0$
1%
0&
#1106
1$
1&
#1108
0$
0&
#1110
1$
1&
#1112
0$
0&
#1114
1$
1&
#1116
0$
0&
#1118
1$
1&
#1120
0$
0%
0&
#1121
0#
1$
1&
#1123
0$
0&
#1124
b1000000000000111 W
#1125
1$
1&
#1127
0$
0&
#1129
1$
1&
#1131
0$
0&
#1133
1$
1&
#1135
1#
0$
1%
0&
#1136
1$
1&
#1138
0$
0&
#1140
1$
1&
#1142
0$
0&
#1144
1$
1&
#1146
0$
0&
#1148
1$
1&
#1150
0#
0$
0%
0&
#1151
1$
1&
#1153
0$
0&
#1155
1$
1&
#1157
0$
0&
#1159
1$
1&
#1161
0$
0&
#1163
1$
1&
#1165
1#
0$
1%
0&
#1166
1$
1&
#1168
0$
0&
#1170
1$
1&
#1172
0$
0&
#1174
1$
1&
#1176
0$
0&
#1178
1$
1&
#1180
0#
0$
0%
0&
#1181
1$
1&
#1183
0$
0&
#1184
b1100000000000111 '
b1000000000000011 W
#1185
1$
1&
#1187
0$
0&
#1189
1$
1&
#1191
0$
0&
#1193
1$
1&
#1195
1#
0$
1%
0&
#1196
1$
1&
#1198
0$
0&
#1200
1$
1&
#1202
0$
0&
#1204
1$
1&
#1206
0$
0&
#1208
1$
1&
#1210
0#
0$
0%
0&
#1211
1$
1&
#1213
0$
0&
b111 '
b1000000000000111 W
#1215
1$
1&
#1217
0$
0&
#1219
1$
1&
#1221
0$
0&
#1223
1$
1&
#1224
0$
#1225
1#
1%
0&
#1226
1$
1&
#1228
0$
0&
#1230
1$
1&
#1232
0$
0&
#1234
1$
1&
#1236
0$
0&
#1238
1$
1&
#1239
0$
#1240
0#
0%
0&
#1241
1$
1&
#1243
0$
0&
b1111111111111100 '
b1111111111111110 G
b1100000000000011 W
#1245
1$
1&
#1247
0$
0&
#1249
1$
1&
#1251
0$
0&
#1253
1$
1&
#1254
0$
#1255
1#
1%
0&
#1256
1$
1&
#1258
0$
0&
#1260
1$
1&
#1262
0$
0&
#1264
1$
1&
#1266
0$
0&
#1268
1$
1&
#1269
0$
#1270
0#
0%
0&
#1271
1$
1&
#1273
0$
0&
#1275
1$
1&
#1277
0$
0&
#1279
1$
1&
#1281
0$
0&
#1283
1$
1&
#1284
0$
#1285
1#
1%
0&
#1286
1$
1&
#1288
0$
0&
#1290
1$
1&
#1292
0$
0&
#1294
1$
1&
#1296
0$
0&
#1298
1$
1&
#1299
0$
#1300
0#
0%
0&
#1301
1$
1&
#1303
0$
0&
b1100000000000001 W
#1305
1$
1&
#1307
0$
0&
#1309
1$
1&
#1311
0$
0&
#1313
1$
1&
#1314
0$
#1315
1#
1%
0&
#1316
1$
1&
#1318
0$
0&
#1320
1$
1&
#1322
0$
0&
#1324
1$
1&
#1326
0$
0&
#1328
1$
1&
#1329
0$
0&
#1330
0#
0%
#1331
1$
1&
#1333
0$
0&
b1100000000000011 W
#1335
1$
1&
#1337
0$
0&
#1339
1$
1&
#1341
0$
0&
#1343
1$
1&
#1344
0$
0&
#1345
1#
1%
#1346
1$
1&
#1348
0$
0&
#1350
1$
1&
#1352
0$
0&
#1354
1$
1&
#1356
0$
0&
#1358
1$
1&
#1359
0$
0&
#1360
0#
0%
#1361
1$
1&
#1363
0$
0&
b1100000000000111 '
#1365
1$
1&
#1367
0$
0&
#1369
1$
1&
#1371
0$
0&
#1373
1$
1&
#1374
0$
0&
#1375
1#
1%
#1376
1$
1&
#1378
0$
0&
#1380
1$
1&
#1382
0$
0&
#1384
1$
1&
#1386
0$
0&
#1388
1$
1&
#1389
0$
0&
#1390
0#
0%
#1391
1$
1&
#1393
0$
0&
b1111111111111100 '
#1395
1$
1&
#1397
0$
0&
#1399
1$
1&
#1401
0$
0&
#1403
1$
1&
#1404
0$
0&
#1405
1#
1%
#1406
1$
1&
#1408
0$
0&
#1410
1$
1&
#1412
0$
0&
#1414
1$
1&
#1416
0$
0&
#1418
1$
1&
#1419
0&
#1420
0#
0$
0%
#1421
1$
1&
#1423
0$
0&
#1425
1$
1&
#1427
0$
0&
#1429
1$
1&
#1431
0$
0&
#1433
1$
1&
#1434
0&
#1435
1#
0$
1%
#1436
1$
1&
#1438
0$
0&
#1440
1$
1&
#1442
0$
0&
#1444
1$
1&
#1446
0$
0&
#1448
1$
1&
#1449
0&
#1450
0#
0$
0%
#1451
1$
1&
#1453
0$
0&
b1111111111111100 G
b1000000000000111 W
#1455
1$
1&
#1457
0$
0&
#1459
1$
1&
#1461
0$
0&
#1463
1$
1&
#1464
0&
#1465
1#
0$
1%
#1466
1$
1&
#1468
0$
0&
#1470
1$
1&
#1472
0$
0&
#1474
1$
1&
#1476
0$
0&
#1478
1$
1&
#1479
0&
#1480
0#
0$
0%
#1481
1$
1&
#1483
0$
0&
#1484
b1100000000000111 '
b1000000000000011 W
#1485
1$
1&
#1487
0$
0&
#1489
1$
1&
#1491
0$
0&
#1493
1$
1&
#1494
0&
#1495
1#
0$
1%
#1496
1$
1&
#1498
0$
0&
#1500
1$
1&
#1502
0$
0&
#1504
1$
1&
#1506
0$
0&
#1508
1$
1&
#1509
0&
#1510
0$
0%
#1511
0#
1$
1&
#1513
0$
0&
#1514
b1111111111111100 '
b111 W
#1515
1$
1&
#1517
0$
0&
#1519
1$
1&
#1521
0$
0&
#1523
1$
1&
#1524
0&
#1525
1#
0$
1%
#1526
1$
1&
#1528
0$
0&
#1530
1$
1&
#1532
0$
0&
#1534
1$
1&
#1536
0$
0&
#1538
1$
1&
#1539
0&
#1540
0$
0%
#1541
0#
1$
1&
#1543
0$
0&
#1544
b1000000000000111 W
#1545
1$
1&
#1547
0$
0&
#1549
1$
1&
#1551
0$
0&
#1553
1$
1&
#1554
0&
#1555
0$
1%
#1556
1#
1$
1&
#1558
0$
0&
#1560
1$
1&
#1562
0$
0&
#1564
1$
1&
#1566
0$
0&
#1568
1$
1&
#1569
0&
#1570
0$
0%
#1571
0#
1$
1&
#1573
0$
0&
#1574
b111 W
#1575
1$
1&
#1577
0$
0&
#1579
1$
1&
#1581
0$
0&
#1583
1$
1&
#1584
0&
#1585
1#
0$
1%
#1586
1$
1&
#1588
0$
0&
#1590
1$
1&
#1592
0$
0&
#1594
1$
1&
#1596
0$
0&
#1598
1$
1&
#1599
0&
#1600
0$
0%
#1601
0#
1$
1&
#1603
0$
0&
#1604
b1000000000000111 W
#1605
1$
1&
#1607
0$
0&
#1609
1$
1&
#1611
0$
0&
#1613
1$
1&
#1614
0&
#1615
1#
0$
1%
#1616
1$
1&
#1618
0$
0&
#1620
1$
1&
#1622
0$
0&
#1624
1$
1&
#1626
0$
0&
#1628
1$
1&
#1629
0&
#1630
0$
0%
#1631
0#
1$
1&
#1633
0$
0&
#1634
b111 '
b111 W
#1635
1$
1&
#1637
0$
0&
#1639
1$
1&
#1641
0$
0&
#1643
1$
1&
#1644
0&
#1645
1#
0$
1%
#1646
1$
1&
#1648
0$
0&
#1650
1$
1&
#1652
0$
0&
#1654
1$
1&
#1656
0$
0&
#1658
1$
1&
#1659
0&
#1660
0$
0%
#1661
0#
1$
1&
#1663
0$
0&
#1664
b1111111111111100 '
b1000000000000111 W
#1665
1$
1&
#1667
0$
0&
#1669
1$
1&
#1671
0$
0&
#1673
1$
1&
#1674
0&
#1675
1#
0$
1%
#1676
1$
1&
#1678
0$
0&
#1680
1$
1&
#1682
0$
0&
#1684
1$
1&
#1686
0$
0&
#1688
1$
1&
#1689
0&
#1690
0$
0%
#1691
0#
1$
1&
#1693
0$
0&
#1694
b111 W
#1695
1$
1&
#1697
0$
0&
#1699
1$
1&
#1701
0$
0&
#1703
1$
1&
#1704
0&
#1705
1#
0$
1%
#1706
1$
1&
#1708
0$
0&
#1710
1$
1&
#1712
0$
0&
#1714
1$
1&
#1716
0$
0&
#1718
1$
1&
#1719
0&
#1720
0$
0%
#1721
0#
1$
1&
#1723
0$
0&
#1724
b1111111111111000 G
b1000000000000111 W
#1725
1$
1&
#1727
0$
0&
#1729
1$
1&
#1731
0$
0&
#1733
1$
1&
#1734
0&
#1735
1#
0$
1%
#1736
1$
1&
#1738
0$
0&
#1740
1$
1&
#1742
0$
0&
#1744
1$
1&
#1746
0$
0&
#1748
1$
1&
#1749
0&
#1750
0$
0%
#1751
0#
1$
1&
#1753
0$
0&
#1754
b1111111111111100 G
b1111 W
#1755
1$
1&
#1757
0$
0&
#1759
1$
1&
#1761
0$
0&
#1762
1&
#1763
1$
#1764
0&
#1765
0$
1%
#1766
1#
1$
1&
#1768
0$
0&
#1770
1$
1&
#1772
0$
0&
#1774
1$
1&
#1776
0$
0&
#1777
1&
#1778
1$
#1779
0&
#1780
0$
0%
#1781
0#
1$
1&
#1783
0$
0&
#1784
b1111111111111000 G
b1111111111111000 W
#1785
1$
1&
#1787
0$
0&
#1789
1$
1&
#1791
0$
0&
#1793
1$
1&
#1794
0&
#1795
0$
1%
#1796
1#
1$
1&
#1798
0$
0&
#1800
1$
1&
#1802
0$
0&
#1804
1$
1&
#1806
0$
0&
#1808
1$
1&
#1809
0&
#1810
0$
0%
#1811
0#
1$
1&
#1813
0$
0&
#1814
b111 '
b1111 W
#1815
1$
1&
#1817
0$
0&
#1819
1$
1&
#1821
0$
0&
#1823
1$
1&
#1824
0&
#1825
0$
1%
#1826
1#
1$
1&
#1828
0$
0&
#1830
1$
1&
#1832
0$
0&
#1834
1$
1&
#1836
0$
0&
#1838
1$
1&
#1839
0&
#1840
0$
0%
#1841
0#
1$
1&
#1843
0$
0&
#1844
b1111111111111100 '
#1845
1$
1&
#1847
0$
0&
#1849
1$
1&
#1851
0$
0&
#1853
1$
1&
#1854
0&
#1855
0$
1%
#1856
1#
1$
1&
#1858
0$
0&
#1860
1$
1&
#1862
0$
0&
#1864
1$
1&
#1866
0$
0&
#1868
1$
1&
#1869
0&
#1870
0$
0%
#1871
0#
1$
1&
#1873
0$
0&
#1875
1$
1&
#1877
0$
0&
#1879
1$
1&
#1881
0$
0&
#1883
1$
1&
#1884
0&
#1885
1#
0$
1%
#1886
1$
1&
#1888
0$
0&
#1890
1$
1&
#1892
0$
0&
#1894
1$
1&
#1896
0$
0&
#1898
1$
1&
#1900
0$
0%
0&
#1901
0#
1$
1&
#1903
0$
0&
#1904
b1000000000000111 W
#1905
1$
1&
#1907
0$
0&
#1909
1$
1&
#1911
0$
0&
#1913
1$
1&
#1915
1#
0$
1%
0&
#1916
1$
1&
#1918
0$
0&
#1920
1$
1&
#1922
0$
0&
#1924
1$
1&
#1926
0$
0&
#1928
1$
1&
#1930
0$
0%
0&
#1931
0#
1$
1&
#1933
0$
0&
#1934
b1111111111111100 G
b111 W
#1935
1$
1&
#1937
0$
0&
#1939
1$
1&
#1941
0$
0&
#1943
1$
1&
#1945
0$
1%
0&
#1946
1#
1$
1&
#1948
0$
0&
#1950
1$
1&
#1952
0$
0&
#1954
1$
1&
#1956
0$
0&
#1958
1$
1&
#1960
0$
0%
0&
#1961
0#
1$
1&
#1963
0$
0&
#1964
b1100000000000111 '
b1000000000000111 W
#1965
1$
1&
#1967
0$
0&
#1969
1$
1&
#1971
0$
0&
#1973
1$
1&
#1975
0$
1%
0&
#1976
1#
1$
1&
#1978
0$
0&
#1980
1$
1&
#1982
0$
0&
#1984
1$
1&
#1986
0$
0&
#1988
1$
1&
#1990
0$
0%
0&
#1991
0#
1$
1&
#1993
0$
0&
#1994
b1111111111111100 '
b111 G
b111 W
#1995
1$
1&
#1997
0$
0&
#1999
1$
1&
#2001
0$
0&
#2003
1$
1&
#2005
0$
1%
0&
#2006
1#
1$
1&
#2008
0$
0&
#2010
1$
1&
#2012
0$
0&
#2014
1$
1&
#2016
0$
0&
#2018
1$
1&
#2019
0&
#2020
0$
0%
#2021
0#
1$
1&
#2023
0$
0&
#2024
b1111111111111100 G
b1000000000000111 W
#2025
1$
1&
#2027
0$
0&
#2029
1$
1&
#2031
0$
0&
#2033
1$
1&
#2034
0&
#2035
1#
0$
1%
#2036
1$
1&
#2038
0$
0&
#2040
1$
1&
#2042
0$
0&
#2044
1$
1&
#2046
0$
0&
#2048
1$
1&
#2049
0&
#2050
0$
0%
#2051
0#
1$
1&
#2053
0$
0&
#2054
b111 W
#2055
1$
1&
#2057
0$
0&
#2059
1$
1&
#2061
0$
0&
#2063
1$
1&
#2064
0&
#2065
1#
0$
1%
#2066
1$
1&
#2068
0$
0&
#2070
1$
1&
#2072
0$
0&
#2074
1$
1&
#2076
0$
0&
#2078
1$
1&
#2079
0&
#2080
0$
0%
#2081
0#
1$
1&
#2083
0$
0&
#2084
b1100000000000111 '
b1000000000000111 W
#2085
1$
1&
#2087
0$
0&
#2089
1$
1&
#2091
0$
0&
#2093
1$
1&
#2094
0&
#2095
1#
0$
1%
#2096
1$
1&
#2098
0$
0&
#2100
1$
1&
#2102
0$
0&
#2104
1$
1&
#2106
0$
0&
#2108
1$
1&
#2109
0&
#2110
0#
0$
0%
#2111
1$
1&
#2113
0$
0&
#2114
b111 '
b111 W
#2115
1$
1&
#2117
0$
0&
#2119
1$
1&
#2121
0$
0&
#2123
1$
1&
#2124
0&
#2125
1#
0$
1%
#2126
1$
1&
#2128
0$
0&
#2130
1$
1&
#2132
0$
0&
#2134
1$
1&
#2136
0$
0&
#2138
1$
1&
#2139
0&
#2140
0#
0$
0%
#2141
1$
1&
#2143
0$
0&
b1111111111111100 '
b11 G
b1000000000000111 W
#2145
1$
1&
#2147
0$
0&
#2149
1$
1&
#2151
0$
0&
#2153
1$
1&
#2154
0&
#2155
1#
0$
1%
#2156
1$
1&
#2158
0$
0&
#2160
1$
1&
#2162
0$
0&
#2164
1$
1&
#2166
0$
0&
#2168
1$
1&
#2169
0$
#2170
0#
0%
0&
#2171
1$
1&
#2173
0$
0&
b1111111111111100 G
#2175
1$
1&
#2177
0$
0&
#2179
1$
1&
#2181
0$
0&
#2183
1$
1&
#2184
0$
#2185
1#
1%
0&
#2186
1$
1&
#2188
0$
0&
#2190
1$
1&
#2192
0$
0&
#2194
1$
1&
#2196
0$
0&
#2198
1$
1&
#2200
0#
0$
0%
0&
#2201
1$
1&
#2203
0$
0&
b1111111111111110 G
b1100000000000011 W
#2205
1$
1&
#2207
0$
0&
#2209
1$
1&
#2211
0$
0&
#2213
1$
1&
#2215
1#
0$
1%
0&
#2216
1$
1&
#2218
0$
0&
#2220
1$
1&
#2222
0$
0&
#2224
1$
1&
#2226
0$
0&
#2228
1$
1&
#2230
0#
0$
0%
0&
#2231
1$
1&
#2233
0$
0&
#2235
1$
1&
#2237
0$
0&
#2239
1$
1&
#2241
0$
0&
#2243
1$
1&
#2245
1#
0$
1%
0&
#2246
1$
1&
#2248
0$
0&
#2250
1$
1&
#2252
0$
0&
#2254
1$
1&
#2256
0$
0&
#2258
1$
1&
#2259
0&
#2260
0#
0$
0%
#2261
1$
1&
#2263
0$
0&
#2264
b1111111111111100 G
b1000000000000011 W
#2265
1$
1&
#2267
0$
0&
#2269
1$
1&
#2271
0$
0&
#2273
1$
1&
#2274
0&
#2275
1#
0$
1%
#2276
1$
1&
#2278
0$
0&
#2280
1$
1&
#2282
0$
0&
#2284
1$
1&
#2286
0$
0&
#2288
1$
1&
#2289
0&
#2290
0#
0$
0%
#2291
1$
1&
#2293
0$
0&
#2294
b111 W
#2295
1$
1&
#2297
0$
0&
#2299
1$
1&
#2301
0$
0&
#2303
1$
1&
#2304
0&
#2305
1#
0$
1%
#2306
1$
1&
#2308
0$
0&
#2310
1$
1&
#2312
0$
0&
#2314
1$
1&
#2316
0$
0&
#2318
1$
1&
#2319
0&
#2320
0#
0$
0%
#2321
1$
1&
#2323
0$
0&
#2324
b1000000000000111 W
#2325
1$
1&
#2327
0$
0&
#2329
1$
1&
#2331
0$
0&
#2333
1$
1&
#2334
0&
#2335
1#
0$
1%
#2336
1$
1&
#2338
0$
0&
#2340
1$
1&
#2342
0$
0&
#2344
1$
1&
#2346
0$
0&
#2348
1$
1&
#2349
0&
#2350
0#
0$
0%
