adc_test_4ch/.Xil/Vivado-87112-apple/hw_ila_data_2/zip_work/waveform.vcd
$date
        2020-Dec-23 19:02:22
$end
$version
        Vivado v2017.4 (64-bit)
$end
$timescale
        1ps
$end
$scope module dut $end
$var reg 12 " adc2_data_a_d0 [11:0] $end
$var reg 12 . adc2_data_b_d0 [11:0] $end
$var reg 1 : _TRIGGER $end
$var reg 1 ; _WINDOW $end
$var reg 1 < _GAP $end
$upscope $end
$enddefinitions $end
#0
$dumpvars
b11111111110 "
b11111111100 .
0:
1;
0<
$end
#1
b100000000000 "
#2
b11111111101 "
#3
b11111111110 "
#4
b100000000000 "
#5
b11111111111 "
b11111111011 .
#6
b11111111110 "
b11111111100 .
#7
b11111111111 "
#9
b11111111110 "
b11111111011 .
#10
b11111111100 .
#11
b11111111111 "
b11111111011 .
#13
b11111111110 "
b11111111100 .
#14
b11111111101 .
#15
b11111111100 .
#16
b100000000000 "
b11111111011 .
#17
b11111111110 "
#18
b100000000000 "
#19
b11111111110 "
#21
b11111111111 "
b11111111100 .
#22
b11111111011 .
#24
b11111111100 .
#26
b11111111110 "
b11111111011 .
#27
b11111111101 .
#28
b11111111010 .
#29
b11111111111 "
b11111111011 .
#32
b100000000000 "
b11111111100 .
#33
b11111111111 "
b11111111011 .
#34
b11111111100 .
#38
b11111111110 "
b11111111011 .
#41
b11111111111 "
b11111111100 .
#42
b11111111011 .
#44
b11111111101 .
#45
b11111111100 .
#46
b11111111101 "
#47
b11111111110 "
#48
b11111111111 "
b11111111011 .
#51
b11111111101 "
#52
b11111111110 "
#56
b11111111111 "
b11111111100 .
#57
b100000000000 "
b11111111010 .
#58
b11111111110 "
b11111111011 .
#60
b11111111111 "
#61
b11111111101 "
b11111111100 .
#62
b11111111111 "
b11111111011 .
#63
b11111111100 .
#64
b11111111011 .
#65
b11111111110 "
#66
b11111111111 "
#67
b11111111100 .
#68
b11111111011 .
#71
b11111111100 .
#73
b11111111110 "
#74
b11111111111 "
#75
b11111111011 .
#76
b11111111100 .
#77
b11111111110 "
b11111111101 .
#78
b11111111111 "
b11111111100 .
#79
b11111111110 "
b11111111110 .
#80
b11111111100 .
#81
b11111111111 "
#82
b11111111011 .
#83
b11111111110 "
b11111111100 .
#84
b11111111111 "
#85
b11111111011 .
#86
b11111111100 .
#87
b11111111011 .
#89
b11111111100 .
#90
b11111111101 "
#91
b11111111111 "
#92
b11111111110 "
#94
b11111111111 "
b11111111011 .
#95
b11111111110 "
b11111111100 .
#96
b11111111111 "
b11111111011 .
#97
b11111111110 "
b11111111100 .
#98
b100000000000 "
#99
b11111111110 "
#100
b11111111111 "
#101
b11111111011 .
#102
b11111111110 "
b11111111101 .
#103
b11111111111 "
b11111111100 .
#104
b11111111101 "
b11111111011 .
#105
b11111111111 "
b11111111100 .
#108
b11111111011 .
#109
b11111111110 "
#110
b11111111111 "
#111
b11111111110 "
#112
b11111111100 .
#113
b11111111111 "
b11111111011 .
#114
b11111111101 .
#115
b11111111100 .
#116
b11111111110 "
b11111111011 .
#119
b11111111100 .
#120
b11111111111 "
#121
b11111111011 .
#122
b11111111110 "
#123
b11111111111 "
#126
b11111111110 "
#127
b11111111111 "
b11111111100 .
#128
b11111111011 .
#131
b11111111110 "
b11111111100 .
#133
b11111111111 "
#134
b11111111110 "
b11111111011 .
#135
b11111111111 "
b11111111010 .
#136
b11111111011 .
#137
b11111111100 .
#138
b11111111110 "
#139
b11111111111 "
#140
b11111111110 "
#141
b11111111111 "
b11111111011 .
#142
b11111111110 "
#143
b11111111111 "
b11111111101 .
#144
b11111111011 .
#145
b100000000000 "
#146
b11111111111 "
b11111111100 .
#147
b11111111110 "
#148
b100000000000 "
b11111111010 .
#149
b11111111111 "
b11111111100 .
#150
b11111111011 .
#151
b11111111100 .
#152
b11111111110 "
b11111111011 .
#154
b11111111101 "
b11111111100 .
#155
b100000000000 "
b11111111101 .
#156
b11111111111 "
b11111111100 .
#157
b100000000000 "
b11111111011 .
#158
b11111111111 "
b11111111100 .
#159
b11111111011 .
#160
b11111111110 "
b11111111100 .
#161
b11111111111 "
#162
b11111111011 .
#164
b11111111100 .
#165
b11111111110 "
#166
b11111111111 "
b11111111010 .
#167
b11111111100 .
#168
b11111111110 "
b11111111011 .
#169
b100000000000 "
#170
b11111111111 "
b11111111100 .
#171
b11111111011 .
#172
b11111111110 "
b11111111100 .
#173
b11111111111 "
#174
b11111111110 "
b11111111011 .
#175
b11111111111 "
#176
b11111111110 "
b11111111100 .
#177
b11111111011 .
#178
b11111111111 "
b11111111100 .
#179
b11111111110 "
#180
b11111111111 "
b11111111011 .
#181
b100000000000 "
b11111111100 .
#182
b11111111111 "
#184
b11111111011 .
#185
b11111111110 "
#186
b11111111111 "
b11111111100 .
#188
b100000000000 "
#189
b11111111010 .
#190
b11111111011 .
#191
b11111111010 .
#192
b11111111111 "
b11111111011 .
#193
b11111111110 "
#195
b11111111111 "
b11111111100 .
#196
b11111111011 .
#198
b11111111110 "
#199
b11111111111 "
b11111111100 .
#200
b11111111110 "
#201
b11111111111 "
#202
b11111111011 .
#206
b11111111010 .
#207
b11111111100 .
#208
b11111111011 .
#210
b11111111110 "
#211
b11111111111 "
#212
b100000000000 "
#213
b100000000001 "
b11111111100 .
#214
b11111111111 "
b11111111011 .
#218
b11111111100 .
#219
b11111111011 .
#220
b11111111100 .
#221
b11111111110 "
b11111111011 .
#222
b11111111111 "
b11111111100 .
#225
b11111111110 "
#227
b11111111111 "
#228
b100000000000 "
b11111111011 .
#229
b11111111100 .
#230
b11111111111 "
b11111111011 .
#231
b11111111110 "
#232
b11111111111 "
#236
b11111111110 "
#238
b11111111111 "
#241
b11111111100 .
#242
b11111111011 .
#244
b11111111110 "
#245
b11111111111 "
#247
b11111111100 .
#248
b11111111011 .
#249
b11111111100 .
#250
b11111111110 "
b11111111011 .
#251
b11111111111 "
b11111111100 .
#252
b11111111110 "
b11111111011 .
#253
b11111111111 "
#255
b11111111101 "
b11111111100 .
#256
b11111111111 "
b11111111011 .
#257
b11111111110 "
#260
b100000000000 "
#261
b11111111111 "
b11111111101 .
#262
b11111111110 "
b11111111011 .
#263
b11111111111 "
#264
b11111111100 .
#265
b11111111110 "
#266
b11111111111 "
#267
b11111111110 "
b11111111011 .
#269
b11111111111 "
#270
b100000000000 "
#271
b11111111111 "
b11111111100 .
#272
b11111111011 .
#273
b11111111010 .
#274
b11111111110 "
b11111111011 .
#275
b100000000000 "
b11111111100 .
#276
b11111111111 "
b11111111011 .
#277
b11111111100 .
#278
b11111111011 .
#279
b11111111110 "
b11111111101 .
#280
b11111111111 "
b11111111100 .
#281
b11111111110 "
b11111111011 .
#282
b100000000000 "
b11111111100 .
#283
b11111111011 .
#284
b11111111110 "
#286
b11111111111 "
#288
b11111111110 "
#289
b11111111100 .
#290
b11111111010 .
#291
b11111111111 "
b11111111011 .
#292
b11111111101 "
#293
b11111111111 "
b11111111100 .
#295
b11111111011 .
#297
b11111111110 "
b11111111100 .
#298
b11111111111 "
b11111111011 .
#299
b11111111010 .
#300
b11111111100 .
#301
b11111111110 "
b11111111011 .
#302
b11111111111 "
b11111111100 .
#303
b11111111110 "
b11111111011 .
#305
b11111111111 "
b11111111100 .
#306
b11111111110 "
#307
b11111111111 "
#309
b11111111110 "
b11111111011 .
#310
b11111111111 "
b11111111100 .
#311
b11111111011 .
#312
b100000000000 "
#313
b11111111110 "
b11111111100 .
#314
b11111111111 "
b11111111011 .
#316
b11111111110 "
b11111111100 .
#318
b11111111111 "
b11111111011 .
#319
b100000000000 "
#320
b11111111111 "
#321
b11111111110 "
b11111111101 .
#322
b11111111100 .
#323
b11111111111 "
#325
b11111111011 .
#326
b11111111110 "
#328
b11111111111 "
#329
b11111111110 "
#330
b11111111111 "
#331
b11111111110 "
#332
b11111111111 "
#333
b11111111110 "
b11111111100 .
#334
b11111111010 .
#335
b11111111011 .
#337
b11111111111 "
#338
b100000000000 "
#339
b11111111111 "
b11111111100 .
#340
b11111111110 "
#341
b11111111011 .
#342
b11111111100 .
#344
b11111111111 "
#346
b11111111011 .
#350
b11111111100 .
#352
b11111111110 "
#353
b100000000000 "
#354
b11111111110 "
b11111111010 .
#355
b100000000000 "
b11111111011 .
#356
b11111111111 "
b11111111100 .
#357
b11111111011 .
#358
b11111111110 "
b11111111100 .
#360
b11111111111 "
b11111111011 .
#361
b11111111110 "
b11111111100 .
#362
b11111111111 "
#363
b11111111110 "
#364
b11111111011 .
#365
b11111111111 "
#366
b11111111110 "
b11111111100 .
#367
b11111111111 "
b11111111011 .
#369
b11111111110 "
#371
b11111111111 "
b11111111100 .
#374
b11111111110 "
#375
b11111111111 "
#376
b11111111110 "
#377
b100000000000 "
#379
b11111111111 "
b11111111011 .
#381
b11111111100 .
#382
b11111111110 "
#383
b11111111111 "
b11111111011 .
#384
b11111111110 "
#385
b11111111100 .
#386
b11111111111 "
#387
b11111111110 "
#388
b11111111111 "
#389
b11111111011 .
#390
b11111111100 .
#391
b100000000000 "
#392
b11111111111 "
#394
b11111111110 "
#396
b100000000000 "
b11111111011 .
#397
b11111111110 "
#400
b11111111100 .
#401
b11111111011 .
#403
b11111111111 "
#404
b11111111110 "
#405
b11111111101 "
b11111111100 .
#406
b11111111111 "
#408
b11111111011 .
#409
b11111111100 .
#410
b11111111011 .
#411
b11111111110 "
b11111111010 .
#412
b11111111111 "
b11111111011 .
#413
b11111111110 "
b11111111100 .
#416
b100000000000 "
#417
b11111111110 "
#418
b11111111011 .
#420
b11111111101 "
#421
b11111111111 "
#424
b11111111100 .
#425
b11111111110 "
#426
b11111111111 "
#427
b11111111110 "
#428
b11111111101 .
#429
b11111111111 "
b11111111100 .
#430
b11111111110 "
b11111111011 .
#432
b11111111100 .
#433
b11111111111 "
b11111111010 .
#434
b11111111110 "
b11111111100 .
#435
b11111111111 "
#436
b11111111011 .
#438
b11111111100 .
#439
b11111111110 "
b11111111011 .
#440
b11111111100 .
#441
b11111111111 "
b11111111011 .
#442
b11111111100 .
#444
b11111111110 "
#445
b11111111101 .
#446
b11111111100 .
#447
b11111111111 "
#448
b11111111110 "
#449
b11111111111 "
#450
b11111111110 "
b11111111011 .
#452
b11111111111 "
b11111111100 .
#453
b100000000000 "
#454
b11111111110 "
b11111111011 .
#455
b11111111111 "
#456
b11111111101 "
b11111111100 .
#457
b11111111110 "
#458
b11111111011 .
#459
b100000000000 "
b11111111100 .
#460
b11111111111 "
#461
b11111111110 "
b11111111011 .
#463
b11111111100 .
#464
b11111111111 "
#465
b11111111110 "
b11111111101 .
#466
b11111111111 "
b11111111100 .
#469
b100000000000 "
#470
b11111111111 "
#471
b11111111110 "
b11111111011 .
#472
b100000000000 "
b11111111100 .
#473
b11111111111 "
#474
b11111111011 .
#476
b11111111110 "
b11111111100 .
#478
b11111111111 "
#479
b11111111110 "
#483
b11111111111 "
b11111111011 .
#484
b11111111110 "
b11111111100 .
#485
b11111111111 "
b11111111011 .
#486
b11111111110 "
b11111111100 .
#489
b100000000000 "
#490
b11111111110 "
b11111111011 .
#492
b11111111100 .
#493
b11111111111 "
b11111111011 .
#494
b11111111110 "
b11111111100 .
#495
b11111111111 "
b11111111011 .
#497
b11111111110 "
b11111111100 .
#498
b11111111111 "
#501
b11111111011 .
#503
b11111111110 "
b11111111100 .
#504
b11111111111 "
b11111111011 .
#505
b100000000000 "
b11111111100 .
#506
b11111111011 .
#507
b11111111110 "
#508
b11111111111 "
b11111111100 .
#509
b11111111110 "
#510
b11111111011 .
#512
b11111111111 "
1:
#518
b11111111100 .
#519
b11111111110 "
#520
b11111111111 "
#521
b11111111011 .
#523
b11111111100 .
#524
b11111111011 .
#526
b11111111110 "
#528
b11111111111 "
#529
b11111111100 .
#530
b11111111110 "
#531
b11111111111 "
b11111111011 .
#533
b11111111110 "
b11111111100 .
#534
b11111111011 .
#536
b11111111100 .
#537
b11111111011 .
#538
b11111111111 "
#539
b11111111101 .
#540
b11111111100 .
#542
b11111111110 "
#543
b100000000000 "
#544
b11111111101 .
#545
b11111111110 "
b11111111100 .
#546
b11111111111 "
#547
b100000000000 "
#548
b11111111110 "
#551
b11111111111 "
b11111111011 .
#552
b11111111100 .
#554
b11111111110 "
#556
b11111111111 "
b11111111011 .
#557
b11111111110 "
b11111111100 .
#558
b11111111101 .
#559
b11111111011 .
#560
b11111111111 "
b11111111100 .
#563
b11111111110 "
#564
b11111111111 "
#565
b11111111011 .
#566
b11111111100 .
#567
b11111111110 "
#568
b11111111111 "
#569
b11111111011 .
#570
b100000000000 "
b11111111100 .
#573
b11111111110 "
b11111111011 .
#574
b11111111111 "
#575
b11111111100 .
#578
b11111111110 "
#579
b11111111111 "
b11111111011 .
#580
b11111111110 "
b11111111100 .
#581
b11111111111 "
b11111111011 .
#582
b11111111110 "
b11111111100 .
#583
b11111111111 "
#584
b11111111110 "
b11111111011 .
#585
b11111111100 .
#586
b11111111011 .
#587
b11111111010 .
#588
b11111111111 "
b11111111011 .
#589
b11111111110 "
#591
b11111111111 "
#593
b11111111010 .
#594
b11111111101 "
b11111111100 .
#595
b11111111111 "
#597
b11111111011 .
#599
b11111111100 .
#600
b100000000000 "
#601
b11111111110 "
#602
b11111111111 "
#603
b11111111011 .
#604
b11111111010 .
#605
b11111111110 "
b11111111100 .
#606
b11111111011 .
#607
b11111111111 "
b11111111100 .
#608
b11111111011 .
#609
b11111111100 .
#610
b11111111011 .
#612
b11111111110 "
#613
b11111111111 "
#615
b11111111110 "
#617
b11111111100 .
#618
b11111111111 "
#619
b11111111110 "
#620
b11111111011 .
#621
b11111111111 "
#622
b100000000000 "
b11111111100 .
#623
b11111111111 "
b11111111011 .
#625
b11111111110 "
b11111111100 .
#626
b11111111111 "
#627
b11111111110 "
b11111111011 .
#628
b11111111111 "
b11111111100 .
#629
b11111111110 "
b11111111011 .
#631
b11111111100 .
#632
b11111111111 "
#633
b11111111101 "
#634
b11111111111 "
b11111111011 .
#635
b11111111110 "
#636
b11111111111 "
b11111111010 .
#637
b11111111110 "
b11111111100 .
#639
b11111111111 "
#641
b11111111110 "
#643
b11111111011 .
#644
b11111111111 "
b11111111010 .
#645
b11111111100 .
#646
b11111111011 .
#647
b11111111010 .
#648
b100000000000 "
b11111111011 .
#649
b11111111110 "
b11111111100 .
#650
b11111111011 .
#651
b11111111100 .
#652
b11111111111 "
#653
b11111111110 "
b11111111011 .
#654
b11111111111 "
#655
b100000000000 "
b11111111100 .
#656
b11111111111 "
b11111111011 .
#657
b11111111010 .
#658
b11111111110 "
b11111111100 .
#659
b11111111111 "
b11111111011 .
#660
b11111111010 .
#661
b11111111011 .
#662
b100000000000 "
b11111111100 .
#663
b11111111111 "
b11111111011 .
#664
b11111111100 .
#665
b11111111110 "
b11111111011 .
#666
b11111111111 "
#667
b11111111101 "
#668
b11111111111 "
b11111111100 .
#669
b11111111110 "
#670
b11111111111 "
b11111111011 .
#671
b11111111101 "
#672
b11111111110 "
#673
b11111111111 "
#677
b100000000000 "
#679
b11111111111 "
#680
b11111111110 "
b11111111100 .
#681
b11111111011 .
#682
b11111111111 "
b11111111100 .
#683
b11111111011 .
#684
b11111111110 "
#685
b11111111111 "
b11111111100 .
#686
b11111111110 "
#687
b11111111011 .
#688
b11111111111 "
b11111111100 .
#689
b11111111110 "
b11111111011 .
#690
b11111111111 "
b11111111100 .
#691
b100000000000 "
b11111111011 .
#692
b11111111111 "
#693
b11111111110 "
b11111111100 .
#694
b11111111111 "
#696
b11111111011 .
#697
b11111111110 "
#698
b11111111100 .
#699
b11111111111 "
#701
b11111111101 .
#702
b11111111011 .
#704
b11111111100 .
#705
b11111111110 "
#706
b11111111111 "
b11111111011 .
#707
b11111111110 "
#708
b11111111111 "
b11111111100 .
#709
b11111111101 "
b11111111011 .
#710
b11111111111 "
b11111111100 .
#713
b11111111110 "
b11111111101 .
#714
b11111111011 .
#715
b11111111111 "
#716
b11111111110 "
#717
b11111111111 "
b11111111100 .
#718
b11111111110 "
#719
b11111111011 .
#720
b11111111101 "
b11111111100 .
#721
b11111111111 "
b11111111011 .
#722
b11111111100 .
#723
b11111111110 "
#724
b11111111111 "
b11111111011 .
#725
b11111111110 "
b11111111100 .
#726
b11111111111 "
b11111111011 .
#727
b11111111110 "
b11111111100 .
#728
b11111111111 "
b11111111011 .
#729
b11111111110 "
#730
b11111111111 "
b11111111100 .
#731
b11111111011 .
#732
b11111111110 "
b11111111101 .
#733
b11111111101 "
b11111111100 .
#734
b11111111110 "
b11111111011 .
#735
b100000000000 "
#736
b11111111110 "
#737
b11111111111 "
b11111111100 .
#738
b11111111011 .
#739
b11111111110 "
b11111111100 .
#740
b11111111111 "
#741
b11111111101 "
#742
b11111111110 "
#743
b11111111111 "
b11111111101 .
#744
b11111111110 "
b11111111011 .
#746
b100000000000 "
#747
b11111111111 "
#748
b11111111110 "
b11111111100 .
#749
b11111111011 .
#750
b11111111111 "
#751
b11111111110 "
#752
b11111111111 "
b11111111100 .
#753
b11111111110 "
#754
b11111111011 .
#755
b11111111100 .
#756
b11111111111 "
b11111111011 .
#757
b11111111100 .
#758
b11111111110 "
#759
b11111111111 "
b11111111011 .
#760
b11111111110 "
#761
b11111111100 .
#762
b11111111111 "
b11111111101 .
#763
b11111111110 "
b11111111100 .
#766
b11111111111 "
#767
b11111111110 "
#769
b11111111111 "
b11111111011 .
#771
b11111111110 "
#772
b11111111111 "
b11111111100 .
#773
b11111111011 .
#774
b11111111110 "
b11111111100 .
#775
b11111111111 "
#776
b11111111110 "
#777
b11111111011 .
#778
b11111111010 .
#779
b11111111111 "
b11111111011 .
#780
b11111111100 .
#781
b11111111011 .
#782
b11111111110 "
#783
b11111111111 "
#784
b11111111110 "
#785
b11111111100 .
#786
b11111111011 .
#787
b11111111100 .
#788
b11111111101 "
#789
b11111111110 "
#790
b11111111101 "
#791
b11111111111 "
b11111111011 .
#792
b11111111110 "
#798
b11111111100 .
#799
b11111111111 "
#800
b11111111110 "
b11111111011 .
#801
b11111111111 "
#802
b11111111100 .
#803
b11111111101 "
b11111111011 .
#804
b11111111111 "
#805
b11111111100 .
#806
b11111111110 "
b11111111011 .
#807
b11111111100 .
#808
b11111111111 "
b11111111011 .
#811
b100000000000 "
#812
b11111111111 "
#813
b11111111101 "
b11111111100 .
#814
b11111111111 "
#815
b11111111110 "
#816
b11111111111 "
b11111111011 .
#818
b11111111110 "
b11111111100 .
#819
b11111111111 "
#820
b11111111110 "
b11111111011 .
#822
b11111111111 "
#824
b11111111100 .
#825
b11111111110 "
#826
b11111111111 "
b11111111101 .
#827
b11111111100 .
#828
b100000000000 "
b11111111011 .
#829
b11111111111 "
b11111111100 .
#830
b11111111110 "
b11111111011 .
#831
b11111111100 .
#833
b11111111011 .
#834
b11111111111 "
#835
b11111111100 .
#838
b11111111101 "
b11111111010 .
#839
b11111111111 "
b11111111011 .
#841
b11111111110 "
#842
b11111111111 "
b11111111100 .
#844
b100000000000 "
#845
b11111111110 "
b11111111011 .
#846
b11111111100 .
#847
b11111111111 "
#848
b11111111110 "
b11111111010 .
#849
b11111111100 .
#850
b100000000000 "
#851
b11111111111 "
#853
b11111111011 .
#854
b11111111110 "
#855
b11111111111 "
b11111111100 .
#857
b11111111010 .
#858
b11111111110 "
b11111111100 .
#859
b11111111111 "
#860
b11111111011 .
#861
b11111111110 "
#862
b11111111111 "
#863
b11111111010 .
#864
b11111111110 "
b11111111100 .
#865
b11111111011 .
#866
b11111111100 .
#868
b11111111011 .
#869
b11111111100 .
#870
b11111111111 "
b11111111011 .
#871
b11111111110 "
b11111111100 .
#872
b11111111011 .
#874
b11111111101 "
#875
b11111111111 "
#876
b11111111110 "
b11111111100 .
#877
b11111111011 .
#878
b11111111111 "
b11111111100 .
#880
b11111111110 "
#881
b11111111111 "
b11111111011 .
#883
b100000000000 "
b11111111100 .
#884
b11111111111 "
#885
b11111111011 .
#886
b11111111100 .
#888
b11111111110 "
b11111111101 .
#889
b100000000000 "
b11111111011 .
#890
b11111111111 "
b11111111101 .
#891
b11111111110 "
b11111111011 .
#893
b11111111111 "
#895
b11111111110 "
#896
b11111111100 .
#897
b11111111111 "
#898
b11111111110 "
b11111111011 .
#899
b100000000000 "
b11111111010 .
#900
b11111111111 "
b11111111100 .
#901
b11111111101 "
b11111111011 .
#902
b11111111111 "
b11111111100 .
#903
b11111111011 .
#904
b11111111110 "
b11111111100 .
#906
b11111111111 "
#907
b11111111110 "
b11111111011 .
#908
b11111111111 "
#909
b11111111110 "
#910
b11111111100 .
#911
b11111111111 "
#912
b11111111110 "
b11111111011 .
#913
b11111111100 .
#914
b11111111101 "
#915
b11111111111 "
#916
b11111111011 .
#917
b11111111110 "
b11111111100 .
#919
b11111111011 .
#920
b11111111111 "
#921
b11111111110 "
#922
b11111111111 "
b11111111100 .
#923
b11111111110 "
b11111111011 .
#925
b11111111100 .
#927
b11111111011 .
#929
b11111111101 "
#930
b11111111100 .
#931
b11111111111 "
#932
b11111111110 "
#933
b11111111111 "
b11111111011 .
#934
b11111111110 "
b11111111100 .
#935
b11111111011 .
#938
b11111111101 "
b11111111100 .
#939
b11111111111 "
b11111111011 .
#940
b11111111110 "
#942
b11111111101 .
#943
b11111111111 "
b11111111100 .
#944
b11111111101 "
b11111111011 .
#945
b11111111110 "
#947
b11111111111 "
b11111111100 .
#948
b11111111110 "
b11111111011 .
#950
b11111111111 "
#951
b11111111110 "
b11111111100 .
#952
b11111111111 "
#953
b11111111011 .
#955
b11111111010 .
#956
b11111111011 .
#957
b11111111110 "
#958
b11111111111 "
#959
b100000000000 "
b11111111100 .
#960
b11111111111 "
#961
b11111111110 "
#963
b11111111011 .
#964
b11111111100 .
#965
b11111111111 "
#966
b11111111010 .
#967
b11111111011 .
#968
b11111111100 .
#969
b11111111110 "
b11111111011 .
#970
b11111111111 "
#971
b11111111100 .
#973
b11111111110 "
b11111111011 .
#978
b11111111111 "
b11111111100 .
#979
b11111111101 "
#980
b11111111110 "
b11111111011 .
#981
b11111111101 "
b11111111100 .
#982
b11111111111 "
b11111111011 .
#983
b11111111110 "
b11111111100 .
#984
b11111111011 .
#985
b11111111111 "
#986
b11111111110 "
#987
b11111111100 .
#988
b11111111011 .
#989
b11111111111 "
#991
b100000000000 "
#992
b11111111110 "
#993
b11111111111 "
#994
b11111111110 "
#995
b11111111100 .
#996
b11111111111 "
#997
b11111111011 .
#998
b11111111110 "
#1001
b11111111100 .
#1002
b11111111011 .
#1003
b11111111111 "
#1004
b11111111110 "
b11111111100 .
#1005
b11111111111 "
b11111111011 .
#1006
b11111111100 .
#1008
b11111111011 .
#1009
b11111111100 .
#1010
b11111111110 "
b11111111011 .
#1011
b11111111100 .
#1012
b11111111011 .
#1013
b11111111111 "
#1014
b11111111110 "
b11111111100 .
#1015
b11111111111 "
#1016
b11111111110 "
b11111111011 .
#1017
b11111111100 .
#1018
b11111111111 "
#1019
b11111111110 "
b11111111011 .
#1020
b11111111111 "
#1021
b11111111110 "
b11111111101 .
#1022
b11111111011 .
