CCD231-debug-2021-01-26/CCD231-debug-2021-01-26.sim/sim_1/behav/xsim/wave-sm.vcd
$date
   Fri Jan 22 17:00:28 2021
$end
$version
  2017.4
$end
$timescale
  1ps
$end
$scope module SPI_SM_TB $end
$var reg 1 ! clk $end
$var reg 1 " rst $end
$var wire 1 # sclk $end
$var wire 1 $ mosi $end
$var wire 1 % cs $end
$var wire 1 & A0 $end
$var wire 1 ' A1 $end
$scope module spi_sm $end
$var wire 1 ( clk $end
$var wire 1 ) rst $end
$var wire 1 # sclk $end
$var wire 1 $ mosi $end
$var wire 1 % cs $end
$var wire 1 & A0 $end
$var wire 1 ' A1 $end
$var wire 1 * finished $end
$var reg 32 + spi_data_r [31:0] $end
$var wire 32 , din_w [31:0] $end
$var reg 4 - SPI_DATA_OPT [3:0] $end
$var reg 4 . SPI_SEND_DONE [3:0] $end
$var reg 4 / state [3:0] $end
$var reg 8 0 reset_cnt [7:0] $end
$var reg 1 1 reset_r $end
$var reg 1 2 en_r $end
$var parameter 32 3 clk_div [31:0] $end
$var parameter 4 4 SPI_IDLE [3:0] $end
$var parameter 4 5 SPI_RESET [3:0] $end
$var parameter 4 6 SPI_SEND [3:0] $end
$var parameter 4 7 SPI_FINISHED [3:0] $end
$var parameter 4 8 SPI_SEND_DONE_MAX [3:0] $end
$scope module spi0 $end
$var wire 1 ( clk $end
$var wire 1 9 rst $end
$var wire 32 , din [31:0] $end
$var wire 8 : n_bits [7:0] $end
$var wire 1 ; en $end
$var wire 1 # sclk $end
$var wire 1 $ dout $end
$var wire 1 % cs $end
$var wire 1 & A0 $end
$var wire 1 ' A1 $end
$var reg 1 < finished $end
$var reg 1 = sclk_r $end
$var reg 8 > clk_cnt [7:0] $end
$var reg 8 ? dat_cnt [7:0] $end
$var reg 8 @ d_cnt [7:0] $end
$var reg 1 A dout_r $end
$var reg 1 B cs_r $end
$var reg 1 C A0_r $end
$var reg 1 D A1_r $end
$var reg 8 E delay_cnt [7:0] $end
$var reg 1 F sclk_rdy $end
$var parameter 32 G DATAWIDTH [31:0] $end
$var parameter 32 H CNT_WIDTH [31:0] $end
$var parameter 32 I CPOL [31:0] $end
$var parameter 32 J CPHA [31:0] $end
$var parameter 32 K CLKDIV [31:0] $end
$var parameter 32 L DAT_CNT_MAX [31:0] $end
$upscope $end
$upscope $end
$upscope $end
$enddefinitions $end
#0
$dumpvars
0!
0"
x#
x$
x%
x&
x'
0(
0)
x*
bx +
bx ,
bx -
bx .
bx /
bx 0
x1
x2
b1010 3
b0 4
b1 5
b10 6
b11 7
b100 8
x9
b100000 :
x;
x<
x=
bx >
bx ?
bx @
xA
xB
xC
xD
bx E
xF
b100000 G
b1000 H
b1 I
b0 J
b1010 K
b10011 L
$end
#1000
1!
1(
b0 /
#2000
0!
0(
#3000
1!
1(
#4000
0!
0(
#5000
1!
1(
#6000
0!
0(
#7000
1!
1(
#8000
0!
0(
#9000
1!
1(
#10000
0!
1"
0(
1)
b0 -
b0 .
b0 0
01
02
09
0;
#11000
1!
1(
01
02
#12000
0!
0(
#13000
1!
1(
01
02
#14000
0!
0(
#15000
1!
0"
1(
0)
b1 /
01
02
#16000
0!
0(
#17000
1!
1(
b11111000000000000000000000000001 +
b11111000000000000000000000000001 ,
b1 0
01
#18000
0!
0(
#19000
1!
1(
b11111000000000000000000000000001 +
b10 0
01
#20000
0!
0(
#21000
1!
1(
b11111000000000000000000000000001 +
b11 0
01
#22000
0!
0(
#23000
1!
1(
b11111000000000000000000000000001 +
b100 0
01
#24000
0!
0(
#25000
1!
1(
b11111000000000000000000000000001 +
b101 0
01
#26000
0!
0(
#27000
1!
1(
b11111000000000000000000000000001 +
b110 0
01
#28000
0!
0(
#29000
1!
1#
0%
1&
1'
1(
0*
b11111000000000000000000000000001 +
b111 0
11
19
0<
1=
b1001 >
b10010 ?
b100000 @
0B
1C
1D
b0 E
0F
#30000
0!
0(
#31000
1!
1(
b11111000000000000000000000000001 +
b1000 0
11
0<
1=
0B
1C
1D
#32000
0!
0(
#33000
1!
1(
b11111000000000000000000000000001 +
b10 /
01
12
09
1;
0<
1=
0B
1C
1D
#34000
0!
0(
#35000
1!
1(
b10011 ?
b1 E
#36000
0!
0(
#37000
1!
1$
1(
b0 ?
b11111 @
1A
b10 E
#38000
0!
0(
#39000
1!
1(
b1 ?
b11 E
#40000
0!
0(
#41000
1!
1(
b10 ?
b100 E
#42000
0!
0(
#43000
1!
1(
b11 ?
b101 E
#44000
0!
0(
#45000
1!
1(
b100 ?
b110 E
#46000
0!
0(
#47000
1!
1(
b101 ?
b111 E
#48000
0!
0(
#49000
1!
1(
b110 ?
b1000 E
#50000
0!
0(
#51000
1!
1(
b111 ?
b1001 E
#52000
0!
0(
#53000
1!
1(
b1000 ?
b1010 E
#54000
0!
0(
#55000
1!
1(
b1001 ?
1F
#56000
0!
0(
#57000
1!
0#
1(
0=
b0 >
b1010 ?
#58000
0!
0(
#59000
1!
1(
b1 >
b1011 ?
#60000
0!
0(
#61000
1!
1(
b10 >
b1100 ?
#62000
0!
0(
#63000
1!
1(
b11 >
b1101 ?
#64000
0!
0(
#65000
1!
1(
b100 >
b1110 ?
#66000
0!
0(
#67000
1!
1(
b101 >
b1111 ?
#68000
0!
0(
#69000
1!
1(
b110 >
b10000 ?
#70000
0!
0(
#71000
1!
1(
b111 >
b10001 ?
#72000
0!
0(
#73000
1!
1(
b1000 >
b10010 ?
#74000
0!
0(
#75000
1!
1(
b1001 >
b10011 ?
#76000
0!
0(
#77000
1!
1#
1(
1=
b0 >
b0 ?
b11110 @
1A
#78000
0!
0(
#79000
1!
1(
b1 >
b1 ?
#80000
0!
0(
#81000
1!
1(
b10 >
b10 ?
#82000
0!
0(
#83000
1!
1(
b11 >
b11 ?
#84000
0!
0(
#85000
1!
1(
b100 >
b100 ?
#86000
0!
0(
#87000
1!
1(
b101 >
b101 ?
#88000
0!
0(
#89000
1!
1(
b110 >
b110 ?
#90000
0!
0(
#91000
1!
1(
b111 >
b111 ?
#92000
0!
0(
#93000
1!
1(
b1000 >
b1000 ?
#94000
0!
0(
#95000
1!
1(
b1001 >
b1001 ?
#96000
0!
0(
#97000
1!
0#
1(
0=
b0 >
b1010 ?
#98000
0!
0(
#99000
1!
1(
b1 >
b1011 ?
#100000
0!
0(
#101000
1!
1(
b10 >
b1100 ?
#102000
0!
0(
#103000
1!
1(
b11 >
b1101 ?
#104000
0!
0(
#105000
1!
1(
b100 >
b1110 ?
#106000
0!
0(
#107000
1!
1(
b101 >
b1111 ?
#108000
0!
0(
#109000
1!
1(
b110 >
b10000 ?
#110000
0!
0(
#111000
1!
1(
b111 >
b10001 ?
#112000
0!
0(
#113000
1!
1(
b1000 >
b10010 ?
#114000
0!
0(
#115000
1!
1(
b1001 >
b10011 ?
#116000
0!
0(
#117000
1!
1#
1(
1=
b0 >
b0 ?
b11101 @
1A
#118000
0!
0(
#119000
1!
1(
b1 >
b1 ?
#120000
0!
0(
#121000
1!
1(
b10 >
b10 ?
#122000
0!
0(
#123000
1!
1(
b11 >
b11 ?
#124000
0!
0(
#125000
1!
1(
b100 >
b100 ?
#126000
0!
0(
#127000
1!
1(
b101 >
b101 ?
#128000
0!
0(
#129000
1!
1(
b110 >
b110 ?
#130000
0!
0(
#131000
1!
1(
b111 >
b111 ?
#132000
0!
0(
#133000
1!
1(
b1000 >
b1000 ?
#134000
0!
0(
#135000
1!
1(
b1001 >
b1001 ?
#136000
0!
0(
#137000
1!
0#
1(
0=
b0 >
b1010 ?
#138000
0!
0(
#139000
1!
1(
b1 >
b1011 ?
#140000
0!
0(
#141000
1!
1(
b10 >
b1100 ?
#142000
0!
0(
#143000
1!
1(
b11 >
b1101 ?
#144000
0!
0(
#145000
1!
1(
b100 >
b1110 ?
#146000
0!
0(
#147000
1!
1(
b101 >
b1111 ?
#148000
0!
0(
#149000
1!
1(
b110 >
b10000 ?
#150000
0!
0(
#151000
1!
1(
b111 >
b10001 ?
#152000
0!
0(
#153000
1!
1(
b1000 >
b10010 ?
#154000
0!
0(
#155000
1!
1(
b1001 >
b10011 ?
#156000
0!
0(
#157000
1!
1#
1(
1=
b0 >
b0 ?
b11100 @
1A
#158000
0!
0(
#159000
1!
1(
b1 >
b1 ?
#160000
0!
0(
#161000
1!
1(
b10 >
b10 ?
#162000
0!
0(
#163000
1!
1(
b11 >
b11 ?
#164000
0!
0(
#165000
1!
1(
b100 >
b100 ?
#166000
0!
0(
#167000
1!
1(
b101 >
b101 ?
#168000
0!
0(
#169000
1!
1(
b110 >
b110 ?
#170000
0!
0(
#171000
1!
1(
b111 >
b111 ?
#172000
0!
0(
#173000
1!
1(
b1000 >
b1000 ?
#174000
0!
0(
#175000
1!
1(
b1001 >
b1001 ?
#176000
0!
0(
#177000
1!
0#
1(
0=
b0 >
b1010 ?
#178000
0!
0(
#179000
1!
1(
b1 >
b1011 ?
#180000
0!
0(
#181000
1!
1(
b10 >
b1100 ?
#182000
0!
0(
#183000
1!
1(
b11 >
b1101 ?
#184000
0!
0(
#185000
1!
1(
b100 >
b1110 ?
#186000
0!
0(
#187000
1!
1(
b101 >
b1111 ?
#188000
0!
0(
#189000
1!
1(
b110 >
b10000 ?
#190000
0!
0(
#191000
1!
1(
b111 >
b10001 ?
#192000
0!
0(
#193000
1!
1(
b1000 >
b10010 ?
#194000
0!
0(
#195000
1!
1(
b1001 >
b10011 ?
#196000
0!
0(
#197000
1!
1#
1(
1=
b0 >
b0 ?
b11011 @
1A
#198000
0!
0(
#199000
1!
1(
b1 >
b1 ?
#200000
0!
0(
#201000
1!
1(
b10 >
b10 ?
#202000
0!
0(
#203000
1!
1(
b11 >
b11 ?
#204000
0!
0(
#205000
1!
1(
b100 >
b100 ?
#206000
0!
0(
#207000
1!
1(
b101 >
b101 ?
#208000
0!
0(
#209000
1!
1(
b110 >
b110 ?
#210000
0!
0(
#211000
1!
1(
b111 >
b111 ?
#212000
0!
0(
#213000
1!
1(
b1000 >
b1000 ?
#214000
0!
0(
#215000
1!
1(
b1001 >
b1001 ?
#216000
0!
0(
#217000
1!
0#
1(
0=
b0 >
b1010 ?
#218000
0!
0(
#219000
1!
1(
b1 >
b1011 ?
#220000
0!
0(
#221000
1!
1(
b10 >
b1100 ?
#222000
0!
0(
#223000
1!
1(
b11 >
b1101 ?
#224000
0!
0(
#225000
1!
1(
b100 >
b1110 ?
#226000
0!
0(
#227000
1!
1(
b101 >
b1111 ?
#228000
0!
0(
#229000
1!
1(
b110 >
b10000 ?
#230000
0!
0(
#231000
1!
1(
b111 >
b10001 ?
#232000
0!
0(
#233000
1!
1(
b1000 >
b10010 ?
#234000
0!
0(
#235000
1!
1(
b1001 >
b10011 ?
#236000
0!
0(
#237000
1!
1#
0$
1(
1=
b0 >
b0 ?
b11010 @
0A
#238000
0!
0(
#239000
1!
1(
b1 >
b1 ?
#240000
0!
0(
#241000
1!
1(
b10 >
b10 ?
#242000
0!
0(
#243000
1!
1(
b11 >
b11 ?
#244000
0!
0(
#245000
1!
1(
b100 >
b100 ?
#246000
0!
0(
#247000
1!
1(
b101 >
b101 ?
#248000
0!
0(
#249000
1!
1(
b110 >
b110 ?
#250000
0!
0(
#251000
1!
1(
b111 >
b111 ?
#252000
0!
0(
#253000
1!
1(
b1000 >
b1000 ?
#254000
0!
0(
#255000
1!
1(
b1001 >
b1001 ?
#256000
0!
0(
#257000
1!
0#
1(
0=
b0 >
b1010 ?
#258000
0!
0(
#259000
1!
1(
b1 >
b1011 ?
#260000
0!
0(
#261000
1!
1(
b10 >
b1100 ?
#262000
0!
0(
#263000
1!
1(
b11 >
b1101 ?
#264000
0!
0(
#265000
1!
1(
b100 >
b1110 ?
#266000
0!
0(
#267000
1!
1(
b101 >
b1111 ?
#268000
0!
0(
#269000
1!
1(
b110 >
b10000 ?
#270000
0!
0(
#271000
1!
1(
b111 >
b10001 ?
#272000
0!
0(
#273000
1!
1(
b1000 >
b10010 ?
#274000
0!
0(
#275000
1!
1(
b1001 >
b10011 ?
#276000
0!
0(
#277000
1!
1#
1(
1=
b0 >
b0 ?
b11001 @
0A
#278000
0!
0(
#279000
1!
1(
b1 >
b1 ?
#280000
0!
0(
#281000
1!
1(
b10 >
b10 ?
#282000
0!
0(
#283000
1!
1(
b11 >
b11 ?
#284000
0!
0(
#285000
1!
1(
b100 >
b100 ?
#286000
0!
0(
#287000
1!
1(
b101 >
b101 ?
#288000
0!
0(
#289000
1!
1(
b110 >
b110 ?
#290000
0!
0(
#291000
1!
1(
b111 >
b111 ?
#292000
0!
0(
#293000
1!
1(
b1000 >
b1000 ?
#294000
0!
0(
#295000
1!
1(
b1001 >
b1001 ?
#296000
0!
0(
#297000
1!
0#
1(
0=
b0 >
b1010 ?
#298000
0!
0(
#299000
1!
1(
b1 >
b1011 ?
#300000
0!
0(
#301000
1!
1(
b10 >
b1100 ?
#302000
0!
0(
#303000
1!
1(
b11 >
b1101 ?
#304000
0!
0(
#305000
1!
1(
b100 >
b1110 ?
#306000
0!
0(
#307000
1!
1(
b101 >
b1111 ?
#308000
0!
0(
#309000
1!
1(
b110 >
b10000 ?
#310000
0!
0(
#311000
1!
1(
b111 >
b10001 ?
#312000
0!
0(
#313000
1!
1(
b1000 >
b10010 ?
#314000
0!
0(
#315000
1!
1(
b1001 >
b10011 ?
#316000
0!
0(
#317000
1!
1#
1(
1=
b0 >
b0 ?
b11000 @
0A
#318000
0!
0(
#319000
1!
1(
b1 >
b1 ?
#320000
0!
0(
#321000
1!
1(
b10 >
b10 ?
#322000
0!
0(
#323000
1!
1(
b11 >
b11 ?
#324000
0!
0(
#325000
1!
1(
b100 >
b100 ?
#326000
0!
0(
#327000
1!
1(
b101 >
b101 ?
#328000
0!
0(
#329000
1!
1(
b110 >
b110 ?
#330000
0!
0(
#331000
1!
1(
b111 >
b111 ?
#332000
0!
0(
#333000
1!
1(
b1000 >
b1000 ?
#334000
0!
0(
#335000
1!
1(
b1001 >
b1001 ?
#336000
0!
0(
#337000
1!
0#
1(
0=
b0 >
b1010 ?
#338000
0!
0(
#339000
1!
1(
b1 >
b1011 ?
#340000
0!
0(
#341000
1!
1(
b10 >
b1100 ?
#342000
0!
0(
#343000
1!
1(
b11 >
b1101 ?
#344000
0!
0(
#345000
1!
1(
b100 >
b1110 ?
#346000
0!
0(
#347000
1!
1(
b101 >
b1111 ?
#348000
0!
0(
#349000
1!
1(
b110 >
b10000 ?
#350000
0!
0(
#351000
1!
1(
b111 >
b10001 ?
#352000
0!
0(
#353000
1!
1(
b1000 >
b10010 ?
#354000
0!
0(
#355000
1!
1(
b1001 >
b10011 ?
#356000
0!
0(
#357000
1!
1#
1(
1=
b0 >
b0 ?
b10111 @
0A
#358000
0!
0(
#359000
1!
1(
b1 >
b1 ?
#360000
0!
0(
#361000
1!
1(
b10 >
b10 ?
#362000
0!
0(
#363000
1!
1(
b11 >
b11 ?
#364000
0!
0(
#365000
1!
1(
b100 >
b100 ?
#366000
0!
0(
#367000
1!
1(
b101 >
b101 ?
#368000
0!
0(
#369000
1!
1(
b110 >
b110 ?
#370000
0!
0(
#371000
1!
1(
b111 >
b111 ?
#372000
0!
0(
#373000
1!
1(
b1000 >
b1000 ?
#374000
0!
0(
#375000
1!
1(
b1001 >
b1001 ?
#376000
0!
0(
#377000
1!
0#
1(
0=
b0 >
b1010 ?
#378000
0!
0(
#379000
1!
1(
b1 >
b1011 ?
#380000
0!
0(
#381000
1!
1(
b10 >
b1100 ?
#382000
0!
0(
#383000
1!
1(
b11 >
b1101 ?
#384000
0!
0(
#385000
1!
1(
b100 >
b1110 ?
#386000
0!
0(
#387000
1!
1(
b101 >
b1111 ?
#388000
0!
0(
#389000
1!
1(
b110 >
b10000 ?
#390000
0!
0(
#391000
1!
1(
b111 >
b10001 ?
#392000
0!
0(
#393000
1!
1(
b1000 >
b10010 ?
#394000
0!
0(
#395000
1!
1(
b1001 >
b10011 ?
#396000
0!
0(
#397000
1!
1#
1(
1=
b0 >
b0 ?
b10110 @
0A
#398000
0!
0(
#399000
1!
1(
b1 >
b1 ?
#400000
0!
0(
#401000
1!
1(
b10 >
b10 ?
#402000
0!
0(
#403000
1!
1(
b11 >
b11 ?
#404000
0!
0(
#405000
1!
1(
b100 >
b100 ?
#406000
0!
0(
#407000
1!
1(
b101 >
b101 ?
#408000
0!
0(
#409000
1!
1(
b110 >
b110 ?
#410000
0!
0(
#411000
1!
1(
b111 >
b111 ?
#412000
0!
0(
#413000
1!
1(
b1000 >
b1000 ?
#414000
0!
0(
#415000
1!
1(
b1001 >
b1001 ?
#416000
0!
0(
#417000
1!
0#
1(
0=
b0 >
b1010 ?
#418000
0!
0(
#419000
1!
1(
b1 >
b1011 ?
#420000
0!
0(
#421000
1!
1(
b10 >
b1100 ?
#422000
0!
0(
#423000
1!
1(
b11 >
b1101 ?
#424000
0!
0(
#425000
1!
1(
b100 >
b1110 ?
#426000
0!
0(
#427000
1!
1(
b101 >
b1111 ?
#428000
0!
0(
#429000
1!
1(
b110 >
b10000 ?
#430000
0!
0(
#431000
1!
1(
b111 >
b10001 ?
#432000
0!
0(
#433000
1!
1(
b1000 >
b10010 ?
#434000
0!
0(
#435000
1!
1(
b1001 >
b10011 ?
#436000
0!
0(
#437000
1!
1#
1(
1=
b0 >
b0 ?
b10101 @
0A
#438000
0!
0(
#439000
1!
1(
b1 >
b1 ?
#440000
0!
0(
#441000
1!
1(
b10 >
b10 ?
#442000
0!
0(
#443000
1!
1(
b11 >
b11 ?
#444000
0!
0(
#445000
1!
1(
b100 >
b100 ?
#446000
0!
0(
#447000
1!
1(
b101 >
b101 ?
#448000
0!
0(
#449000
1!
1(
b110 >
b110 ?
#450000
0!
0(
#451000
1!
1(
b111 >
b111 ?
#452000
0!
0(
#453000
1!
1(
b1000 >
b1000 ?
#454000
0!
0(
#455000
1!
1(
b1001 >
b1001 ?
#456000
0!
0(
#457000
1!
0#
1(
0=
b0 >
b1010 ?
#458000
0!
0(
#459000
1!
1(
b1 >
b1011 ?
#460000
0!
0(
#461000
1!
1(
b10 >
b1100 ?
#462000
0!
0(
#463000
1!
1(
b11 >
b1101 ?
#464000
0!
0(
#465000
1!
1(
b100 >
b1110 ?
#466000
0!
0(
#467000
1!
1(
b101 >
b1111 ?
#468000
0!
0(
#469000
1!
1(
b110 >
b10000 ?
#470000
0!
0(
#471000
1!
1(
b111 >
b10001 ?
#472000
0!
0(
#473000
1!
1(
b1000 >
b10010 ?
#474000
0!
0(
#475000
1!
1(
b1001 >
b10011 ?
#476000
0!
0(
#477000
1!
1#
1(
1=
b0 >
b0 ?
b10100 @
0A
#478000
0!
0(
#479000
1!
1(
b1 >
b1 ?
#480000
0!
0(
#481000
1!
1(
b10 >
b10 ?
#482000
0!
0(
#483000
1!
1(
b11 >
b11 ?
#484000
0!
0(
#485000
1!
1(
b100 >
b100 ?
#486000
0!
0(
#487000
1!
1(
b101 >
b101 ?
#488000
0!
0(
#489000
1!
1(
b110 >
b110 ?
#490000
0!
0(
#491000
1!
1(
b111 >
b111 ?
#492000
0!
0(
#493000
1!
1(
b1000 >
b1000 ?
#494000
0!
0(
#495000
1!
1(
b1001 >
b1001 ?
#496000
0!
0(
#497000
1!
0#
1(
0=
b0 >
b1010 ?
#498000
0!
0(
#499000
1!
1(
b1 >
b1011 ?
#500000
0!
0(
#501000
1!
1(
b10 >
b1100 ?
#502000
0!
0(
#503000
1!
1(
b11 >
b1101 ?
#504000
0!
0(
#505000
1!
1(
b100 >
b1110 ?
#506000
0!
0(
#507000
1!
1(
b101 >
b1111 ?
#508000
0!
0(
#509000
1!
1(
b110 >
b10000 ?
#510000
0!
0(
#511000
1!
1(
b111 >
b10001 ?
#512000
0!
0(
#513000
1!
1(
b1000 >
b10010 ?
#514000
0!
0(
#515000
1!
1(
b1001 >
b10011 ?
#516000
0!
0(
#517000
1!
1#
1(
1=
b0 >
b0 ?
b10011 @
0A
#518000
0!
0(
#519000
1!
1(
b1 >
b1 ?
#520000
0!
0(
#521000
1!
1(
b10 >
b10 ?
#522000
0!
0(
#523000
1!
1(
b11 >
b11 ?
#524000
0!
0(
#525000
1!
1(
b100 >
b100 ?
#526000
0!
0(
#527000
1!
1(
b101 >
b101 ?
#528000
0!
0(
#529000
1!
1(
b110 >
b110 ?
#530000
0!
0(
#531000
1!
1(
b111 >
b111 ?
#532000
0!
0(
#533000
1!
1(
b1000 >
b1000 ?
#534000
0!
0(
#535000
1!
1(
b1001 >
b1001 ?
#536000
0!
0(
#537000
1!
0#
1(
0=
b0 >
b1010 ?
#538000
0!
0(
#539000
1!
1(
b1 >
b1011 ?
#540000
0!
0(
#541000
1!
1(
b10 >
b1100 ?
#542000
0!
0(
#543000
1!
1(
b11 >
b1101 ?
#544000
0!
0(
#545000
1!
1(
b100 >
b1110 ?
#546000
0!
0(
#547000
1!
1(
b101 >
b1111 ?
#548000
0!
0(
#549000
1!
1(
b110 >
b10000 ?
#550000
0!
0(
#551000
1!
1(
b111 >
b10001 ?
#552000
0!
0(
#553000
1!
1(
b1000 >
b10010 ?
#554000
0!
0(
#555000
1!
1(
b1001 >
b10011 ?
#556000
0!
0(
#557000
1!
1#
1(
1=
b0 >
b0 ?
b10010 @
0A
#558000
0!
0(
#559000
1!
1(
b1 >
b1 ?
#560000
0!
0(
#561000
1!
1(
b10 >
b10 ?
#562000
0!
0(
#563000
1!
1(
b11 >
b11 ?
#564000
0!
0(
#565000
1!
1(
b100 >
b100 ?
#566000
0!
0(
#567000
1!
1(
b101 >
b101 ?
#568000
0!
0(
#569000
1!
1(
b110 >
b110 ?
#570000
0!
0(
#571000
1!
1(
b111 >
b111 ?
#572000
0!
0(
#573000
1!
1(
b1000 >
b1000 ?
#574000
0!
0(
#575000
1!
1(
b1001 >
b1001 ?
#576000
0!
0(
#577000
1!
0#
1(
0=
b0 >
b1010 ?
#578000
0!
0(
#579000
1!
1(
b1 >
b1011 ?
#580000
0!
0(
#581000
1!
1(
b10 >
b1100 ?
#582000
0!
0(
#583000
1!
1(
b11 >
b1101 ?
#584000
0!
0(
#585000
1!
1(
b100 >
b1110 ?
#586000
0!
0(
#587000
1!
1(
b101 >
b1111 ?
#588000
0!
0(
#589000
1!
1(
b110 >
b10000 ?
#590000
0!
0(
#591000
1!
1(
b111 >
b10001 ?
#592000
0!
0(
#593000
1!
1(
b1000 >
b10010 ?
#594000
0!
0(
#595000
1!
1(
b1001 >
b10011 ?
#596000
0!
0(
#597000
1!
1#
1(
1=
b0 >
b0 ?
b10001 @
0A
#598000
0!
0(
#599000
1!
1(
b1 >
b1 ?
#600000
0!
0(
#601000
1!
1(
b10 >
b10 ?
#602000
0!
0(
#603000
1!
1(
b11 >
b11 ?
#604000
0!
0(
#605000
1!
1(
b100 >
b100 ?
#606000
0!
0(
#607000
1!
1(
b101 >
b101 ?
#608000
0!
0(
#609000
1!
1(
b110 >
b110 ?
#610000
0!
0(
#611000
1!
1(
b111 >
b111 ?
#612000
0!
0(
#613000
1!
1(
b1000 >
b1000 ?
#614000
0!
0(
#615000
1!
1(
b1001 >
b1001 ?
#616000
0!
0(
#617000
1!
0#
1(
0=
b0 >
b1010 ?
#618000
0!
0(
#619000
1!
1(
b1 >
b1011 ?
#620000
0!
0(
#621000
1!
1(
b10 >
b1100 ?
#622000
0!
0(
#623000
1!
1(
b11 >
b1101 ?
#624000
0!
0(
#625000
1!
1(
b100 >
b1110 ?
#626000
0!
0(
#627000
1!
1(
b101 >
b1111 ?
#628000
0!
0(
#629000
1!
1(
b110 >
b10000 ?
#630000
0!
0(
#631000
1!
1(
b111 >
b10001 ?
#632000
0!
0(
#633000
1!
1(
b1000 >
b10010 ?
#634000
0!
0(
#635000
1!
1(
b1001 >
b10011 ?
#636000
0!
0(
#637000
1!
1#
1(
1=
b0 >
b0 ?
b10000 @
0A
#638000
0!
0(
#639000
1!
1(
b1 >
b1 ?
#640000
0!
0(
#641000
1!
1(
b10 >
b10 ?
#642000
0!
0(
#643000
1!
1(
b11 >
b11 ?
#644000
0!
0(
#645000
1!
1(
b100 >
b100 ?
#646000
0!
0(
#647000
1!
1(
b101 >
b101 ?
#648000
0!
0(
#649000
1!
1(
b110 >
b110 ?
#650000
0!
0(
#651000
1!
1(
b111 >
b111 ?
#652000
0!
0(
#653000
1!
1(
b1000 >
b1000 ?
#654000
0!
0(
#655000
1!
1(
b1001 >
b1001 ?
#656000
0!
0(
#657000
1!
0#
1(
0=
b0 >
b1010 ?
#658000
0!
0(
#659000
1!
1(
b1 >
b1011 ?
#660000
0!
0(
#661000
1!
1(
b10 >
b1100 ?
#662000
0!
0(
#663000
1!
1(
b11 >
b1101 ?
#664000
0!
0(
#665000
1!
1(
b100 >
b1110 ?
#666000
0!
0(
#667000
1!
1(
b101 >
b1111 ?
#668000
0!
0(
#669000
1!
1(
b110 >
b10000 ?
#670000
0!
0(
#671000
1!
1(
b111 >
b10001 ?
#672000
0!
0(
#673000
1!
1(
b1000 >
b10010 ?
#674000
0!
0(
#675000
1!
1(
b1001 >
b10011 ?
#676000
0!
0(
#677000
1!
1#
1(
1=
b0 >
b0 ?
b1111 @
0A
#678000
0!
0(
#679000
1!
1(
b1 >
b1 ?
#680000
0!
0(
#681000
1!
1(
b10 >
b10 ?
#682000
0!
0(
#683000
1!
1(
b11 >
b11 ?
#684000
0!
0(
#685000
1!
1(
b100 >
b100 ?
#686000
0!
0(
#687000
1!
1(
b101 >
b101 ?
#688000
0!
0(
#689000
1!
1(
b110 >
b110 ?
#690000
0!
0(
#691000
1!
1(
b111 >
b111 ?
#692000
0!
0(
#693000
1!
1(
b1000 >
b1000 ?
#694000
0!
0(
#695000
1!
1(
b1001 >
b1001 ?
#696000
0!
0(
#697000
1!
0#
1(
0=
b0 >
b1010 ?
#698000
0!
0(
#699000
1!
1(
b1 >
b1011 ?
#700000
0!
0(
#701000
1!
1(
b10 >
b1100 ?
#702000
0!
0(
#703000
1!
1(
b11 >
b1101 ?
#704000
0!
0(
#705000
1!
1(
b100 >
b1110 ?
#706000
0!
0(
#707000
1!
1(
b101 >
b1111 ?
#708000
0!
0(
#709000
1!
1(
b110 >
b10000 ?
#710000
0!
0(
#711000
1!
1(
b111 >
b10001 ?
#712000
0!
0(
#713000
1!
1(
b1000 >
b10010 ?
#714000
0!
0(
#715000
1!
1(
b1001 >
b10011 ?
#716000
0!
0(
#717000
1!
1#
1(
1=
b0 >
b0 ?
b1110 @
0A
#718000
0!
0(
#719000
1!
1(
b1 >
b1 ?
#720000
0!
0(
#721000
1!
1(
b10 >
b10 ?
#722000
0!
0(
#723000
1!
1(
b11 >
b11 ?
#724000
0!
0(
#725000
1!
1(
b100 >
b100 ?
#726000
0!
0(
#727000
1!
1(
b101 >
b101 ?
#728000
0!
0(
#729000
1!
1(
b110 >
b110 ?
#730000
0!
0(
#731000
1!
1(
b111 >
b111 ?
#732000
0!
0(
#733000
1!
1(
b1000 >
b1000 ?
#734000
0!
0(
#735000
1!
1(
b1001 >
b1001 ?
#736000
0!
0(
#737000
1!
0#
1(
0=
b0 >
b1010 ?
#738000
0!
0(
#739000
1!
1(
b1 >
b1011 ?
#740000
0!
0(
#741000
1!
1(
b10 >
b1100 ?
#742000
0!
0(
#743000
1!
1(
b11 >
b1101 ?
#744000
0!
0(
#745000
1!
1(
b100 >
b1110 ?
#746000
0!
0(
#747000
1!
1(
b101 >
b1111 ?
#748000
0!
0(
#749000
1!
1(
b110 >
b10000 ?
#750000
0!
0(
#751000
1!
1(
b111 >
b10001 ?
#752000
0!
0(
#753000
1!
1(
b1000 >
b10010 ?
#754000
0!
0(
#755000
1!
1(
b1001 >
b10011 ?
#756000
0!
0(
#757000
1!
1#
1(
1=
b0 >
b0 ?
b1101 @
0A
#758000
0!
0(
#759000
1!
1(
b1 >
b1 ?
#760000
0!
0(
#761000
1!
1(
b10 >
b10 ?
#762000
0!
0(
#763000
1!
1(
b11 >
b11 ?
#764000
0!
0(
#765000
1!
1(
b100 >
b100 ?
#766000
0!
0(
#767000
1!
1(
b101 >
b101 ?
#768000
0!
0(
#769000
1!
1(
b110 >
b110 ?
#770000
0!
0(
#771000
1!
1(
b111 >
b111 ?
#772000
0!
0(
#773000
1!
1(
b1000 >
b1000 ?
#774000
0!
0(
#775000
1!
1(
b1001 >
b1001 ?
#776000
0!
0(
#777000
1!
0#
1(
0=
b0 >
b1010 ?
#778000
0!
0(
#779000
1!
1(
b1 >
b1011 ?
#780000
0!
0(
#781000
1!
1(
b10 >
b1100 ?
#782000
0!
0(
#783000
1!
1(
b11 >
b1101 ?
#784000
0!
0(
#785000
1!
1(
b100 >
b1110 ?
#786000
0!
0(
#787000
1!
1(
b101 >
b1111 ?
#788000
0!
0(
#789000
1!
1(
b110 >
b10000 ?
#790000
0!
0(
#791000
1!
1(
b111 >
b10001 ?
#792000
0!
0(
#793000
1!
1(
b1000 >
b10010 ?
#794000
0!
0(
#795000
1!
1(
b1001 >
b10011 ?
#796000
0!
0(
#797000
1!
1#
1(
1=
b0 >
b0 ?
b1100 @
0A
#798000
0!
0(
#799000
1!
1(
b1 >
b1 ?
#800000
0!
0(
#801000
1!
1(
b10 >
b10 ?
#802000
0!
0(
#803000
1!
1(
b11 >
b11 ?
#804000
0!
0(
#805000
1!
1(
b100 >
b100 ?
#806000
0!
0(
#807000
1!
1(
b101 >
b101 ?
#808000
0!
0(
#809000
1!
1(
b110 >
b110 ?
#810000
0!
0(
#811000
1!
1(
b111 >
b111 ?
#812000
0!
0(
#813000
1!
1(
b1000 >
b1000 ?
#814000
0!
0(
#815000
1!
1(
b1001 >
b1001 ?
#816000
0!
0(
#817000
1!
0#
1(
0=
b0 >
b1010 ?
#818000
0!
0(
#819000
1!
1(
b1 >
b1011 ?
