CCD231-debug-2021-01-26/CCD231-debug-2021-01-26.sim/sim_1/behav/xsim/wave.vcd
$date
   Tue Jan 19 20:24:43 2021
$end
$version
  2017.4
$end
$timescale
  1ps
$end
$scope module CLK_DIV_TB $end
$var reg 1 ! clk $end
$var reg 1 " rst $end
$var reg 8 # div [7:0] $end
$var wire 1 $ sclk0 $end
$var wire 1 % sclk1 $end
$var wire 1 & sclk2 $end
$var wire 1 ' sclk3 $end
$var wire 1 ( dout0 $end
$var wire 1 ) dout1 $end
$var wire 1 * dout2 $end
$var wire 1 + dout3 $end
$var reg 32 , din0 [31:0] $end
$var reg 16 - din1 [15:0] $end
$var wire 1 . cs0 $end
$var wire 1 / cs1 $end
$var wire 1 0 cs2 $end
$var wire 1 1 cs3 $end
$var parameter 32 2 clk_div [31:0] $end
$scope module clk_div0 $end
$var wire 1 3 clk $end
$var wire 1 4 rst $end
$var wire 32 5 din [31:0] $end
$var wire 1 $ sclk $end
$var wire 1 6 sclk1 $end
$var wire 1 7 sclk2 $end
$var wire 1 8 sclk3 $end
$var wire 1 ( dout $end
$var wire 1 . cs $end
$var reg 1 9 sclk_r $end
$var reg 8 : clk_cnt [7:0] $end
$var reg 8 ; dat_cnt [7:0] $end
$var reg 1 < dout_r $end
$var reg 8 = d_cnt [7:0] $end
$var reg 1 > cs_r $end
$var reg 8 ? delay_cnt [7:0] $end
$var reg 1 @ sclk_rdy $end
$var parameter 32 A DATAWIDTH [31:0] $end
$var parameter 32 B CNT_WIDTH [31:0] $end
$var parameter 32 C CPOL [31:0] $end
$var parameter 32 D CPHA [31:0] $end
$var parameter 32 E CLKDIV [31:0] $end
$upscope $end
$scope module clk_div1 $end
$var wire 1 F clk $end
$var wire 1 G rst $end
$var wire 16 H din [15:0] $end
$var wire 1 % sclk $end
$var wire 1 I sclk1 $end
$var wire 1 J sclk2 $end
$var wire 1 K sclk3 $end
$var wire 1 ) dout $end
$var wire 1 / cs $end
$var reg 1 L sclk_r $end
$var reg 8 M clk_cnt [7:0] $end
$var reg 8 N dat_cnt [7:0] $end
$var reg 1 O dout_r $end
$var reg 8 P d_cnt [7:0] $end
$var reg 1 Q cs_r $end
$var reg 8 R delay_cnt [7:0] $end
$var reg 1 S sclk_rdy $end
$var parameter 32 T DATAWIDTH [31:0] $end
$var parameter 32 U CNT_WIDTH [31:0] $end
$var parameter 32 V CPOL [31:0] $end
$var parameter 32 W CPHA [31:0] $end
$var parameter 32 X CLKDIV [31:0] $end
$upscope $end
$scope module clk_div2 $end
$var wire 1 Y clk $end
$var wire 1 Z rst $end
$var wire 32 [ din [31:0] $end
$var wire 1 & sclk $end
$var wire 1 \ sclk1 $end
$var wire 1 ] sclk2 $end
$var wire 1 ^ sclk3 $end
$var wire 1 * dout $end
$var wire 1 0 cs $end
$var reg 1 _ sclk_r $end
$var reg 8 ` clk_cnt [7:0] $end
$var reg 8 a dat_cnt [7:0] $end
$var reg 1 b dout_r $end
$var reg 8 c d_cnt [7:0] $end
$var reg 1 d cs_r $end
$var reg 8 e delay_cnt [7:0] $end
$var reg 1 f sclk_rdy $end
$var parameter 32 g DATAWIDTH [31:0] $end
$var parameter 32 h CNT_WIDTH [31:0] $end
$var parameter 32 i CPOL [31:0] $end
$var parameter 32 j CPHA [31:0] $end
$var parameter 32 k CLKDIV [31:0] $end
$upscope $end
$scope module clk_div3 $end
$var wire 1 l clk $end
$var wire 1 m rst $end
$var wire 16 n din [15:0] $end
$var wire 1 ' sclk $end
$var wire 1 o sclk1 $end
$var wire 1 p sclk2 $end
$var wire 1 q sclk3 $end
$var wire 1 + dout $end
$var wire 1 1 cs $end
$var reg 1 r sclk_r $end
$var reg 8 s clk_cnt [7:0] $end
$var reg 8 t dat_cnt [7:0] $end
$var reg 1 u dout_r $end
$var reg 8 v d_cnt [7:0] $end
$var reg 1 w cs_r $end
$var reg 8 x delay_cnt [7:0] $end
$var reg 1 y sclk_rdy $end
$var parameter 32 z DATAWIDTH [31:0] $end
$var parameter 32 { CNT_WIDTH [31:0] $end
$var parameter 32 | CPOL [31:0] $end
$var parameter 32 } CPHA [31:0] $end
$var parameter 32 ~ CLKDIV [31:0] $end
$upscope $end
$upscope $end
$enddefinitions $end
#0
$dumpvars
0!
0"
bx #
x$
x%
x&
x'
x(
x)
x*
x+
b10101010101010101010101010101010 ,
b1010101010101010 -
x.
x/
x0
x1
b10000 2
03
04
b10101010101010101010101010101010 5
z6
z7
z8
x9
bx :
bx ;
x<
bx =
x>
bx ?
x@
b100000 A
b1000 B
b0 C
b0 D
b10000 E
0F
0G
b1010101010101010 H
zI
zJ
zK
xL
bx M
bx N
xO
bx P
xQ
bx R
xS
b10000 T
b1000 U
b1 V
b0 W
b10000 X
0Y
0Z
b10101010101010101010101010101010 [
z\
z]
z^
x_
bx `
bx a
xb
bx c
xd
bx e
xf
b100000 g
b1000 h
b0 i
b1 j
b10000 k
0l
0m
b1010101010101010 n
zo
zp
zq
xr
bx s
bx t
xu
bx v
xw
bx x
xy
b10000 z
b1000 {
b1 |
b1 }
b10000 ~
$end
#1000
1!
13
1F
1Y
1l
#2000
0!
03
0F
0Y
0l
#3000
1!
13
1F
1Y
1l
#4000
0!
03
0F
0Y
0l
#5000
1!
13
1F
1Y
1l
#6000
0!
03
0F
0Y
0l
#7000
1!
13
1F
1Y
1l
#8000
0!
03
0F
0Y
0l
#9000
1!
13
1F
1Y
1l
#10000
0!
03
0F
0Y
0l
#11000
1!
13
1F
1Y
1l
#12000
0!
03
0F
0Y
0l
#13000
1!
13
1F
1Y
1l
#14000
0!
03
0F
0Y
0l
#15000
1!
13
1F
1Y
1l
#16000
0!
03
0F
0Y
0l
#17000
1!
13
1F
1Y
1l
#18000
0!
03
0F
0Y
0l
#19000
1!
13
1F
1Y
1l
#20000
0!
03
0F
0Y
0l
#21000
1!
13
1F
1Y
1l
#22000
0!
03
0F
0Y
0l
#23000
1!
13
1F
1Y
1l
#24000
0!
03
0F
0Y
0l
#25000
1!
1"
0$
1%
0&
1'
0(
0)
0*
0+
0.
0/
00
01
13
14
09
b1000 :
b11000 ;
0<
b100000 =
0>
b0 ?
0@
1F
1G
1L
b1000 M
b11000 N
0O
b10000 P
0Q
b0 R
0S
1Y
1Z
0_
b0 `
b1000 a
0b
b100000 c
0d
b1000 e
1f
1l
1m
1r
b0 s
b1000 t
0u
b10000 v
0w
b1000 x
1y
#26000
0!
03
0F
0Y
0l
#27000
1!
0"
13
04
b11001 ;
b1 ?
1F
0G
b11001 N
b1 R
1Y
0Z
b1 `
b1001 a
b1001 e
1l
0m
b1 s
b1001 t
b1001 x
#28000
0!
03
0F
0Y
0l
#29000
1!
13
b11010 ;
b10 ?
1F
b11010 N
b10 R
1Y
b10 `
b1010 a
b1010 e
1l
b10 s
b1010 t
b1010 x
#30000
0!
03
0F
0Y
0l
#31000
1!
13
b11011 ;
b11 ?
1F
b11011 N
b11 R
1Y
b11 `
b1011 a
b1011 e
1l
b11 s
b1011 t
b1011 x
#32000
0!
03
0F
0Y
0l
#33000
1!
13
b11100 ;
b100 ?
1F
b11100 N
b100 R
1Y
b100 `
b1100 a
b1100 e
1l
b100 s
b1100 t
b1100 x
#34000
0!
03
0F
0Y
0l
#35000
1!
13
b11101 ;
b101 ?
1F
b11101 N
b101 R
1Y
b101 `
b1101 a
b1101 e
1l
b101 s
b1101 t
b1101 x
#36000
0!
03
0F
0Y
0l
#37000
1!
13
b11110 ;
b110 ?
1F
b11110 N
b110 R
1Y
b110 `
b1110 a
b1110 e
1l
b110 s
b1110 t
b1110 x
#38000
0!
03
0F
0Y
0l
#39000
1!
13
b11111 ;
b111 ?
1F
b11111 N
b111 R
1Y
b111 `
b1111 a
b1111 e
1l
b111 s
b1111 t
b1111 x
#40000
0!
03
0F
0Y
0l
#41000
1!
13
b100000 ;
b1000 ?
1F
b100000 N
b1000 R
1Y
b1000 `
b10000 a
b10000 e
1l
b1000 s
b10000 t
b10000 x
#42000
0!
03
0F
0Y
0l
#43000
1!
1(
1)
13
b0 ;
1<
b11111 =
b1001 ?
1F
b0 N
1O
b1111 P
b1001 R
1Y
b1001 `
b10001 a
1l
b1001 s
b10001 t
#44000
0!
03
0F
0Y
0l
#45000
1!
13
b1 ;
b1010 ?
1F
b1 N
b1010 R
1Y
b1010 `
b10010 a
1l
b1010 s
b10010 t
#46000
0!
03
0F
0Y
0l
#47000
1!
13
b10 ;
b1011 ?
1F
b10 N
b1011 R
1Y
b1011 `
b10011 a
1l
b1011 s
b10011 t
#48000
0!
03
0F
0Y
0l
#49000
1!
13
b11 ;
b1100 ?
1F
b11 N
b1100 R
1Y
b1100 `
b10100 a
1l
b1100 s
b10100 t
#50000
0!
03
0F
0Y
0l
#51000
1!
13
b100 ;
b1101 ?
1F
b100 N
b1101 R
1Y
b1101 `
b10101 a
1l
b1101 s
b10101 t
#52000
0!
03
0F
0Y
0l
#53000
1!
13
b101 ;
b1110 ?
1F
b101 N
b1110 R
1Y
b1110 `
b10110 a
1l
b1110 s
b10110 t
#54000
0!
03
0F
0Y
0l
#55000
1!
13
b110 ;
b1111 ?
1F
b110 N
b1111 R
1Y
b1111 `
b10111 a
1l
b1111 s
b10111 t
#56000
0!
03
0F
0Y
0l
#57000
1!
13
b111 ;
b10000 ?
1F
b111 N
b10000 R
1Y
b10000 `
b11000 a
1l
b10000 s
b11000 t
#58000
0!
03
0F
0Y
0l
#59000
1!
1&
0'
13
b1000 ;
1@
1F
b1000 N
1S
1Y
1_
b0 `
b11001 a
1l
0r
b0 s
b11001 t
#60000
0!
03
0F
0Y
0l
#61000
1!
13
b1001 :
b1001 ;
1F
b1001 M
b1001 N
1Y
b1 `
b11010 a
1l
b1 s
b11010 t
#62000
0!
03
0F
0Y
0l
#63000
1!
13
b1010 :
b1010 ;
1F
b1010 M
b1010 N
1Y
b10 `
b11011 a
1l
b10 s
b11011 t
#64000
0!
03
0F
0Y
0l
#65000
1!
13
b1011 :
b1011 ;
1F
b1011 M
b1011 N
1Y
b11 `
b11100 a
1l
b11 s
b11100 t
#66000
0!
03
0F
0Y
0l
#67000
1!
13
b1100 :
b1100 ;
1F
b1100 M
b1100 N
1Y
b100 `
b11101 a
1l
b100 s
b11101 t
#68000
0!
03
0F
0Y
0l
#69000
1!
13
b1101 :
b1101 ;
1F
b1101 M
b1101 N
1Y
b101 `
b11110 a
1l
b101 s
b11110 t
#70000
0!
03
0F
0Y
0l
#71000
1!
13
b1110 :
b1110 ;
1F
b1110 M
b1110 N
1Y
b110 `
b11111 a
1l
b110 s
b11111 t
#72000
0!
03
0F
0Y
0l
#73000
1!
13
b1111 :
b1111 ;
1F
b1111 M
b1111 N
1Y
b111 `
b100000 a
1l
b111 s
b100000 t
#74000
0!
03
0F
0Y
0l
#75000
1!
1*
1+
13
b10000 :
b10000 ;
1F
b10000 M
b10000 N
1Y
b1000 `
b0 a
1b
b11111 c
1l
b1000 s
b0 t
1u
b1111 v
#76000
0!
03
0F
0Y
0l
#77000
1!
1$
0%
13
19
b0 :
b10001 ;
1F
0L
b0 M
b10001 N
1Y
b1001 `
b1 a
1l
b1001 s
b1 t
#78000
0!
03
0F
0Y
0l
#79000
1!
13
b1 :
b10010 ;
1F
b1 M
b10010 N
1Y
b1010 `
b10 a
1l
b1010 s
b10 t
#80000
0!
03
0F
0Y
0l
#81000
1!
13
b10 :
b10011 ;
1F
b10 M
b10011 N
1Y
b1011 `
b11 a
1l
b1011 s
b11 t
#82000
0!
03
0F
0Y
0l
#83000
1!
13
b11 :
b10100 ;
1F
b11 M
b10100 N
1Y
b1100 `
b100 a
1l
b1100 s
b100 t
#84000
0!
03
0F
0Y
0l
#85000
1!
13
b100 :
b10101 ;
1F
b100 M
b10101 N
1Y
b1101 `
b101 a
1l
b1101 s
b101 t
#86000
0!
03
0F
0Y
0l
#87000
1!
13
b101 :
b10110 ;
1F
b101 M
b10110 N
1Y
b1110 `
b110 a
1l
b1110 s
b110 t
#88000
0!
03
0F
0Y
0l
#89000
1!
13
b110 :
b10111 ;
1F
b110 M
b10111 N
1Y
b1111 `
b111 a
1l
b1111 s
b111 t
#90000
0!
03
0F
0Y
0l
#91000
1!
13
b111 :
b11000 ;
1F
b111 M
b11000 N
1Y
b10000 `
b1000 a
1l
b10000 s
b1000 t
#92000
0!
03
0F
0Y
0l
#93000
1!
0&
1'
13
b1000 :
b11001 ;
1F
b1000 M
b11001 N
1Y
0_
b0 `
b1001 a
1l
1r
b0 s
b1001 t
#94000
0!
03
0F
0Y
0l
#95000
1!
13
b1001 :
b11010 ;
1F
b1001 M
b11010 N
1Y
b1 `
b1010 a
1l
b1 s
b1010 t
#96000
0!
03
0F
0Y
0l
#97000
1!
13
b1010 :
b11011 ;
1F
b1010 M
b11011 N
1Y
b10 `
b1011 a
1l
b10 s
b1011 t
#98000
0!
03
0F
0Y
0l
#99000
1!
13
b1011 :
b11100 ;
1F
b1011 M
b11100 N
1Y
b11 `
b1100 a
1l
b11 s
b1100 t
#100000
0!
03
0F
0Y
0l
#101000
1!
13
b1100 :
b11101 ;
1F
b1100 M
b11101 N
1Y
b100 `
b1101 a
1l
b100 s
b1101 t
#102000
0!
03
0F
0Y
0l
#103000
1!
13
b1101 :
b11110 ;
1F
b1101 M
b11110 N
1Y
b101 `
b1110 a
1l
b101 s
b1110 t
#104000
0!
03
0F
0Y
0l
#105000
1!
13
b1110 :
b11111 ;
1F
b1110 M
b11111 N
1Y
b110 `
b1111 a
1l
b110 s
b1111 t
#106000
0!
03
0F
0Y
0l
#107000
1!
13
b1111 :
b100000 ;
1F
b1111 M
b100000 N
1Y
b111 `
b10000 a
1l
b111 s
b10000 t
#108000
0!
03
0F
0Y
0l
#109000
1!
0(
0)
13
b10000 :
b0 ;
0<
b11110 =
1F
b10000 M
b0 N
0O
b1110 P
1Y
b1000 `
b10001 a
1l
b1000 s
b10001 t
#110000
0!
03
0F
0Y
0l
#111000
1!
0$
1%
13
09
b0 :
b1 ;
1F
1L
b0 M
b1 N
1Y
b1001 `
b10010 a
1l
b1001 s
b10010 t
#112000
0!
03
0F
0Y
0l
#113000
1!
13
b1 :
b10 ;
1F
b1 M
b10 N
1Y
b1010 `
b10011 a
1l
b1010 s
b10011 t
#114000
0!
03
0F
0Y
0l
#115000
1!
13
b10 :
b11 ;
1F
b10 M
b11 N
1Y
b1011 `
b10100 a
1l
b1011 s
b10100 t
#116000
0!
03
0F
0Y
0l
#117000
1!
13
b11 :
b100 ;
1F
b11 M
b100 N
1Y
b1100 `
b10101 a
1l
b1100 s
b10101 t
#118000
0!
03
0F
0Y
0l
#119000
1!
13
b100 :
b101 ;
1F
b100 M
b101 N
1Y
b1101 `
b10110 a
1l
b1101 s
b10110 t
#120000
0!
03
0F
0Y
0l
#121000
1!
13
b101 :
b110 ;
1F
b101 M
b110 N
1Y
b1110 `
b10111 a
1l
b1110 s
b10111 t
#122000
0!
03
0F
0Y
0l
#123000
1!
13
b110 :
b111 ;
1F
b110 M
b111 N
1Y
b1111 `
b11000 a
1l
b1111 s
b11000 t
#124000
0!
03
0F
0Y
0l
#125000
1!
13
b111 :
b1000 ;
1F
b111 M
b1000 N
1Y
b10000 `
b11001 a
1l
b10000 s
b11001 t
#126000
0!
03
0F
0Y
0l
#127000
1!
1&
0'
13
b1000 :
b1001 ;
1F
b1000 M
b1001 N
1Y
1_
b0 `
b11010 a
1l
0r
b0 s
b11010 t
#128000
0!
03
0F
0Y
0l
#129000
1!
13
b1001 :
b1010 ;
1F
b1001 M
b1010 N
1Y
b1 `
b11011 a
1l
b1 s
b11011 t
#130000
0!
03
0F
0Y
0l
#131000
1!
13
b1010 :
b1011 ;
1F
b1010 M
b1011 N
1Y
b10 `
b11100 a
1l
b10 s
b11100 t
#132000
0!
03
0F
0Y
0l
#133000
1!
13
b1011 :
b1100 ;
1F
b1011 M
b1100 N
1Y
b11 `
b11101 a
1l
b11 s
b11101 t
#134000
0!
03
0F
0Y
0l
#135000
1!
13
b1100 :
b1101 ;
1F
b1100 M
b1101 N
1Y
b100 `
b11110 a
1l
b100 s
b11110 t
#136000
0!
03
0F
0Y
0l
#137000
1!
13
b1101 :
b1110 ;
1F
b1101 M
b1110 N
1Y
b101 `
b11111 a
1l
b101 s
b11111 t
#138000
0!
03
0F
0Y
0l
#139000
1!
13
b1110 :
b1111 ;
1F
b1110 M
b1111 N
1Y
b110 `
b100000 a
1l
b110 s
b100000 t
#140000
0!
03
0F
0Y
0l
#141000
1!
0*
0+
13
b1111 :
b10000 ;
1F
b1111 M
b10000 N
1Y
b111 `
b0 a
0b
b11110 c
1l
b111 s
b0 t
0u
b1110 v
#142000
0!
03
0F
0Y
0l
#143000
1!
13
b10000 :
b10001 ;
1F
b10000 M
b10001 N
1Y
b1000 `
b1 a
1l
b1000 s
b1 t
#144000
0!
03
0F
0Y
0l
#145000
1!
1$
0%
13
19
b0 :
b10010 ;
1F
0L
b0 M
b10010 N
1Y
b1001 `
b10 a
1l
b1001 s
b10 t
#146000
0!
03
0F
0Y
0l
#147000
1!
13
b1 :
b10011 ;
1F
b1 M
b10011 N
1Y
b1010 `
b11 a
1l
b1010 s
b11 t
#148000
0!
03
0F
0Y
0l
#149000
1!
13
b10 :
b10100 ;
1F
b10 M
b10100 N
1Y
b1011 `
b100 a
1l
b1011 s
b100 t
#150000
0!
03
0F
0Y
0l
#151000
1!
13
b11 :
b10101 ;
1F
b11 M
b10101 N
1Y
b1100 `
b101 a
1l
b1100 s
b101 t
#152000
0!
03
0F
0Y
0l
#153000
1!
13
b100 :
b10110 ;
1F
b100 M
b10110 N
1Y
b1101 `
b110 a
1l
b1101 s
b110 t
#154000
0!
03
0F
0Y
0l
#155000
1!
13
b101 :
b10111 ;
1F
b101 M
b10111 N
1Y
b1110 `
b111 a
1l
b1110 s
b111 t
#156000
0!
03
0F
0Y
0l
#157000
1!
13
b110 :
b11000 ;
1F
b110 M
b11000 N
1Y
b1111 `
b1000 a
1l
b1111 s
b1000 t
#158000
0!
03
0F
0Y
0l
#159000
1!
13
b111 :
b11001 ;
1F
b111 M
b11001 N
1Y
b10000 `
b1001 a
1l
b10000 s
b1001 t
#160000
0!
03
0F
0Y
0l
#161000
1!
0&
1'
13
b1000 :
b11010 ;
1F
b1000 M
b11010 N
1Y
0_
b0 `
b1010 a
1l
1r
b0 s
b1010 t
#162000
0!
03
0F
0Y
0l
#163000
1!
13
b1001 :
b11011 ;
1F
b1001 M
b11011 N
1Y
b1 `
b1011 a
1l
b1 s
b1011 t
#164000
0!
03
0F
0Y
0l
#165000
1!
13
b1010 :
b11100 ;
1F
b1010 M
b11100 N
1Y
b10 `
b1100 a
1l
b10 s
b1100 t
#166000
0!
03
0F
0Y
0l
#167000
1!
13
b1011 :
b11101 ;
1F
b1011 M
b11101 N
1Y
b11 `
b1101 a
1l
b11 s
b1101 t
#168000
0!
03
0F
0Y
0l
#169000
1!
13
b1100 :
b11110 ;
1F
b1100 M
b11110 N
1Y
b100 `
b1110 a
1l
b100 s
b1110 t
#170000
0!
03
0F
0Y
0l
#171000
1!
13
b1101 :
b11111 ;
1F
b1101 M
b11111 N
1Y
b101 `
b1111 a
1l
b101 s
b1111 t
#172000
0!
03
0F
0Y
0l
#173000
1!
13
b1110 :
b100000 ;
1F
b1110 M
b100000 N
1Y
b110 `
b10000 a
1l
b110 s
b10000 t
#174000
0!
03
0F
0Y
0l
#175000
1!
1(
1)
13
b1111 :
b0 ;
1<
b11101 =
1F
b1111 M
b0 N
1O
b1101 P
1Y
b111 `
b10001 a
1l
b111 s
b10001 t
#176000
0!
03
0F
0Y
0l
#177000
1!
13
b10000 :
b1 ;
1F
b10000 M
b1 N
1Y
b1000 `
b10010 a
1l
b1000 s
b10010 t
#178000
0!
03
0F
0Y
0l
#179000
1!
0$
1%
13
09
b0 :
b10 ;
1F
1L
b0 M
b10 N
1Y
b1001 `
b10011 a
1l
b1001 s
b10011 t
#180000
0!
03
0F
0Y
0l
#181000
1!
13
b1 :
b11 ;
1F
b1 M
b11 N
1Y
b1010 `
b10100 a
1l
b1010 s
b10100 t
#182000
0!
03
0F
0Y
0l
#183000
1!
13
b10 :
b100 ;
1F
b10 M
b100 N
1Y
b1011 `
b10101 a
1l
b1011 s
b10101 t
#184000
0!
03
0F
0Y
0l
#185000
1!
13
b11 :
b101 ;
1F
b11 M
b101 N
1Y
b1100 `
b10110 a
1l
b1100 s
b10110 t
#186000
0!
03
0F
0Y
0l
#187000
1!
13
b100 :
b110 ;
1F
b100 M
b110 N
1Y
b1101 `
b10111 a
1l
b1101 s
b10111 t
#188000
0!
03
0F
0Y
0l
#189000
1!
13
b101 :
b111 ;
1F
b101 M
b111 N
1Y
b1110 `
b11000 a
1l
b1110 s
b11000 t
#190000
0!
03
0F
0Y
0l
#191000
1!
13
b110 :
b1000 ;
1F
b110 M
b1000 N
1Y
b1111 `
b11001 a
1l
b1111 s
b11001 t
#192000
0!
03
0F
0Y
0l
#193000
1!
13
b111 :
b1001 ;
1F
b111 M
b1001 N
1Y
b10000 `
b11010 a
1l
b10000 s
b11010 t
#194000
0!
03
0F
0Y
0l
#195000
1!
1&
0'
13
b1000 :
b1010 ;
1F
b1000 M
b1010 N
1Y
1_
b0 `
b11011 a
1l
0r
b0 s
b11011 t
#196000
0!
03
0F
0Y
0l
#197000
1!
13
b1001 :
b1011 ;
1F
b1001 M
b1011 N
1Y
b1 `
b11100 a
1l
b1 s
b11100 t
#198000
0!
03
0F
0Y
0l
#199000
1!
13
b1010 :
b1100 ;
1F
b1010 M
b1100 N
1Y
b10 `
b11101 a
1l
b10 s
b11101 t
#200000
0!
03
0F
0Y
0l
#201000
1!
13
b1011 :
b1101 ;
1F
b1011 M
b1101 N
1Y
b11 `
b11110 a
1l
b11 s
b11110 t
#202000
0!
03
0F
0Y
0l
#203000
1!
13
b1100 :
b1110 ;
1F
b1100 M
b1110 N
1Y
b100 `
b11111 a
1l
b100 s
b11111 t
#204000
0!
03
0F
0Y
0l
#205000
1!
13
b1101 :
b1111 ;
1F
b1101 M
b1111 N
1Y
b101 `
b100000 a
1l
b101 s
b100000 t
#206000
0!
03
0F
0Y
0l
#207000
1!
1*
1+
13
b1110 :
b10000 ;
1F
b1110 M
b10000 N
1Y
b110 `
b0 a
1b
b11101 c
1l
b110 s
b0 t
1u
b1101 v
#208000
0!
03
0F
0Y
0l
#209000
1!
13
b1111 :
b10001 ;
1F
b1111 M
b10001 N
1Y
b111 `
b1 a
1l
b111 s
b1 t
#210000
0!
03
0F
0Y
0l
#211000
1!
13
b10000 :
b10010 ;
1F
b10000 M
b10010 N
1Y
b1000 `
b10 a
1l
b1000 s
b10 t
#212000
0!
03
0F
0Y
0l
#213000
1!
1$
0%
13
19
b0 :
b10011 ;
1F
0L
b0 M
b10011 N
1Y
b1001 `
b11 a
1l
b1001 s
b11 t
#214000
0!
03
0F
0Y
0l
#215000
1!
13
b1 :
b10100 ;
1F
b1 M
b10100 N
1Y
b1010 `
b100 a
1l
b1010 s
b100 t
#216000
0!
03
0F
0Y
0l
#217000
1!
13
b10 :
b10101 ;
1F
b10 M
b10101 N
1Y
b1011 `
b101 a
1l
b1011 s
b101 t
#218000
0!
03
0F
0Y
0l
#219000
1!
13
b11 :
b10110 ;
1F
b11 M
b10110 N
1Y
b1100 `
b110 a
1l
b1100 s
b110 t
#220000
0!
03
0F
0Y
0l
#221000
1!
13
b100 :
b10111 ;
1F
b100 M
b10111 N
1Y
b1101 `
b111 a
1l
b1101 s
b111 t
#222000
0!
03
0F
0Y
0l
#223000
1!
13
b101 :
b11000 ;
1F
b101 M
b11000 N
1Y
b1110 `
b1000 a
1l
b1110 s
b1000 t
#224000
0!
03
0F
0Y
0l
#225000
1!
13
b110 :
b11001 ;
1F
b110 M
b11001 N
1Y
b1111 `
b1001 a
1l
b1111 s
b1001 t
#226000
0!
03
0F
0Y
0l
#227000
1!
13
b111 :
b11010 ;
1F
b111 M
b11010 N
1Y
b10000 `
b1010 a
1l
b10000 s
b1010 t
#228000
0!
03
0F
0Y
0l
#229000
1!
0&
1'
13
b1000 :
b11011 ;
1F
b1000 M
b11011 N
1Y
0_
b0 `
b1011 a
1l
1r
b0 s
b1011 t
#230000
0!
03
0F
0Y
0l
#231000
1!
13
b1001 :
b11100 ;
1F
b1001 M
b11100 N
1Y
b1 `
b1100 a
1l
b1 s
b1100 t
#232000
0!
03
0F
0Y
0l
#233000
1!
13
b1010 :
b11101 ;
1F
b1010 M
b11101 N
1Y
b10 `
b1101 a
1l
b10 s
b1101 t
#234000
0!
03
0F
0Y
0l
#235000
1!
13
b1011 :
b11110 ;
1F
b1011 M
b11110 N
1Y
b11 `
b1110 a
1l
b11 s
b1110 t
#236000
0!
03
0F
0Y
0l
#237000
1!
13
b1100 :
b11111 ;
1F
b1100 M
b11111 N
1Y
b100 `
b1111 a
1l
b100 s
b1111 t
#238000
0!
03
0F
0Y
0l
#239000
1!
13
b1101 :
b100000 ;
1F
b1101 M
b100000 N
1Y
b101 `
b10000 a
1l
b101 s
b10000 t
#240000
0!
03
0F
0Y
0l
#241000
1!
0(
0)
13
b1110 :
b0 ;
0<
b11100 =
1F
b1110 M
b0 N
0O
b1100 P
1Y
b110 `
b10001 a
1l
b110 s
b10001 t
#242000
0!
03
0F
0Y
0l
#243000
1!
13
b1111 :
b1 ;
1F
b1111 M
b1 N
1Y
b111 `
b10010 a
1l
b111 s
b10010 t
#244000
0!
03
0F
0Y
0l
#245000
1!
13
b10000 :
b10 ;
1F
b10000 M
b10 N
1Y
b1000 `
b10011 a
1l
b1000 s
b10011 t
#246000
0!
03
0F
0Y
0l
#247000
1!
0$
1%
13
09
b0 :
b11 ;
1F
1L
b0 M
b11 N
1Y
b1001 `
b10100 a
1l
b1001 s
b10100 t
#248000
0!
03
0F
0Y
0l
#249000
1!
13
b1 :
b100 ;
1F
b1 M
b100 N
1Y
b1010 `
b10101 a
1l
b1010 s
b10101 t
#250000
0!
03
0F
0Y
0l
#251000
1!
13
b10 :
b101 ;
1F
b10 M
b101 N
1Y
b1011 `
b10110 a
1l
b1011 s
b10110 t
#252000
0!
03
0F
0Y
0l
#253000
1!
13
b11 :
b110 ;
1F
b11 M
b110 N
1Y
b1100 `
b10111 a
1l
b1100 s
b10111 t
#254000
0!
03
0F
0Y
0l
#255000
1!
13
b100 :
b111 ;
1F
b100 M
b111 N
1Y
b1101 `
b11000 a
1l
b1101 s
b11000 t
#256000
0!
03
0F
0Y
0l
#257000
1!
13
b101 :
b1000 ;
1F
b101 M
b1000 N
1Y
b1110 `
b11001 a
1l
b1110 s
b11001 t
#258000
0!
03
0F
0Y
0l
#259000
1!
13
b110 :
b1001 ;
1F
b110 M
b1001 N
1Y
b1111 `
b11010 a
1l
b1111 s
b11010 t
#260000
0!
03
0F
0Y
0l
#261000
1!
13
b111 :
b1010 ;
1F
b111 M
b1010 N
1Y
b10000 `
b11011 a
1l
b10000 s
b11011 t
#262000
0!
03
0F
0Y
0l
#263000
1!
1&
0'
13
b1000 :
b1011 ;
1F
b1000 M
b1011 N
1Y
1_
b0 `
b11100 a
1l
0r
b0 s
b11100 t
#264000
0!
03
0F
0Y
0l
#265000
1!
13
b1001 :
b1100 ;
1F
b1001 M
b1100 N
1Y
b1 `
b11101 a
1l
b1 s
b11101 t
#266000
0!
03
0F
0Y
0l
#267000
1!
13
b1010 :
b1101 ;
1F
b1010 M
b1101 N
1Y
b10 `
b11110 a
1l
b10 s
b11110 t
#268000
0!
03
0F
0Y
0l
#269000
1!
13
b1011 :
b1110 ;
1F
b1011 M
b1110 N
1Y
b11 `
b11111 a
1l
b11 s
b11111 t
#270000
0!
03
0F
0Y
0l
#271000
1!
13
b1100 :
b1111 ;
1F
b1100 M
b1111 N
1Y
b100 `
b100000 a
1l
b100 s
b100000 t
#272000
0!
03
0F
0Y
0l
#273000
1!
0*
0+
13
b1101 :
b10000 ;
1F
b1101 M
b10000 N
1Y
b101 `
b0 a
0b
b11100 c
1l
b101 s
b0 t
0u
b1100 v
#274000
0!
03
0F
0Y
0l
#275000
1!
13
b1110 :
b10001 ;
1F
b1110 M
b10001 N
1Y
b110 `
b1 a
1l
b110 s
b1 t
#276000
0!
03
0F
0Y
0l
#277000
1!
13
b1111 :
b10010 ;
1F
b1111 M
b10010 N
1Y
b111 `
b10 a
1l
b111 s
b10 t
#278000
0!
03
0F
0Y
0l
#279000
1!
13
b10000 :
b10011 ;
1F
b10000 M
b10011 N
1Y
b1000 `
b11 a
1l
b1000 s
b11 t
#280000
0!
03
0F
0Y
0l
#281000
1!
1$
0%
13
19
b0 :
b10100 ;
1F
0L
b0 M
b10100 N
1Y
b1001 `
b100 a
1l
b1001 s
b100 t
#282000
0!
03
0F
0Y
0l
#283000
1!
13
b1 :
b10101 ;
1F
b1 M
b10101 N
1Y
b1010 `
b101 a
1l
b1010 s
b101 t
#284000
0!
03
0F
0Y
0l
#285000
1!
13
b10 :
b10110 ;
1F
b10 M
b10110 N
1Y
b1011 `
b110 a
1l
b1011 s
b110 t
#286000
0!
03
0F
0Y
0l
#287000
1!
13
b11 :
b10111 ;
1F
b11 M
b10111 N
1Y
b1100 `
b111 a
1l
b1100 s
b111 t
#288000
0!
03
0F
0Y
0l
#289000
1!
13
b100 :
b11000 ;
1F
b100 M
b11000 N
1Y
b1101 `
b1000 a
1l
b1101 s
b1000 t
#290000
0!
03
0F
0Y
0l
#291000
1!
13
b101 :
b11001 ;
1F
b101 M
b11001 N
1Y
b1110 `
b1001 a
1l
b1110 s
b1001 t
#292000
0!
03
0F
0Y
0l
#293000
1!
13
b110 :
b11010 ;
1F
b110 M
b11010 N
1Y
b1111 `
b1010 a
1l
b1111 s
b1010 t
#294000
0!
03
0F
0Y
0l
