adc_test_4ch/.Xil/Vivado-87112-apple/hw_ila_data_1/zip_work/waveform.vcd
$date
        2020-Dec-23 19:02:19
$end
$version
        Vivado v2017.4 (64-bit)
$end
$timescale
        1ps
$end
$scope module dut $end
$var reg 12 " adc1_data_b_d0 [11:0] $end
$var reg 12 . adc1_data_a_d0 [11:0] $end
$var reg 1 : _TRIGGER $end
$var reg 1 ; _WINDOW $end
$var reg 1 < _GAP $end
$upscope $end
$enddefinitions $end
#0
$dumpvars
b100000000001 "
b100000000110 .
0:
1;
0<
$end
#1
b100000000101 .
#2
b100000000010 "
b100000000110 .
#4
b100000000101 .
#5
b100000000001 "
b100000000110 .
#7
b100000000010 "
#8
b100000000001 "
#9
b100000000101 .
#10
b100000000010 "
b100000000111 .
#11
b100000000001 "
b100000000101 .
#12
b100000000110 .
#13
b100000000010 "
b100000000101 .
#14
b100000000001 "
b100000000110 .
#15
b100000000000 "
b100000000111 .
#16
b100000000001 "
b100000000101 .
#17
b100000000010 "
b100000000110 .
#18
b100000000001 "
#19
b100000000010 "
#22
b100000000001 "
#24
b100000000010 "
#25
b100000000101 .
#26
b100000000011 "
b100000000110 .
#27
b100000000010 "
#28
b100000000001 "
b100000000111 .
#29
b100000000010 "
b100000000110 .
#30
b100000000001 "
b100000000111 .
#32
b100000000110 .
#33
b100000000111 .
#34
b100000000010 "
b100000000110 .
#35
b100000000001 "
#37
b100000000011 "
b100000001000 .
#38
b100000000001 "
b100000000101 .
#39
b100000000010 "
b100000000110 .
#41
b100000000101 .
#42
b100000000110 .
#43
b100000000101 .
#44
b100000000110 .
#45
b100000000000 "
b100000000111 .
#46
b100000000110 .
#47
b100000000001 "
#48
b100000000010 "
#49
b100000000001 "
#51
b100000000101 .
#52
b100000000110 .
#53
b100000000111 .
#54
b100000000010 "
#55
b100000000001 "
b100000000110 .
#56
b100000000011 "
b100000000111 .
#57
b100000000110 .
#58
b100000000001 "
#59
b100000000010 "
b100000000111 .
#60
b100000000000 "
b100000000101 .
#61
b100000000010 "
b100000000110 .
#63
b100000000111 .
#64
b100000000001 "
b100000000110 .
#65
b100000000010 "
#66
b100000000001 "
#67
b100000000010 "
b100000000111 .
#68
b100000000101 .
#69
b100000000110 .
#70
b100000000001 "
#71
b100000000010 "
#72
b100000000001 "
b100000000111 .
#73
b100000000000 "
b100000000110 .
#74
b100000000010 "
#75
b100000000000 "
#76
b100000000001 "
#77
b100000000010 "
b100000000111 .
#79
b100000000101 .
#80
b100000000110 .
#81
b100000000001 "
#82
b100000000010 "
b100000000111 .
#83
b100000000001 "
b100000000110 .
#84
b100000000000 "
#85
b100000000001 "
b100000000111 .
#86
b100000000000 "
b100000000101 .
#87
b100000000001 "
b100000000110 .
#89
b100000000000 "
#90
b100000000010 "
#91
b100000000001 "
#92
b100000000101 .
#94
b100000000010 "
b100000000111 .
#95
b100000000001 "
b100000000101 .
#96
b100000000111 .
#97
b100000000110 .
#98
b100000000010 "
#99
b100000000001 "
#100
b100000000111 .
#103
b100000000011 "
#104
b100000000001 "
b100000000110 .
#105
b100000000010 "
#107
b100000000000 "
#108
b100000000001 "
b100000000111 .
#110
b100000000010 "
b100000000110 .
#111
b100000000001 "
b100000000111 .
#112
b100000000010 "
#113
b100000000001 "
b100000001000 .
#114
b100000000110 .
#115
b100000000111 .
#116
b100000000110 .
#118
b100000000011 "
#119
b100000000010 "
#120
b100000000111 .
#121
b100000000001 "
#122
b100000000000 "
b100000000110 .
#123
b100000000001 "
b100000000101 .
#125
b100000000010 "
b100000000110 .
#126
b100000000001 "
b100000000111 .
#127
b100000000110 .
#128
b100000000010 "
b100000000101 .
#129
b100000000110 .
#131
b100000000001 "
b100000000111 .
#132
b100000000010 "
#133
b100000000001 "
b100000000110 .
#134
b100000000010 "
b100000000111 .
#135
b100000000001 "
b100000000110 .
#136
b100000000011 "
b100000000111 .
#137
b100000000001 "
#138
b100000000110 .
#139
b100000000111 .
#140
b100000000110 .
#141
b100000000010 "
#142
b100000000001 "
b100000000101 .
#143
b100000000010 "
b100000000110 .
#144
b100000000001 "
#145
b100000000010 "
b100000000111 .
#146
b100000000001 "
#148
b100000000010 "
#149
b100000000001 "
#150
b100000000110 .
#151
b100000000101 .
#152
b100000000111 .
#153
b100000000110 .
#155
b100000000111 .
#156
b100000000110 .
#158
b100000000101 .
#159
b100000000110 .
#160
b100000000101 .
#161
b100000000110 .
#164
b100000000010 "
#165
b100000000000 "
b100000000111 .
#166
b100000000001 "
#167
b100000000010 "
b100000000101 .
#168
b100000000001 "
b100000000110 .
#170
b100000000010 "
b100000000111 .
#171
b100000000011 "
b100000000110 .
#172
b100000000010 "
b100000000111 .
#173
b100000000001 "
b100000000110 .
#174
b100000000111 .
#175
b100000000010 "
#176
b100000000001 "
b100000000101 .
#177
b100000000010 "
b100000000110 .
#179
b100000000000 "
b100000000111 .
#180
b100000000011 "
b100000000101 .
#181
b100000000010 "
b100000000110 .
#182
b100000000001 "
#184
b100000000011 "
b100000000111 .
#185
b100000000001 "
b100000000110 .
#186
b100000000101 .
#187
b100000000110 .
#188
b100000000010 "
#189
b100000000111 .
#190
b100000000001 "
b100000000110 .
#191
b100000000010 "
b100000000111 .
#192
b100000000001 "
#193
b100000000010 "
b100000000110 .
#194
b100000000001 "
#195
b100000000010 "
b100000000111 .
#196
b100000000100 "
#197
b100000000001 "
#199
b100000000010 "
#201
b100000000001 "
b100000000110 .
#202
b100000000111 .
#203
b100000000010 "
#206
b100000000001 "
b100000000110 .
#209
b100000000101 .
#210
b100000000110 .
#212
b100000000010 "
#213
b100000000001 "
#214
b100000000010 "
#217
b100000000111 .
#218
b100000000001 "
b100000000110 .
#219
b100000000010 "
#221
b100000000111 .
#222
b100000000001 "
#225
b100000000010 "
#226
b100000000001 "
b100000000110 .
#227
b100000000010 "
#228
b100000000101 .
#229
b100000000110 .
#230
b100000000111 .
#231
b100000000001 "
#232
b100000000110 .
#234
b100000000010 "
#235
b100000000011 "
#236
b100000000010 "
#237
b100000000001 "
b100000000111 .
#238
b100000000010 "
b100000000110 .
#239
b100000000001 "
b100000000111 .
#240
b100000000010 "
#241
b100000000001 "
b100000000110 .
#242
b100000000010 "
b100000000111 .
#243
b100000000001 "
b100000000101 .
#244
b100000000111 .
#245
b100000000110 .
#248
b100000000010 "
b100000000111 .
#249
b100000000110 .
#251
b100000000000 "
#252
b100000000101 .
#253
b100000000001 "
b100000000110 .
#254
b100000000010 "
#255
b100000000111 .
#256
b100000000001 "
b100000000110 .
#257
b100000000010 "
#259
b100000001000 .
#260
b100000000001 "
b100000000110 .
#261
b100000000000 "
#262
b100000000001 "
b100000000101 .
#263
b100000000110 .
#264
b100000000010 "
b100000000111 .
#265
b100000000000 "
#266
b100000000001 "
b100000000110 .
#267
b100000000010 "
#268
b100000000111 .
#269
b100000000110 .
#270
b100000000001 "
#271
b100000000010 "
b100000000101 .
#272
b100000000000 "
b100000000110 .
#273
b100000000001 "
b100000000111 .
#275
b100000000011 "
b100000000110 .
#276
b100000000001 "
#277
b100000000010 "
b100000000101 .
#278
b100000000001 "
b100000000111 .
#279
b100000000010 "
#280
b100000000110 .
#281
b100000000001 "
#283
b100000000010 "
b100000000111 .
#284
b100000000001 "
b100000000110 .
#285
b100000000010 "
b100000000111 .
#286
b100000000001 "
#287
b100000000010 "
#288
b100000000001 "
b100000000110 .
#289
b100000000010 "
#291
b100000000111 .
#292
b100000000001 "
#293
b100000000010 "
b100000000110 .
#294
b100000000001 "
#295
b100000000111 .
#296
b100000000101 .
#297
b100000000111 .
#298
b100000000010 "
#299
b100000000001 "
#300
b100000000010 "
b100000000110 .
#301
b100000000111 .
#302
b100000000000 "
#304
b100000000001 "
b100000000110 .
#305
b100000000000 "
b100000000111 .
#306
b100000000001 "
#308
b100000000110 .
#309
b100000000010 "
b100000000101 .
#310
b100000000110 .
#312
b100000000001 "
b100000000101 .
#313
b100000001000 .
#314
b100000000010 "
b100000000111 .
#315
b100000000001 "
b100000000110 .
#319
b100000000101 .
#320
b100000000000 "
b100000000110 .
#321
b100000000010 "
b100000000111 .
#322
b100000000001 "
b100000000110 .
#323
b100000000111 .
#325
b100000000110 .
#326
b100000000111 .
#327
b100000000110 .
#330
b100000000101 .
#331
b100000000111 .
#332
b100000000110 .
#334
b100000000111 .
#335
b100000000010 "
b100000001000 .
#336
b100000000111 .
#337
b100000000001 "
#338
b100000000110 .
#339
b100000000000 "
b100000000111 .
#340
b100000000010 "
#342
b100000000110 .
#344
b100000000111 .
#345
b100000001000 .
#346
b100000000000 "
b100000000110 .
#347
b100000000001 "
b100000000111 .
#349
b100000000010 "
#350
b100000000110 .
#352
b100000000001 "
#353
b100000000111 .
#355
b100000000011 "
#356
b100000000010 "
b100000000110 .
#357
b100000000001 "
#358
b100000000111 .
#359
b100000000110 .
#360
b100000000010 "
#362
b100000000001 "
#363
b100000000111 .
#364
b100000000010 "
#366
b100000000110 .
#367
b100000000001 "
#368
b100000000010 "
b100000000111 .
#369
b100000000001 "
#370
b100000000010 "
b100000001000 .
#371
b100000000110 .
#372
b100000000001 "
#373
b100000000010 "
#374
b100000000001 "
#375
b100000000010 "
b100000000111 .
#376
b100000000110 .
#377
b100000000011 "
b100000000111 .
#378
b100000000010 "
b100000000110 .
#379
b100000000001 "
#381
b100000000010 "
#382
b100000000111 .
#383
b100000000110 .
#384
b100000000111 .
#385
b100000000110 .
#386
b100000000001 "
#388
b100000000010 "
#392
b100000000001 "
#394
b100000000010 "
#397
b100000000001 "
#398
b100000000101 .
#399
b100000000010 "
b100000000110 .
#400
b100000000001 "
#401
b100000000011 "
#402
b100000000010 "
#404
b100000000001 "
#405
b100000000111 .
#406
b100000000010 "
b100000000110 .
#407
b100000000001 "
b100000000111 .
#409
b100000000010 "
b100000000110 .
#410
b100000000001 "
#411
b100000000011 "
#412
b100000000010 "
#413
b100000000111 .
#414
b100000000001 "
b100000000101 .
#415
b100000000010 "
b100000000110 .
#417
b100000000001 "
#420
b100000000010 "
b100000000111 .
#421
b100000000001 "
b100000000110 .
#422
b100000000010 "
#423
b100000000001 "
#424
b100000000010 "
b100000000111 .
#426
b100000000001 "
b100000000110 .
#427
b100000000010 "
#428
b100000000001 "
#429
b100000000010 "
b100000000111 .
#430
b100000000001 "
b100000000101 .
#431
b100000000011 "
b100000000110 .
#432
b100000000001 "
#433
b100000000010 "
#434
b100000000001 "
b100000000111 .
#435
b100000000110 .
#436
b100000000010 "
#439
b100000000001 "
#440
b100000000010 "
#441
b100000000111 .
#442
b100000000001 "
#443
b100000000010 "
#446
b100000000001 "
b100000000110 .
#447
b100000000010 "
#448
b100000000001 "
#449
b100000000100 .
#450
b100000000110 .
#452
b100000000011 "
b100000000111 .
#453
b100000000010 "
b100000000101 .
#454
b100000000001 "
b100000000111 .
#455
b100000000010 "
b100000000110 .
#457
b100000000000 "
b100000000111 .
#458
b100000000010 "
b100000000110 .
#459
b100000000101 .
#460
b100000000110 .
#461
b100000000001 "
#463
b100000000010 "
#464
b100000000001 "
b100000000111 .
#465
b100000000110 .
#466
b100000000111 .
#467
b100000000110 .
#471
b100000000010 "
#473
b100000000001 "
b100000000111 .
#474
b100000000010 "
b100000000110 .
#475
b100000000001 "
#476
b100000000010 "
b100000000111 .
#477
b100000000001 "
b100000000110 .
#478
b100000000010 "
b100000000101 .
#479
b100000000001 "
b100000000110 .
#481
b100000000111 .
#482
b100000000110 .
#484
b100000000000 "
b100000000111 .
#485
b100000000001 "
#487
b100000000110 .
#490
b100000000111 .
#491
b100000000110 .
#492
b100000000010 "
#493
b100000000001 "
b100000000111 .
#494
b100000000110 .
#496
b100000000101 .
#497
b100000000111 .
#498
b100000000010 "
#499
b100000000110 .
#500
b100000000001 "
#501
b100000000010 "
#504
b100000000001 "
b100000000101 .
#505
b100000000010 "
b100000000110 .
#506
b100000000000 "
b100000000111 .
#507
b100000000001 "
b100000000110 .
#508
b100000000111 .
#510
b100000000110 .
#511
b100000000000 "
#512
b100000000010 "
b100000000111 .
1:
#513
b100000000001 "
b100000000110 .
#514
b100000000111 .
#515
b100000000101 .
#516
b100000000010 "
b100000000110 .
#517
b100000000111 .
#518
b100000000001 "
#519
b100000000110 .
#521
b100000000010 "
b100000001000 .
#522
b100000000001 "
b100000000110 .
#523
b100000000010 "
#524
b100000000111 .
#525
b100000000001 "
b100000000110 .
#526
b100000000101 .
#527
b100000000010 "
#528
b100000000110 .
#529
b100000000001 "
#531
b100000000010 "
#532
b100000000111 .
#534
b100000000001 "
b100000000101 .
#535
b100000000110 .
#536
b100000000010 "
#537
b100000000001 "
#539
b100000000010 "
b100000000111 .
#540
b100000000001 "
b100000000110 .
#541
b100000000010 "
#543
b100000000001 "
b100000000111 .
#544
b100000000110 .
#545
b100000000010 "
b100000000111 .
#546
b100000000001 "
#547
b100000000010 "
#548
b100000000001 "
b100000000110 .
#549
b100000000010 "
b100000000111 .
#550
b100000000001 "
#551
b100000000101 .
#552
b100000000110 .
#554
b100000000010 "
b100000000111 .
#555
b100000000001 "
b100000000101 .
#556
b100000000111 .
#557
b100000000110 .
#558
b100000000011 "
#559
b100000000010 "
#560
b100000000001 "
#561
b100000000010 "
b100000000111 .
#562
b100000000101 .
#563
b100000000001 "
b100000000110 .
#564
b100000000101 .
#565
b100000000011 "
b100000000111 .
#566
b100000000010 "
b100000000110 .
#567
b100000000001 "
b100000000111 .
#568
b100000000101 .
#569
b100000000111 .
#571
b100000000011 "
b100000000101 .
#572
b100000000001 "
b100000000111 .
#573
b100000000010 "
b100000000110 .
#574
b100000000001 "
#575
b100000000010 "
#576
b100000000001 "
#577
b100000000010 "
#578
b100000000111 .
#579
b100000000001 "
b100000000110 .
#580
b100000000010 "
#581
b100000000001 "
b100000000111 .
#582
b100000000110 .
#583
b100000000010 "
#585
b100000000111 .
#586
b100000000001 "
b100000000110 .
#587
b100000000010 "
#588
b100000000001 "
#589
b100000000010 "
#590
b100000000001 "
b100000000111 .
#591
b100000000010 "
b100000000110 .
#592
b100000001000 .
#593
b100000000111 .
#594
b100000000001 "
#595
b100000000010 "
#596
b100000000001 "
#597
b100000000101 .
#598
b100000000010 "
b100000000110 .
#599
b100000000101 .
#600
b100000000001 "
b100000000110 .
#602
b100000000010 "
b100000000111 .
#603
b100000000001 "
#604
b100000000010 "
b100000000110 .
#605
b100000000111 .
#606
b100000000001 "
b100000000110 .
#607
b100000000010 "
b100000000111 .
#608
b100000000101 .
#609
b100000000001 "
#610
b100000000010 "
b100000000110 .
#611
b100000000111 .
#612
b100000000001 "
b100000000110 .
#613
b100000000010 "
#615
b100000000001 "
#617
b100000000010 "
#621
b100000000000 "
b100000000111 .
#622
b100000000001 "
#623
b100000000010 "
b100000000101 .
#624
b100000000000 "
b100000000111 .
#625
b100000000010 "
b100000000110 .
#626
b100000000001 "
b100000000111 .
#627
b100000000000 "
#628
b100000000010 "
b100000000101 .
#629
b100000000110 .
#630
b100000000001 "
#631
b100000000010 "
#632
b100000000001 "
#633
b100000001000 .
#634
b100000000010 "
b100000000110 .
#635
b100000000111 .
#636
b100000000101 .
#637
b100000000110 .
#638
b100000000001 "
#639
b100000000111 .
#640
b100000000110 .
#641
b100000000000 "
b100000000111 .
#642
b100000000001 "
b100000000110 .
#647
b100000000010 "
#650
b100000000001 "
#651
b100000000111 .
#652
b100000000010 "
b100000000110 .
#654
b100000000001 "
b100000000111 .
#655
b100000000110 .
#656
b100000000010 "
b100000000111 .
#657
b100000000001 "
b100000000110 .
#658
b100000000111 .
#659
b100000000110 .
#660
b100000000111 .
#662
b100000000110 .
#663
b100000000000 "
#664
b100000000010 "
#665
b100000000111 .
#666
b100000000110 .
#667
b100000000001 "
#668
b100000000010 "
#669
b100000000001 "
b100000000101 .
#670
b100000000000 "
b100000000111 .
#671
b100000000110 .
#672
b100000000010 "
b100000000101 .
#673
b100000000111 .
#674
b100000000001 "
b100000000110 .
#675
b100000001000 .
#676
b100000000010 "
b100000000110 .
#678
b100000000001 "
#679
b100000000010 "
#682
b100000000001 "
#683
b100000000000 "
#684
b100000000001 "
b100000000111 .
#686
b100000000010 "
b100000000110 .
#688
b100000000000 "
#689
b100000000010 "
b100000000101 .
#690
b100000000011 "
b100000000111 .
#691
b100000000000 "
b100000000110 .
#692
b100000000010 "
b100000000111 .
#693
b100000000110 .
#701
b100000000001 "
#702
b100000000010 "
b100000000111 .
#703
b100000000001 "
#704
b100000000010 "
b100000000110 .
#705
b100000000111 .
#707
b100000000001 "
b100000000110 .
#708
b100000000010 "
#709
b100000000101 .
#710
b100000000001 "
b100000000111 .
#712
b100000000010 "
b100000000110 .
#713
b100000000111 .
#714
b100000000110 .
#715
b100000000001 "
#716
b100000000111 .
#718
b100000000010 "
b100000000101 .
#719
b100000000110 .
#721
b100000000001 "
#722
b100000000010 "
b100000000111 .
#723
b100000000110 .
#724
b100000000001 "
#725
b100000000010 "
#726
b100000000001 "
b100000000111 .
#727
b100000000101 .
#728
b100000000011 "
b100000000111 .
#729
b100000000010 "
#730
b100000000110 .
#732
b100000000001 "
b100000000111 .
#733
b100000000010 "
b100000000110 .
#734
b100000000111 .
#735
b100000000001 "
b100000000110 .
#736
b100000000111 .
#737
b100000000110 .
#739
b100000000010 "
#740
b100000000000 "
#741
b100000000111 .
#742
b100000000001 "
#743
b100000000010 "
b100000000110 .
#744
b100000000101 .
#745
b100000000011 "
b100000000110 .
#746
b100000000010 "
#747
b100000000101 .
#748
b100000000001 "
b100000000110 .
#749
b100000000010 "
#751
b100000000111 .
#752
b100000000110 .
#753
b100000000111 .
#755
b100000000001 "
b100000000110 .
#757
b100000000010 "
#758
b100000000001 "
#762
b100000000010 "
#764
b100000000001 "
#765
b100000000010 "
#769
b100000000001 "
b100000000111 .
#770
b100000000010 "
b100000000110 .
#771
b100000000001 "
b100000000111 .
#773
b100000000010 "
b100000000110 .
#774
b100000000001 "
#775
b100000000010 "
#776
b100000000111 .
#777
b100000000110 .
#778
b100000000001 "
#779
b100000000010 "
#780
b100000000001 "
#781
b100000000010 "
#782
b100000000011 "
b100000000101 .
#783
b100000000010 "
b100000000110 .
#785
b100000000001 "
#787
b100000000010 "
b100000000101 .
#788
b100000000110 .
#791
b100000000001 "
#793
b100000000010 "
#794
b100000000001 "
b100000000111 .
#796
b100000000010 "
b100000000110 .
#797
b100000000000 "
b100000000101 .
#798
b100000000010 "
#799
b100000000001 "
b100000000111 .
#800
b100000000010 "
#801
b100000000001 "
b100000000110 .
#802
b100000000010 "
b100000000111 .
#803
b100000000000 "
b100000000110 .
#804
b100000000010 "
#805
b100000000000 "
#806
b100000000001 "
b100000000111 .
#807
b100000000010 "
#808
b100000000110 .
#809
b100000000001 "
b100000000111 .
#810
b100000000110 .
#811
b100000000010 "
b100000000111 .
#812
b100000000001 "
b100000000110 .
#813
b100000000010 "
#814
b100000000001 "
#815
b100000000010 "
#816
b100000000011 "
#817
b100000000010 "
#818
b100000000111 .
#819
b100000000110 .
#820
b100000000001 "
#822
b100000000010 "
b100000000111 .
#823
b100000000001 "
b100000000110 .
#824
b100000000111 .
#825
b100000000010 "
b100000000110 .
#826
b100000000001 "
#827
b100000000010 "
b100000000111 .
#828
b100000000001 "
b100000000101 .
#829
b100000000110 .
#832
b100000000010 "
#833
b100000000000 "
#834
b100000000010 "
#835
b100000000001 "
#838
b100000000010 "
b100000000101 .
#839
b100000000110 .
#840
b100000000001 "
#841
b100000000010 "
#842
b100000000111 .
#843
b100000000110 .
#844
b100000000001 "
b100000000101 .
#845
b100000000010 "
b100000000111 .
#846
b100000000110 .
#847
b100000000001 "
#851
b100000000010 "
b100000000111 .
#852
b100000000110 .
#854
b100000000111 .
#855
b100000000001 "
#856
b100000000010 "
b100000000110 .
#857
b100000000001 "
b100000000111 .
#858
b100000000010 "
b100000000110 .
#859
b100000000101 .
#860
b100000000001 "
#861
b100000001000 .
#862
b100000000110 .
#863
b100000000010 "
b100000000111 .
#864
b100000000110 .
#865
b100000000011 "
#866
b100000000001 "
b100000000111 .
#867
b100000000110 .
#868
b100000000010 "
b100000000101 .
#869
b100000000110 .
#870
b100000000111 .
#871
b100000000000 "
b100000000110 .
#873
b100000000001 "
#874
b100000000000 "
#875
b100000000001 "
#876
b100000000010 "
#877
b100000000001 "
b100000000111 .
#878
b100000000010 "
b100000000110 .
#880
b100000000011 "
#881
b100000000001 "
b100000000111 .
#882
b100000000010 "
b100000000110 .
#883
b100000000001 "
#884
b100000000101 .
#885
b100000000010 "
b100000000111 .
#886
b100000000000 "
#887
b100000000010 "
#888
b100000000001 "
#889
b100000000110 .
#891
b100000000111 .
#893
b100000000010 "
#894
b100000000110 .
#895
b100000000001 "
b100000000111 .
#896
b100000000010 "
b100000000101 .
#897
b100000000110 .
#898
b100000000001 "
#899
b100000000010 "
#900
b100000000111 .
#901
b100000000110 .
#902
b100000000001 "
b100000000101 .
#903
b100000000010 "
b100000000110 .
#904
b100000000001 "
b100000001000 .
#905
b100000000000 "
b100000000111 .
#906
b100000000010 "
b100000000101 .
#907
b100000000110 .
#908
b100000000000 "
b100000000111 .
#909
b100000000001 "
b100000000110 .
#910
b100000000010 "
#911
b100000000001 "
#912
b100000000010 "
b100000000101 .
#913
b100000000110 .
#914
b100000000001 "
b100000000111 .
#915
b100000000110 .
#916
b100000000010 "
#917
b100000000001 "
#919
b100000000000 "
#920
b100000000010 "
b100000000111 .
#921
b100000000110 .
#923
b100000000111 .
#924
b100000000110 .
#925
b100000000001 "
b100000000101 .
#926
b100000000110 .
#927
b100000000010 "
b100000000111 .
#928
b100000000001 "
b100000000110 .
#930
b100000000111 .
#931
b100000000110 .
#932
b100000000010 "
#933
b100000000001 "
#934
b100000000000 "
b100000000111 .
#935
b100000000011 "
#936
b100000000010 "
#937
b100000000110 .
#938
b100000000001 "
b100000000111 .
#939
b100000000011 "
#940
b100000000010 "
b100000000110 .
#941
b100000000001 "
#942
b100000000101 .
#943
b100000000111 .
#944
b100000000110 .
#945
b100000000010 "
b100000000111 .
#946
b100000000011 "
#947
b100000000010 "
#948
b100000000001 "
b100000000110 .
#950
b100000000010 "
b100000000111 .
#951
b100000000001 "
b100000000110 .
#952
b100000000111 .
#953
b100000000010 "
#954
b100000000110 .
#956
b100000000001 "
#957
b100000000101 .
#958
b100000000110 .
#959
b100000000010 "
#961
b100000000001 "
b100000000101 .
#962
b100000000010 "
b100000000110 .
#965
b100000000001 "
#966
b100000000111 .
#968
b100000000110 .
#969
b100000000010 "
b100000000101 .
#970
b100000000001 "
b100000000110 .
#971
b100000000010 "
#972
b100000000111 .
#973
b100000000011 "
b100000000101 .
#974
b100000000010 "
b100000000111 .
#975
b100000000001 "
b100000000110 .
#976
b100000000010 "
#977
b100000000001 "
#979
b100000000010 "
b100000000111 .
#981
b100000000001 "
#982
b100000000010 "
#983
b100000000001 "
b100000000110 .
#984
b100000000010 "
b100000000111 .
#985
b100000000001 "
b100000000101 .
#986
b100000000010 "
b100000000110 .
#987
b100000000001 "
#988
b100000000011 "
#989
b100000000010 "
b100000000111 .
#990
b100000000001 "
b100000000110 .
#991
b100000000010 "
#992
b100000000001 "
#993
b100000000010 "
b100000000111 .
#994
b100000000001 "
b100000000110 .
#997
b100000000010 "
#999
b100000000000 "
#1001
b100000000001 "
#1003
b100000000010 "
b100000000111 .
#1004
b100000000001 "
b100000000110 .
#1005
b100000000010 "
b100000000111 .
#1006
b100000000110 .
#1007
b100000000001 "
#1008
b100000000111 .
#1009
b100000000110 .
#1010
b100000000010 "
b100000000111 .
#1011
b100000000110 .
#1012
b100000000001 "
#1013
b100000000010 "
b100000000111 .
#1014
b100000000110 .
#1015
b100000000001 "
#1017
b100000000010 "
#1018
b100000000111 .
#1020
b100000000001 "
b100000000110 .
#1021
b100000000111 .
#1022
b100000000010 "
b100000000110 .
#1023
b100000000001 "
