CCD231/.Xil/Vivado-3077-apple/hw_ila_data_1/zip_work/waveform.vcd
$date
        2021-Feb-24 22:23:51
$end
$version
        Vivado v2017.4 (64-bit)
$end
$timescale
        1ps
$end
$scope module dut $end
$var reg 1 " EF_FR_P_IBUF_BUFG $end
$var reg 1 # EF_FR_N_IBUF $end
$var reg 1 $ EF_DCO_P_IBUF $end
$var reg 1 % EF_DCO_N_IBUF_BUFG $end
$var reg 1 & PL_KEY $end
$var reg 16 ' data_E [15:0] $end
$var reg 16 7 data_F [15:0] $end
$var reg 16 G data_G [15:0] $end
$var reg 16 W data_H [15:0] $end
$var reg 1 g sclk_OBUF $end
$var reg 1 h mosi_OBUF $end
$var reg 1 i A0_OBUF $end
$var reg 1 j A1_OBUF $end
$var reg 1 k data_status $end
$var reg 1 l _TRIGGER $end
$var reg 1 m _WINDOW $end
$var reg 1 n _GAP $end
$upscope $end
$enddefinitions $end
#0
$dumpvars
1"
0#
0$
1%
0&
b0 '
b1111111110000000 7
b0 G
b0 W
1g
0h
0i
0j
1k
0l
1m
0n
$end
#1
1$
#2
0%
#5
1&
b0 7
0k
1l
#8
0$
#9
1%
#11
1#
#12
0"
#15
1$
#16
0%
#23
0$
1%
#30
1$
0%
#37
0$
1%
#41
1"
0#
#45
1$
0%
#52
0$
1%
#60
1$
0%
#63
0&
#67
0$
#68
1%
#71
0"
1#
#75
1$
0%
#83
0$
1%
#91
1$
0%
#99
0$
1%
#103
1"
0#
#106
b1111111110000000 7
#107
1$
0%
#115
0$
1%
#123
1$
#124
0%
#132
0$
1%
#135
1#
#136
0"
#140
1$
0%
#149
0$
1%
#157
1$
#158
0%
#166
0$
1%
#170
1"
0#
#175
1$
0%
#184
0$
1%
#193
1$
0%
#202
0$
1%
#206
0"
1#
#211
1$
0%
#221
0$
1%
#230
1$
0%
#240
0$
1%
#244
1"
0#
#249
1$
0%
#259
0$
1%
#269
1$
0%
#279
0$
1%
#283
1#
#284
0"
#289
1$
0%
#299
0$
1%
#309
1$
#310
0%
#320
0$
1%
#324
1"
0#
#330
1$
#331
0%
#341
0$
1%
#351
1$
#352
0%
#363
0$
1%
#367
1#
#368
0"
#373
1$
#374
0%
#385
0$
1%
#396
1$
0%
#407
0$
1%
#412
1"
0#
#418
1$
#419
0%
#430
0$
1%
#442
1$
0%
#454
0$
1%
#459
1#
#460
0"
#466
1$
0%
#478
0$
1%
#490
1$
#491
0%
#503
0$
1%
#508
1"
0#
#515
1$
#516
0%
#528
0$
1%
#541
1$
0%
#554
0$
1%
#559
0"
1#
#565
1$
#566
0%
#577
0$
1%
#588
1$
#589
0%
#600
0$
1%
#605
1"
0#
#608
b1110000 G
#611
1$
0%
#622
0$
1%
#633
1$
#634
0%
#645
0$
1%
#650
1#
#651
0"
#657
1$
0%
#669
0$
1%
#680
1$
0%
#691
0$
1%
#696
1"
0#
#699
b1111111110000000 '
b0 7
b11111110000000 G
#702
1$
#703
0%
#714
0$
1%
#725
1$
0%
#736
0$
1%
#741
0"
1#
#746
1$
#747
0%
#757
0$
1%
#766
1$
#767
0%
#776
0$
1%
#780
1"
0#
#783
b1111111110000000 7
b0 G
#784
1$
#785
0%
#794
0$
1%
#802
1$
#803
0%
#811
0$
1%
#814
1#
#815
0"
#819
1$
0%
#827
0$
1%
#834
1$
#835
0%
#842
0$
1%
#845
1"
0#
#848
b0 7
b110000000 G
#849
1$
0%
#856
0$
1%
#862
1$
#863
0%
#869
0$
1%
#872
0"
1#
#875
1$
0%
#881
0$
1%
#886
1$
#887
0%
#892
0$
1%
#895
1"
0#
#897
1$
#898
0%
b1111111110000000 7
b0 G
#903
0$
1%
#908
1$
#909
0%
#914
0$
1%
#916
0"
1#
#919
1$
0%
#924
0$
1%
#929
1$
0%
#934
0$
1%
#936
1"
0#
#938
1$
#939
0%
b0 '
b1110000000000000 G
#943
0$
1%
#948
1$
0%
#953
0$
1%
#955
0"
1#
#957
1$
0%
#962
0$
1%
#966
1$
0%
#970
0$
1%
#972
0#
#973
1"
#975
1$
0%
#976
b0 G
#979
0$
1%
#984
1$
0%
#989
0$
1%
#990
1#
#991
0"
#993
1$
0%
#998
0$
1%
#1003
1$
0%
#1008
0$
1%
#1010
1"
0#
#1012
1$
#1013
0%
b1111111110000000 '
b0 7
#1017
0$
1%
#1022
1$
0%
#1027
0$
1%
#1029
1#
#1030
0"
#1032
1$
0%
#1037
0$
1%
#1041
1$
#1042
0%
#1046
0$
1%
#1048
1"
0#
#1050
1$
#1051
0%
b0 '
#1055
0$
1%
#1060
1$
0%
#1065
0$
1%
#1066
1#
#1067
0"
#1069
1$
0%
#1074
0$
1%
#1078
1$
0%
#1082
0$
1%
#1084
1"
0#
#1086
1$
#1087
0%
#1091
0$
1%
#1095
1$
0%
#1099
0$
1%
#1101
0"
1#
#1103
1$
#1104
0%
#1107
0$
1%
#1111
1$
#1112
0%
#1115
0$
1%
#1117
1"
0#
#1119
1$
#1120
0%
b1111111110000000 '
b1111111110000000 7
b1110000000000000 G
#1123
0$
1%
#1127
1$
0%
#1131
0$
1%
#1133
0"
1#
#1135
1$
0%
#1139
0$
1%
#1142
1$
#1143
0%
#1146
0$
1%
#1148
1"
0#
#1150
1$
0%
#1151
b0 '
b0 7
b0 G
#1154
0$
1%
#1157
1$
#1158
0%
#1161
0$
1%
#1162
1#
#1163
0"
#1164
1$
#1165
0%
#1168
0$
1%
#1172
1$
0%
#1175
0$
1%
#1177
1"
0#
#1179
1$
0%
#1180
b1111111110000000 7
#1183
0$
1%
#1186
1$
0%
#1190
0$
1%
#1191
0"
1#
#1193
1$
0%
#1196
1%
#1197
0$
#1200
1$
0%
#1203
0$
1%
#1205
1"
0#
#1207
1$
0%
#1208
b1111111110000000 '
b0 7
b111100000 G
#1210
0$
1%
#1213
1$
#1214
0%
#1217
0$
1%
#1218
1#
#1219
0"
#1220
1$
#1221
0%
#1223
1%
#1224
0$
#1226
1$
#1227
0%
#1231
0$
1%
#1232
1"
0#
#1234
1$
0%
#1235
b1111111110000000 7
b0 G
#1237
0$
1%
#1240
1$
#1241
0%
#1243
1%
#1244
0$
#1245
1#
#1246
0"
1$
#1248
0%
#1251
0$
1%
#1254
1$
0%
#1257
0$
1%
#1259
1"
0#
1$
#1261
0%
#1264
0$
1%
#1266
1$
#1267
0%
#1271
0$
1%
#1272
0"
1#
#1274
1$
0%
#1276
1%
#1277
0$
#1279
1$
#1281
0%
#1284
0$
1%
#1285
1"
0#
#1287
1$
0%
#1288
b0 '
b0 7
#1289
1%
#1290
0$
#1293
1$
#1294
0%
#1297
0$
1%
#1298
1#
#1299
0"
1$
#1300
0%
#1303
0$
1%
#1306
1$
#1307
0%
#1309
1%
#1310
0$
#1311
0#
#1312
1"
1$
#1313
0%
#1315
b1111111110000000 '
b1111111110000000 7
#1316
0$
1%
#1319
1$
#1320
0%
#1322
1%
#1323
0$
#1324
1#
#1325
0"
#1326
1$
#1327
0%
#1330
0$
1%
#1333
1$
#1334
0%
#1337
0$
1%
#1338
0#
#1339
1"
#1340
1$
#1341
0%
#1344
0$
1%
#1348
1$
0%
#1352
0$
1%
#1354
0"
1#
#1356
1$
#1357
0%
#1361
0$
1%
#1365
1$
#1366
0%
#1370
0$
1%
#1372
1"
0#
#1375
1$
0%
b0 '
#1380
0$
1%
#1385
1$
0%
#1390
0$
1%
#1392
1#
#1393
0"
#1395
1$
#1396
0%
#1401
0$
1%
#1406
1$
0%
#1412
0$
1%
#1414
1"
0#
#1417
1$
b1100 G
#1418
0%
#1423
0$
1%
#1429
1$
0%
#1435
0$
1%
#1437
1#
#1438
0"
#1440
1$
#1441
0%
#1447
0$
1%
#1453
1$
0%
#1459
0$
1%
#1462
1"
0#
#1465
1$
0%
b0 G
#1471
0$
#1472
1%
#1478
1$
0%
#1484
0$
1%
#1487
1#
#1488
0"
#1491
1$
0%
#1497
0$
1%
#1504
1$
0%
#1511
0$
1%
#1514
1"
0#
#1517
1$
#1518
0%
#1524
0$
#1525
1%
#1531
1$
#1532
0%
#1538
0$
1%
#1541
1#
#1542
0"
#1545
1$
#1546
0%
#1553
0$
1%
#1560
1$
0%
#1567
0$
1%
#1571
1"
0#
#1575
1$
0%
#1582
0$
1%
#1590
1$
0%
#1597
0$
#1598
1%
#1601
0"
1#
#1605
1$
0%
#1613
0$
1%
#1621
1$
0%
#1629
0$
1%
#1633
1"
0#
#1637
1$
0%
#1645
0$
1%
#1653
1$
#1654
0%
#1662
0$
1%
#1665
1#
#1666
0"
#1670
1$
#1671
0%
#1679
0$
1%
#1687
1$
#1688
0%
#1696
0$
1%
#1700
1"
0#
#1705
1$
0%
#1714
0$
1%
#1723
1$
0%
#1732
0$
1%
#1736
1#
#1737
0"
#1741
1$
#1742
0%
#1751
0$
1%
#1760
1$
0%
#1770
0$
1%
#1774
1"
0#
#1777
b1 G
#1779
1$
#1780
0%
#1789
0$
1%
#1799
1$
0%
#1809
0$
1%
#1813
1#
#1814
0"
#1819
1$
0%
#1829
0$
1%
#1839
1$
#1840
0%
#1850
0$
1%
#1854
1"
0#
#1857
b0 G
#1860
1$
#1861
0%
#1871
0$
1%
#1881
1$
#1882
0%
#1892
0$
#1893
1%
#1897
1#
#1898
0"
#1903
1$
#1904
0%
#1915
0$
1%
#1926
1$
0%
#1937
0$
1%
#1942
1"
0#
#1948
1$
#1949
0%
#1960
0$
1%
#1972
1$
0%
#1984
0$
1%
#1989
0"
1#
#1996
1$
0%
#2008
0$
1%
#2020
1$
#2021
0%
#2033
0$
1%
#2038
1"
0#
#2045
1$
#2046
0%
