CCD231-debug-2021-01-26/.Xil/Vivado-201471-apple/hw_ila_data_1/zip_work/waveform.vcd
$date
        2021-Jan-27 12:17:43
$end
$version
        Vivado v2017.4 (64-bit)
$end
$timescale
        1ps
$end
$scope module dut $end
$var reg 1 " sclk_OBUF $end
$var reg 1 # mosi_OBUF $end
$var reg 1 $ A0_OBUF $end
$var reg 1 % A1_OBUF $end
$var reg 1 & RST_SIG_CTR_OBUF $end
$var reg 1 ' RPHI1_CTR_OBUF $end
$var reg 1 ( RPHI2_CTR_OBUF $end
$var reg 1 ) RPHI3_CTR_OBUF $end
$var reg 1 * rst_w $end
$var reg 1 + _TRIGGER $end
$var reg 1 , _WINDOW $end
$var reg 1 - _GAP $end
$upscope $end
$enddefinitions $end
#0
$dumpvars
1"
1#
0$
0%
0&
0'
0(
0)
0*
0+
1,
0-
$end
#128
1*
1+
#138
0*
#147
1$
1%
#156
0"
#161
1"
#166
0"
#171
1"
#176
0"
#181
1"
#186
0"
#191
1"
#196
0"
#201
1"
0#
#206
0"
#211
1"
#216
0"
#221
1"
#226
0"
#231
1"
#236
0"
#241
1"
#246
0"
#251
1"
#256
0"
#261
1"
#266
0"
#271
1"
#276
0"
#281
1"
#286
0"
#291
1"
#296
0"
#301
1"
#306
0"
#311
1"
#316
0"
#321
1"
#326
0"
#331
1"
#336
0"
#341
1"
#346
0"
#351
1"
#356
0"
#361
1"
#366
0"
#371
1"
#376
0"
#381
1"
#386
0"
#391
1"
#396
0"
#401
1"
#406
0"
#411
1"
#416
0"
#421
1"
#426
0"
#431
1"
#436
0"
#441
1"
#446
0"
#451
1"
#456
0"
#461
1"
1#
#466
0"
#471
1"
0$
0%
#481
1$
1%
#490
0"
#495
1"
#500
0"
#505
1"
#510
0"
#515
1"
#520
0"
#525
1"
0#
#530
0"
#535
1"
1#
#540
0"
#545
1"
0#
#550
0"
#555
1"
#560
0"
#565
1"
#570
0"
#575
1"
#580
0"
#585
1"
#590
0"
#595
1"
#600
0"
#605
1"
#610
0"
#615
1"
#620
0"
#625
1"
#630
0"
#635
1"
#640
0"
#645
1"
#650
0"
#655
1"
#660
0"
#665
1"
#670
0"
#675
1"
#680
0"
#685
1"
#690
0"
#695
1"
#700
0"
#705
1"
#710
0"
#715
1"
#720
0"
#725
1"
1#
#730
0"
#735
1"
#740
0"
#745
1"
#750
0"
#755
1"
#760
0"
#765
1"
#770
0"
#775
1"
#780
0"
#785
1"
#790
0"
#795
1"
#800
0"
#805
1"
0$
0%
#815
1$
1%
#824
0"
#829
1"
#834
0"
#839
1"
#844
0"
#849
1"
#854
0"
#859
1"
0#
#864
0"
#869
1"
1#
#874
0"
#879
1"
#884
0"
#889
1"
0#
#894
0"
#899
1"
#904
0"
#909
1"
#914
0"
#919
1"
#924
0"
#929
1"
#934
0"
#939
1"
#944
0"
#949
1"
#954
0"
#959
1"
#964
0"
#969
1"
#974
0"
#979
1"
#984
0"
#989
1"
#994
0"
#999
1"
#1004
0"
#1009
1"
#1014
0"
#1019
1"
#1024
0"
#1029
1"
#1034
0"
#1039
1"
#1044
0"
#1049
1"
#1054
0"
#1059
1"
1#
#1064
0"
#1069
1"
#1074
0"
#1079
1"
#1084
0"
#1089
1"
#1094
0"
#1099
1"
#1104
0"
#1109
1"
#1114
0"
#1119
1"
#1124
0"
#1129
1"
#1134
0"
#1139
1"
0$
0%
#1149
1$
1%
#1158
0"
#1163
1"
#1168
0"
#1173
1"
#1178
0"
#1183
1"
#1188
0"
#1193
1"
0#
#1198
0"
#1203
1"
#1208
0"
#1213
1"
1#
#1218
0"
#1223
1"
#1228
0"
#1233
1"
0#
#1238
0"
#1243
1"
#1248
0"
#1253
1"
#1258
0"
#1263
1"
#1268
0"
#1273
1"
#1278
0"
#1283
1"
1#
#1288
0"
#1293
1"
0#
#1298
0"
#1303
1"
#1308
0"
#1313
1"
1#
#1318
0"
#1323
1"
#1328
0"
#1333
1"
0#
#1338
0"
#1343
1"
#1348
0"
#1353
1"
1#
#1358
0"
#1363
1"
#1368
0"
#1373
1"
0#
#1378
0"
#1383
1"
#1388
0"
#1393
1"
#1398
0"
#1403
1"
#1408
0"
#1413
1"
#1418
0"
#1423
1"
#1428
0"
#1433
1"
#1438
0"
#1443
1"
#1448
0"
#1453
1"
#1458
0"
#1463
1"
#1468
0"
#1473
1"
1#
0$
0%
#1483
1$
1%
#1492
0"
#1497
1"
#1502
0"
#1507
1"
#1512
0"
#1517
1"
#1522
0"
#1527
1"
0#
#1532
0"
#1537
1"
#1542
0"
#1547
1"
1#
#1552
0"
#1557
1"
#1562
0"
#1567
1"
0#
#1572
0"
#1577
1"
#1582
0"
#1587
1"
#1592
0"
#1597
1"
1#
#1602
0"
#1607
1"
0#
#1612
0"
#1617
1"
#1622
0"
#1627
1"
#1632
0"
#1637
1"
1#
#1642
0"
#1647
1"
0#
#1652
0"
#1657
1"
#1662
0"
#1667
1"
1#
#1672
0"
#1677
1"
0#
#1682
0"
#1687
1"
#1692
0"
#1697
1"
1#
#1702
0"
#1707
1"
0#
#1712
0"
#1717
1"
#1722
0"
#1727
1"
#1732
0"
#1737
1"
#1742
0"
#1747
1"
#1752
0"
#1757
1"
#1762
0"
#1767
1"
#1772
0"
#1777
1"
#1782
0"
#1787
1"
#1792
0"
#1797
1"
#1802
0"
#1807
1"
1#
0$
0%
#1817
1$
1%
#1826
0"
#1831
1"
#1836
0"
#1841
1"
#1846
0"
#1851
1"
#1856
0"
#1861
1"
0#
#1866
0"
#1871
1"
#1876
0"
#1881
1"
1#
#1886
0"
#1891
1"
#1896
0"
#1901
1"
0#
#1906
0"
#1911
1"
#1916
0"
#1921
1"
1#
#1926
0"
#1931
1"
0#
#1936
0"
#1941
1"
#1946
0"
#1951
1"
1#
#1956
0"
#1961
1"
#1966
0"
#1971
1"
0#
#1976
0"
#1981
1"
#1986
0"
#1991
1"
1#
#1996
0"
#2001
1"
#2006
0"
#2011
1"
0#
#2016
0"
#2021
1"
#2026
0"
#2031
1"
1#
#2036
0"
#2041
1"
#2046
0"
#2051
1"
0#
#2056
0"
#2061
1"
#2066
0"
#2071
1"
#2076
0"
#2081
1"
#2086
0"
#2091
1"
#2096
0"
#2101
1"
#2106
0"
#2111
1"
#2116
0"
#2121
1"
#2126
0"
#2131
1"
#2136
0"
#2141
1"
1#
0$
0%
#2151
1$
1%
#2160
0"
#2165
1"
#2170
0"
#2175
1"
#2180
0"
#2185
1"
#2190
0"
#2195
1"
0#
#2200
0"
#2205
1"
#2210
0"
#2215
1"
1#
#2220
0"
#2225
1"
#2230
0"
#2235
1"
0#
#2240
0"
#2245
1"
#2250
0"
#2255
1"
1#
#2260
0"
#2265
1"
#2270
0"
#2275
1"
0#
#2280
0"
#2285
1"
#2290
0"
#2295
1"
1#
#2300
0"
#2305
1"
0#
#2310
0"
#2315
1"
1#
#2320
0"
#2325
1"
0#
#2330
0"
#2335
1"
1#
#2340
0"
#2345
1"
0#
#2350
0"
#2355
1"
1#
#2360
0"
#2365
1"
0#
#2370
0"
#2375
1"
1#
#2380
0"
#2385
1"
0#
#2390
0"
#2395
1"
#2400
0"
#2405
1"
#2410
0"
#2415
1"
#2420
0"
#2425
1"
#2430
0"
#2435
1"
#2440
0"
#2445
1"
#2450
0"
#2455
1"
#2460
0"
#2465
1"
#2470
0"
#2475
1"
1#
0$
0%
#2485
1$
1%
#2494
0"
#2499
1"
#2504
0"
#2509
1"
#2514
0"
#2519
1"
#2524
0"
#2529
1"
0#
#2534
0"
#2539
1"
#2544
0"
#2549
1"
1#
#2554
0"
#2559
1"
#2564
0"
#2569
1"
0#
#2574
0"
#2579
1"
1#
#2584
0"
#2589
1"
0#
#2594
0"
#2599
1"
#2604
0"
#2609
1"
1#
#2614
0"
#2619
1"
0#
#2624
0"
#2629
1"
#2634
0"
#2639
1"
#2644
0"
#2649
1"
#2654
0"
#2659
1"
#2664
0"
#2669
1"
#2674
0"
#2679
1"
#2684
0"
#2689
1"
#2694
0"
#2699
1"
#2704
0"
#2709
1"
#2714
0"
#2719
1"
#2724
0"
#2729
1"
#2734
0"
#2739
1"
#2744
0"
#2749
1"
#2754
0"
#2759
1"
#2764
0"
#2769
1"
#2774
0"
#2779
1"
#2784
0"
#2789
1"
#2794
0"
#2799
1"
#2804
0"
#2809
1"
1#
0$
0%
#2819
1$
1%
#2828
0"
#2833
1"
#2838
0"
#2843
1"
#2848
0"
#2853
1"
#2858
0"
#2863
1"
0#
#2868
0"
#2873
1"
#2878
0"
#2883
1"
1#
#2888
0"
#2893
1"
#2898
0"
#2903
1"
0#
#2908
0"
#2913
1"
1#
#2918
0"
#2923
1"
0#
#2928
0"
#2933
1"
1#
#2938
0"
#2943
1"
#2948
0"
#2953
1"
0#
#2958
0"
#2963
1"
#2968
0"
#2973
1"
#2978
0"
#2983
1"
#2988
0"
#2993
1"
#2998
0"
#3003
1"
#3008
0"
#3013
1"
#3018
0"
#3023
1"
#3028
0"
#3033
1"
#3038
0"
#3043
1"
#3048
0"
#3053
1"
#3058
0"
#3063
1"
#3068
0"
#3073
1"
#3078
0"
#3083
1"
#3088
0"
#3093
1"
#3098
0"
#3103
1"
#3108
0"
#3113
1"
#3118
0"
#3123
1"
#3128
0"
#3133
1"
#3138
0"
#3143
1"
1#
0$
0%
#3153
1$
1%
#3162
0"
#3167
1"
#3172
0"
#3177
1"
#3182
0"
#3187
1"
#3192
0"
#3197
1"
0#
#3202
0"
#3207
1"
#3212
0"
#3217
1"
1#
#3222
0"
#3227
1"
#3232
0"
#3237
1"
0#
#3242
0"
#3247
1"
1#
#3252
0"
#3257
1"
#3262
0"
#3267
1"
0#
#3272
0"
#3277
1"
1#
#3282
0"
#3287
1"
0#
#3292
0"
#3297
1"
#3302
0"
#3307
1"
#3312
0"
#3317
1"
#3322
0"
#3327
1"
#3332
0"
#3337
1"
#3342
0"
#3347
1"
#3352
0"
#3357
1"
#3362
0"
#3367
1"
#3372
0"
#3377
1"
#3382
0"
#3387
1"
#3392
0"
#3397
1"
#3402
0"
#3407
1"
#3412
0"
#3417
1"
#3422
0"
#3427
1"
#3432
0"
#3437
1"
#3442
0"
#3447
1"
#3452
0"
#3457
1"
#3462
0"
#3467
1"
#3472
0"
#3477
1"
1#
0$
0%
#3487
1$
1%
#3496
0"
#3501
1"
#3506
0"
#3511
1"
#3516
0"
#3521
1"
#3526
0"
#3531
1"
0#
#3536
0"
#3541
1"
#3546
0"
#3551
1"
1#
#3556
0"
#3561
1"
#3566
0"
#3571
1"
0#
#3576
0"
#3581
1"
1#
#3586
0"
#3591
1"
#3596
0"
#3601
1"
#3606
0"
#3611
1"
0#
#3616
0"
#3621
1"
#3626
0"
#3631
1"
1#
#3636
0"
#3641
1"
#3646
0"
#3651
1"
0#
#3656
0"
#3661
1"
#3666
0"
#3671
1"
1#
#3676
0"
#3681
1"
#3686
0"
#3691
1"
0#
#3696
0"
#3701
1"
#3706
0"
#3711
1"
1#
#3716
0"
#3721
1"
#3726
0"
#3731
1"
0#
#3736
0"
#3741
1"
#3746
0"
#3751
1"
#3756
0"
#3761
1"
#3766
0"
#3771
1"
#3776
0"
#3781
1"
#3786
0"
#3791
1"
#3796
0"
#3801
1"
#3806
0"
#3811
1"
1#
0$
0%
#3838
1&
1'
1(
1)
#3863
0&
0'
0(
0)
#3888
1&
1'
1(
1)
#3913
0&
0'
0(
0)
#3938
1&
1'
1(
1)
#3963
0&
0'
0(
0)
#3988
1&
1'
1(
1)
#4013
0&
0'
0(
0)
#4038
1&
1'
1(
1)
#4063
0&
0'
0(
0)
#4088
1&
1'
1(
1)
#4113
0&
0'
0(
0)
#4138
1&
1'
1(
1)
#4163
0&
0'
0(
0)
#4188
1&
1'
1(
1)
#4213
0&
0'
0(
0)
#4238
1&
1'
1(
1)
#4263
0&
0'
0(
0)
#4288
1&
1'
1(
1)
#4313
0&
0'
0(
0)
#4338
1&
1'
1(
1)
#4363
0&
0'
0(
0)
#4388
1&
1'
1(
1)
#4413
0&
0'
0(
0)
#4438
1&
1'
1(
1)
#4463
0&
0'
0(
0)
#4488
1&
1'
1(
1)
#4513
0&
0'
0(
0)
#4538
1&
1'
1(
1)
#4563
0&
0'
0(
0)
#4588
1&
1'
1(
1)
#4613
0&
0'
0(
0)
#4638
1&
1'
1(
1)
#4663
0&
0'
0(
0)
#4688
1&
1'
1(
1)
#4713
0&
0'
0(
0)
#4738
1&
1'
1(
1)
#4763
0&
0'
0(
0)
#4788
1&
1'
1(
1)
#4813
0&
0'
0(
0)
